<svg xmlns="http://www.w3.org/2000/svg" viewBox="0 0 1000 1000">
    <g fill="#949494">
        <path d="M140.8 145H37.7C22.4 145 10 157.4 10 172.8c0 15.3 12.4 27.7 27.7 27.7h103.1c-1.8-9-2.7-18.2-2.7-27.7.1-9.5 1-18.8 2.7-27.8zM962.3 145h-539c1.8 9 2.7 18.2 2.7 27.7s-.9 18.7-2.7 27.7h539c15.3 0 27.7-12.4 27.7-27.7S977.6 145 962.3 145zM280.7 95c-49.5 0-89.7 40.1-89.7 89.7 0 49.5 40.1 89.7 89.7 89.7s89.7-40.1 89.7-89.7c0-49.5-40.1-89.7-89.7-89.7zm0 125c-19.5 0-35.3-15.8-35.3-35.3 0-19.5 15.8-35.3 35.3-35.3s35.3 15.8 35.3 35.3c.1 19.5-15.8 35.3-35.3 35.3zM859.2 462.1h103.1c15.3 0 27.7 12.4 27.7 27.7s-12.4 27.7-27.7 27.7H859.2c1.8-9 2.7-18.2 2.7-27.7-.1-9.5-1-18.8-2.7-27.7zM37.7 462.1h539c-1.8 9-2.7 18.2-2.7 27.7s.9 18.7 2.7 27.7h-539c-15.3 0-27.7-12.4-27.7-27.7 0-15.3 12.4-27.7 27.7-27.7zM629.6 501.7c0 49.5 40.2 89.7 89.7 89.7s89.7-40.2 89.7-89.7-40.1-89.7-89.7-89.7c-49.6.1-89.7 40.2-89.7 89.7zm54.3 0c0-19.5 15.8-35.3 35.3-35.3s35.3 15.8 35.3 35.3c0 19.5-15.8 35.3-35.3 35.3s-35.3-15.8-35.3-35.3zM140.8 775.6H37.7C22.4 775.6 10 788 10 803.3c0 15.3 12.4 27.7 27.7 27.7h103.1c-1.8-9-2.7-18.2-2.7-27.7.1-9.5 1-18.7 2.7-27.7zM962.3 775.6h-539c1.8 9 2.7 18.2 2.7 27.7s-.9 18.7-2.7 27.7h539c15.3 0 27.7-12.4 27.7-27.7s-12.4-27.7-27.7-27.7zM280.7 725.6c-49.5 0-89.7 40.2-89.7 89.7s40.1 89.7 89.7 89.7 89.7-40.1 89.7-89.7c0-49.5-40.1-89.7-89.7-89.7zm0 125c-19.5 0-35.3-15.8-35.3-35.3 0-19.5 15.8-35.3 35.3-35.3s35.3 15.8 35.3 35.3c.1 19.5-15.8 35.3-35.3 35.3z"/>
    </g>
</svg>
