<svg width="300" height="70" viewBox="0 0 300 70" fill="none" xmlns="http://www.w3.org/2000/svg">
<path d="M49.7354 61.7009H45.5072L53.7013 45.424H58.9389L61.7285 61.7009H57.5003L55.7121 49.525H55.5849L49.7354 61.7009ZM50.2441 55.2951H59.0819L58.5733 58.2834H49.7354L50.2441 55.2951ZM63.481 61.7009L66.1832 45.424H72.9706C74.1892 45.424 75.1827 45.5962 75.951 45.9406C76.7193 46.285 77.2597 46.7672 77.5723 47.3871C77.8902 48.007 77.9803 48.725 77.8425 49.5409C77.7313 50.1555 77.5034 50.7066 77.159 51.194C76.8199 51.6762 76.3961 52.0789 75.8874 52.4021C75.3787 52.72 74.8171 52.9425 74.2025 53.0697L74.1707 53.2287C74.8277 53.2552 75.4079 53.43 75.9112 53.7532C76.4199 54.0764 76.7961 54.5294 77.0398 55.1123C77.2835 55.6898 77.3392 56.368 77.2067 57.1469C77.0637 58.0211 76.7113 58.8027 76.1497 59.4915C75.5933 60.175 74.8595 60.7154 73.9482 61.1128C73.0368 61.5049 71.9824 61.7009 70.785 61.7009H63.481ZM67.9556 58.5298H70.3876C71.23 58.5298 71.8817 58.3682 72.3427 58.045C72.809 57.7165 73.0845 57.2661 73.1693 56.6939C73.2382 56.2753 73.2011 55.915 73.058 55.613C72.915 55.3057 72.6765 55.0699 72.3427 54.9056C72.0089 54.7361 71.5877 54.6513 71.079 54.6513H68.5755L67.9556 58.5298ZM69.0126 52.116H71.1982C71.6221 52.116 72.0116 52.0444 72.3666 51.9014C72.7269 51.7583 73.0236 51.5517 73.2567 51.2815C73.4951 51.0112 73.6435 50.6854 73.7018 50.3039C73.7919 49.7582 73.6673 49.329 73.3282 49.0164C72.9891 48.7038 72.4937 48.5475 71.842 48.5475H69.6008L69.0126 52.116ZM79.9725 48.619L80.513 45.424H94.2705L93.73 48.619H88.7945L86.6327 61.7009H82.7542L84.916 48.619H79.9725ZM109.421 53.8168C109.124 55.5706 108.541 57.0515 107.672 58.2596C106.809 59.4623 105.757 60.3737 104.517 60.9936C103.283 61.6135 101.955 61.9235 100.535 61.9235C99.0358 61.9235 97.7377 61.5897 96.6409 60.9221C95.5441 60.2544 94.7467 59.2822 94.2486 58.0052C93.7559 56.7283 93.6605 55.1785 93.9625 53.3558C94.2486 51.602 94.8235 50.1185 95.6872 48.9051C96.5561 47.6917 97.6132 46.7725 98.8583 46.1472C100.109 45.5167 101.449 45.2015 102.88 45.2015C104.369 45.2015 105.659 45.5379 106.75 46.2108C107.847 46.8837 108.642 47.8613 109.135 49.1435C109.627 50.4258 109.723 51.9835 109.421 53.8168ZM105.487 53.3558C105.651 52.3332 105.651 51.4722 105.487 50.7728C105.328 50.0734 105.015 49.5462 104.549 49.1912C104.083 48.8309 103.476 48.6508 102.729 48.6508C101.902 48.6508 101.155 48.8548 100.488 49.2627C99.8253 49.6654 99.2716 50.2536 98.8265 51.0271C98.3814 51.7954 98.0715 52.7253 97.8966 53.8168C97.7165 54.85 97.7112 55.711 97.8807 56.3998C98.0556 57.0886 98.3814 57.6079 98.8583 57.9576C99.3352 58.302 99.9418 58.4742 100.678 58.4742C101.5 58.4742 102.239 58.2755 102.896 57.8781C103.553 57.4807 104.101 56.9005 104.541 56.1375C104.986 55.3745 105.301 54.4473 105.487 53.3558ZM225.032 61.7009L233.52 49.0482L233.552 48.9528H226.05L226.622 45.424H238.702L238.13 48.9528L229.578 61.7009H225.032ZM236.904 59.1577L237.476 55.7242L245.742 45.424H248.858L248.095 50.0019H246.314L241.864 55.5971L241.832 55.7242H251.496L250.924 59.1577H236.904ZM244.407 61.7009L245.011 58.1086L245.361 56.6144L247.204 45.424H251.337L248.635 61.7009H244.407Z" fill="#222222"/>
<path d="M124.132 52.1796L123.623 55.2792H116.502L117.019 52.1796H124.132ZM111.161 56.2806H115.056C114.934 57.1495 115.088 57.7959 115.517 58.2198C115.946 58.6437 116.624 58.8556 117.551 58.8556C118.357 58.8556 119.014 58.6808 119.522 58.3311C120.031 57.9814 120.434 57.4595 120.73 56.7654C121.027 56.066 121.26 55.1944 121.43 54.1506L121.644 53.0061C121.819 51.957 121.856 51.0881 121.756 50.3993C121.66 49.7052 121.414 49.1886 121.017 48.8495C120.624 48.5051 120.068 48.3329 119.348 48.3329C118.59 48.3329 117.981 48.4388 117.52 48.6508C117.059 48.8627 116.704 49.17 116.455 49.5727C116.211 49.9701 116.031 50.447 115.914 51.0033H112.02C112.306 49.9224 112.785 48.9448 113.458 48.0706C114.131 47.191 115 46.4943 116.065 45.9803C117.135 45.4611 118.402 45.2015 119.864 45.2015C121.258 45.2015 122.418 45.5194 123.345 46.1552C124.278 46.7857 124.929 47.6864 125.3 48.8574C125.677 50.0284 125.73 51.4166 125.459 53.022L125.277 54.1585C125.012 55.764 124.508 57.1469 123.766 58.3073C123.025 59.4676 122.084 60.3604 120.945 60.9856C119.806 61.6109 118.51 61.9235 117.059 61.9235C115.702 61.9235 114.563 61.6903 113.641 61.2241C112.719 60.7525 112.046 60.0955 111.622 59.253C111.198 58.4053 111.045 57.4145 111.161 56.2806ZM136.26 61.7009L132.271 54.9454H131.372L130.252 61.7009H126.318L129.02 45.424H132.954L131.905 51.7424H132.533L138.621 45.424H143.54L136.006 53.1094L141.164 61.7009H136.26ZM158.122 51.3212H154.196C154.217 50.9079 154.178 50.5397 154.077 50.2165C153.976 49.888 153.817 49.6071 153.6 49.374C153.383 49.1356 153.113 48.9554 152.79 48.8336C152.466 48.7117 152.09 48.6508 151.661 48.6508C150.84 48.6508 150.095 48.8548 149.428 49.2627C148.76 49.6707 148.201 50.2589 147.751 51.0271C147.3 51.7954 146.985 52.7174 146.805 53.7929C146.641 54.8314 146.643 55.6978 146.813 56.3919C146.988 57.086 147.311 57.6079 147.782 57.9576C148.254 58.302 148.853 58.4742 149.579 58.4742C150.05 58.4742 150.487 58.4185 150.89 58.3073C151.298 58.1907 151.666 58.0238 151.995 57.8065C152.323 57.5893 152.607 57.327 152.845 57.0197C153.089 56.7071 153.277 56.3601 153.409 55.9786H157.367C157.171 56.6939 156.848 57.4065 156.398 58.1165C155.953 58.8212 155.391 59.4597 154.713 60.0319C154.035 60.6041 153.248 61.0625 152.352 61.4069C151.457 61.7513 150.461 61.9235 149.364 61.9235C147.865 61.9235 146.572 61.587 145.486 60.9141C144.405 60.2412 143.623 59.2663 143.141 57.9893C142.664 56.7071 142.574 55.1547 142.871 53.332C143.162 51.5676 143.737 50.0814 144.595 48.8733C145.459 47.6653 146.508 46.7513 147.743 46.1313C148.983 45.5114 150.305 45.2015 151.709 45.2015C152.726 45.2015 153.64 45.3392 154.451 45.6147C155.267 45.885 155.958 46.2824 156.525 46.8069C157.092 47.3262 157.513 47.9646 157.789 48.7223C158.069 49.48 158.181 50.3463 158.122 51.3212ZM175.76 45.424L173.058 61.7009H169.18L171.365 48.5713H165.325L163.139 61.7009H159.261L161.963 45.424H175.76ZM176.106 61.7009L178.808 45.424H190.158L189.617 48.619H182.202L181.662 51.957H188.497L187.956 55.16H181.121L180.581 58.5059H187.996L187.455 61.7009H176.106ZM189.919 61.7009L192.622 45.424H199.345C200.564 45.424 201.579 45.6598 202.389 46.1313C203.2 46.6029 203.775 47.2626 204.114 48.1103C204.453 48.9581 204.53 49.941 204.344 51.0589C204.164 52.1875 203.759 53.1704 203.128 54.0075C202.503 54.8447 201.698 55.4938 200.712 55.9547C199.727 56.4157 198.606 56.6462 197.35 56.6462H193.21L193.726 53.5466H197.144C197.742 53.5466 198.259 53.4432 198.694 53.2366C199.133 53.03 199.486 52.7412 199.751 52.3703C200.016 51.9994 200.19 51.5623 200.275 51.0589C200.355 50.5556 200.323 50.1211 200.18 49.7555C200.037 49.3846 199.78 49.0985 199.409 48.8972C199.043 48.6958 198.566 48.5951 197.978 48.5951H196.039L193.853 61.7009H189.919ZM206.127 48.619L206.667 45.424H220.425L219.884 48.619H214.949L212.787 61.7009H208.908L211.07 48.619H206.127Z" fill="#05CB0D"/>
<path d="M94.6577 37.2972L92.2549 30.0886C102.827 30.0886 108.674 31.6905 110.276 32.4915L95.8591 31.8908L97.0606 36.0957L125.294 38.4986L94.6577 37.2972Z" fill="#C9C9C9"/>
<path d="M106.071 16.8728C106.552 16.8728 113.48 18.8752 116.884 19.8763C114.481 20.8375 106.672 18.2745 103.067 16.8728C122.29 4.378 132.702 10.8657 135.506 15.6714C124.933 6.54056 111.477 12.6678 106.071 16.8728Z" fill="#C9C9C9"/>
<path fill-rule="evenodd" clip-rule="evenodd" d="M49.6045 39.6999H72.4315C72.4315 17.1132 82.0429 26.7081 85.0465 37.2971C85.0465 28.1663 82.6436 26.6845 81.4422 27.085C81.9228 26.1239 86.4481 26.6845 88.6507 27.085C80.9616 24.6821 78.2384 22.88 77.8379 22.2793C84.6533 18.0197 95.0933 20.7072 104.232 23.0596C107.981 24.0247 111.511 24.9334 114.481 25.2829C96.7002 20.4772 95.4588 18.0743 97.0607 17.4736C100.425 19.8765 119.287 22.88 128.298 24.0814H141.63C135.246 28.0401 135.203 33.9844 136.107 36.6964C137.308 27.6857 149.923 16.8729 158.934 38.4985C158.934 31.0334 153.864 26.0139 150.286 23.7491C155.427 23.2656 168.157 25.6639 174.552 27.085C168.786 23.721 152.927 21.6786 145.718 21.0779C141.393 15.7916 135.907 10.4653 133.704 8.46295C164.147 2.6893 179.455 12.9672 186.442 17.6578C187.451 18.3355 188.287 18.8966 188.969 19.2757H191.973C162.538 -4.7527 118.686 4.65844 100.665 13.2686H76.0358L71.1362 11.091C70.8978 10.9851 70.6294 11.1596 70.6294 11.4204V17.0481C70.6294 17.2709 70.8294 17.4403 71.0491 17.4037L77.8379 16.2722H85.0465V18.0743C70.1488 16.6326 69.2277 30.2888 70.6294 37.2971L49.6045 39.6999ZM102.467 16.873C104.767 15.273 108.666 12.9638 112.89 11.2325C120.704 8.02983 130.595 8.46851 136.23 14.7581C137.813 16.5246 139.407 18.7915 140.913 21.6787H134.906V20.4773C135.963 19.9488 137.391 18.5837 135.757 16.9543C135.253 16.4519 134.526 16.2723 133.814 16.2723H129.88C128.457 16.2723 126.812 16.5645 126.256 17.8744C126.079 18.2907 126.038 18.7391 126.239 19.1835C126.779 20.3726 128.377 20.4773 129.683 20.4773H131.302L131.902 21.6787C125.895 22.0792 111.598 21.6787 102.467 16.873Z" fill="#05CB0D"/>
<path d="M226.213 36.6963C220.807 11.4664 187.767 21.0778 164.94 21.0778L202.785 21.6785C215.761 22.1591 222.208 30.6892 223.81 34.8942C222.908 36.8165 198.605 37.6975 186.566 37.8977C190.411 38.8589 212.997 38.2982 223.81 37.8977V39.0992H246.036L226.213 37.297V36.6963Z" fill="#05CB0D"/>
<path d="M218.404 32.4914C216.962 29.608 212.196 26.0838 209.994 24.6821C217.683 27.085 220.406 31.6904 220.807 33.6928C209.753 36.5762 197.779 34.8942 193.174 33.6928C207.591 34.1734 216.001 33.0921 218.404 32.4914Z" fill="#05CB0D"/>
<path d="M138.51 9.66424L143.917 16.2721C142.956 16.2721 138.31 11.4664 136.107 9.06353C159.175 4.73841 172.951 10.8657 176.956 14.4699C169.147 8.46282 151.726 8.46282 138.51 9.66424Z" fill="#C9C9C9"/>
</svg>
