<svg width="300" height="70" viewBox="0 0 300 70" fill="none" xmlns="http://www.w3.org/2000/svg">
<path d="M261.001 56.416H251.076" stroke="url(#paint0_linear_206_95)" stroke-width="1.32337"/>
<path d="M261.002 51.7842H245.562" stroke="url(#paint1_linear_206_95)" stroke-width="1.32337"/>
<path d="M260.781 54.21H248.65" stroke="url(#paint2_linear_206_95)" stroke-width="1.32337"/>
<path d="M118.077 9.87689C98.4913 18.6994 83.0079 18.4053 77.7144 17.1554C81.6829 20.2736 90.003 20.3684 98.468 19.3095C110.278 17.8322 124.727 10.4883 136.544 9.06531C142.205 8.38365 149.454 7.87131 158.661 7.67116C191.128 6.96536 208.214 17.9641 212.699 23.5516C229.285 21.0813 253.576 26.6395 263.648 29.7274C254.649 21.6107 225.932 20.0227 212.699 20.2433C200.347 3.9217 142.56 -1.15123 118.077 9.87689Z" fill="white" stroke="white" stroke-width="0.441125"/>
<path d="M160.646 12.0825C141.413 11.7296 128.076 16.6408 123.812 19.1405C139.869 13.4941 153.588 13.9941 158.44 14.9499V26.1985H160.646V12.0825Z" fill="white"/>
<path d="M166.822 26.8604H204.097C194.216 15.9205 179.1 13.1855 172.777 13.1855C191.128 17.9497 196.304 22.9638 196.598 24.8754L166.822 26.8604Z" fill="white"/>
<path d="M90.2866 25.7568H105.064" stroke="url(#paint3_linear_206_95)" stroke-width="1.32337"/>
<path d="M104.844 27.9629H93.3745" stroke="url(#paint4_linear_206_95)" stroke-width="1.32337"/>
<path d="M104.403 29.9482H94.9185" stroke="url(#paint5_linear_206_95)" stroke-width="1.32337"/>
<path d="M69.1125 19.8018H25" stroke="url(#paint6_linear_206_95)" stroke-width="1.32337"/>
<path d="M69.5534 23.7725H31.6167" stroke="url(#paint7_linear_206_95)" stroke-width="1.32337"/>
<path d="M69.5534 29.0654H36.9102" stroke="url(#paint8_linear_206_95)" stroke-width="1.32337"/>
<path d="M77.935 24.2137L69.5536 17.8174V34.5801L77.935 24.2137Z" fill="white"/>
<path d="M69.5536 34.5801H42.645M69.5536 34.5801L77.935 24.2137L69.5536 17.8174V34.5801Z" stroke="url(#paint9_linear_206_95)" stroke-width="1.32337"/>
<path d="M246.444 41.1963C244.679 38.476 237.975 34.3156 227.917 35.9037C215.345 37.8887 214.021 52.8861 219.094 59.503C222.596 64.0705 225.364 65.4633 226.719 65.6649C226.91 65.6794 227.09 65.6841 227.255 65.6787C227.113 65.6989 226.934 65.6969 226.719 65.6649C224.263 65.4796 219.769 63.6913 217.11 60.827C214.203 57.6969 213.328 55.7194 212.698 52.8867C211.816 48.9166 212.232 43.773 215.565 39.2121C219.756 33.4775 225.481 32.2803 227.255 32.1539C230.342 31.9336 240.709 30.8299 246.444 41.1963Z" fill="white"/>
<path d="M245.563 44.0237C244.12 41.8147 238.637 38.4363 230.413 39.7259C220.132 41.3378 219.05 53.5163 223.198 58.8895C226.097 62.6444 228.381 63.7571 229.473 63.8989C229.616 63.9066 229.749 63.9084 229.871 63.9045C229.765 63.9196 229.632 63.9194 229.473 63.8989C227.455 63.7899 223.597 62.508 221.575 59.9647C220.221 58.261 219.513 57.0532 219.005 55.8936C218.4 54.5115 218.071 53.0204 217.945 51.5168C217.666 48.2051 218.074 45.4537 220.312 42.4125C223.74 37.7557 228.421 36.7836 229.871 36.6808C232.396 36.502 240.873 35.6057 245.563 44.0237Z" fill="white"/>
<path d="M271.589 39.6523C269.648 31.8885 260.487 30.9768 256.149 31.4914L259.899 35.9029C264.134 35.55 269.457 38.2554 271.589 39.6523Z" fill="white"/>
<path d="M262.546 60.8265C261.84 48.8279 268.721 43.9167 272.25 42.9609V44.5049C271.074 44.5949 268.677 46.0885 268.501 51.3423C268.324 56.5961 273.427 59.8542 276 60.8265H262.546Z" fill="white"/>
<path d="M60.4285 43.4633L58.1867 56.9668H54.9691L56.7823 46.0743H51.7713L49.958 56.9668H46.7404L48.9822 43.4633H60.4285ZM60.344 56.9668L62.5858 43.4633H68.1639C69.1749 43.4633 70.0167 43.6589 70.6892 44.0501C71.3618 44.4413 71.8387 44.9886 72.12 45.6919C72.4013 46.3952 72.4651 47.2106 72.3112 48.1381C72.1618 49.0744 71.8255 49.8898 71.3024 50.5843C70.7837 51.2788 70.1156 51.8173 69.298 52.1997C68.4804 52.5821 67.5507 52.7733 66.5089 52.7733H63.0737L63.5023 50.2019H66.3375C66.8342 50.2019 67.2628 50.1161 67.6232 49.9447C67.9881 49.7733 68.2804 49.5337 68.5002 49.226C68.72 48.9183 68.865 48.5557 68.9353 48.1381C69.0013 47.7205 68.9749 47.3601 68.8562 47.0568C68.7375 46.7491 68.5244 46.5117 68.2167 46.3447C67.9134 46.1776 67.5177 46.0941 67.0298 46.0941H65.421L63.6078 56.9668H60.344ZM85.9 50.426C85.6538 51.881 85.1703 53.1096 84.4494 54.1118C83.7329 55.1096 82.8604 55.8657 81.8318 56.38C80.8076 56.8943 79.7065 57.1514 78.5284 57.1514C77.2845 57.1514 76.2075 56.8745 75.2976 56.3206C74.3877 55.7668 73.7262 54.9602 73.313 53.9008C72.9042 52.8415 72.8251 51.5557 73.0756 50.0436C73.313 48.5886 73.7899 47.3579 74.5064 46.3512C75.2273 45.3446 76.1042 44.582 77.1372 44.0633C78.1746 43.5402 79.2867 43.2787 80.4735 43.2787C81.7087 43.2787 82.7791 43.5578 83.6846 44.116C84.5945 44.6743 85.2538 45.4853 85.6626 46.5491C86.0714 47.6128 86.1505 48.9051 85.9 50.426ZM82.6362 50.0436C82.7725 49.1952 82.7725 48.481 82.6362 47.9007C82.5043 47.3205 82.245 46.8831 81.8582 46.5886C81.4713 46.2897 80.968 46.1403 80.3482 46.1403C79.6625 46.1403 79.0427 46.3095 78.4889 46.648C77.9394 46.982 77.4801 47.4699 77.1108 48.1117C76.7416 48.7491 76.4845 49.5205 76.3394 50.426C76.1899 51.2832 76.1855 51.9975 76.3262 52.5689C76.4713 53.1404 76.7416 53.5711 77.1372 53.8613C77.5328 54.147 78.0361 54.2898 78.6471 54.2898C79.3285 54.2898 79.9416 54.125 80.4867 53.7953C81.0318 53.4656 81.4867 52.9843 81.8516 52.3513C82.2208 51.7184 82.4823 50.9491 82.6362 50.0436ZM86.3462 56.9668L88.588 43.4633H97.8123L97.364 46.1139H91.4035L91.0474 48.2238H92.854C93.9529 48.2238 94.8782 48.4018 95.6299 48.7579C96.3859 49.1139 96.9332 49.615 97.2717 50.2612C97.6145 50.9074 97.7134 51.6678 97.5684 52.5426C97.4233 53.4173 97.0717 54.1865 96.5134 54.8503C95.9552 55.514 95.2365 56.0327 94.3573 56.4063C93.4782 56.78 92.4892 56.9668 91.3903 56.9668H86.3462ZM90.032 54.3821H91.8188C92.2936 54.3821 92.709 54.3008 93.065 54.1382C93.4211 53.9711 93.7068 53.747 93.9222 53.4656C94.142 53.1799 94.2782 52.8634 94.331 52.5162C94.4189 52.0151 94.3002 51.5975 93.9749 51.2634C93.654 50.9249 93.1375 50.7557 92.4254 50.7557H90.6386L90.032 54.3821ZM98.0328 56.9668L100.275 43.4633H109.69L109.242 46.1139H103.09L102.642 48.8832H108.312L107.864 51.5403H102.193L101.745 54.3162H107.897L107.448 56.9668H98.0328ZM120.587 43.4633L120.139 46.1139H114.178L112.385 56.9668H109.121L111.363 43.4633H120.587ZM125.434 43.4633H128.691L127.399 51.2436H127.511L134.118 43.4633H136.926L134.685 56.9668H131.421L132.713 49.1733H132.628L125.955 56.9668H123.192L125.434 43.4633ZM149.658 43.4633L147.416 56.9668H144.265L146.506 43.4633H149.658ZM135.884 56.9668L141.258 49.8194L138.245 43.4633H142.267L144.245 48.8832H150.212L153.878 43.4633H157.88L152.915 49.7799L155.797 56.9668H151.874L150.139 51.8898H143.315L139.781 56.9668H135.884ZM156.991 56.9668L159.233 43.4633H168.649L168.2 46.1139H162.048L161.6 48.8832H167.271L166.822 51.5403H161.152L160.703 54.3162H166.855L166.407 56.9668H156.991ZM168.079 56.9668L170.321 43.4633H175.952C176.963 43.4633 177.787 43.6062 178.425 43.8919C179.062 44.1776 179.51 44.5776 179.77 45.0919C180.033 45.6062 180.108 46.2018 179.994 46.8787C179.902 47.3886 179.713 47.8458 179.427 48.2502C179.146 48.6502 178.794 48.9843 178.372 49.2524C177.95 49.5161 177.484 49.7008 176.974 49.8062L176.948 49.9381C177.493 49.9601 177.974 50.1052 178.392 50.3733C178.814 50.6414 179.126 51.0173 179.328 51.5008C179.53 51.9799 179.576 52.5426 179.466 53.1887C179.348 53.914 179.055 54.5624 178.589 55.1338C178.128 55.7008 177.519 56.1492 176.763 56.4789C176.007 56.8042 175.132 56.9668 174.139 56.9668H168.079ZM171.792 54.336H173.809C174.508 54.336 175.049 54.2019 175.431 53.9338C175.818 53.6613 176.047 53.2876 176.117 52.8129C176.174 52.4656 176.143 52.1667 176.025 51.9162C175.906 51.6612 175.708 51.4656 175.431 51.3293C175.154 51.1887 174.805 51.1184 174.383 51.1184H172.306L171.792 54.336ZM172.669 49.015H174.482C174.833 49.015 175.156 48.9557 175.451 48.837C175.75 48.7183 175.996 48.5469 176.189 48.3227C176.387 48.0985 176.51 47.8282 176.559 47.5117C176.633 47.059 176.53 46.7029 176.249 46.4436C175.967 46.1842 175.556 46.0545 175.016 46.0545H173.156L172.669 49.015ZM193.713 48.3557H190.456C190.473 48.0128 190.44 47.7073 190.357 47.4392C190.273 47.1666 190.141 46.9337 189.961 46.7403C189.781 46.5425 189.557 46.393 189.289 46.2919C189.021 46.1908 188.708 46.1403 188.352 46.1403C187.671 46.1403 187.053 46.3095 186.5 46.648C185.946 46.9864 185.482 47.4743 185.108 48.1117C184.735 48.7491 184.473 49.5139 184.324 50.4063C184.187 51.2678 184.19 51.9865 184.33 52.5623C184.475 53.1382 184.744 53.5711 185.135 53.8613C185.526 54.147 186.023 54.2898 186.625 54.2898C187.016 54.2898 187.379 54.2437 187.713 54.1514C188.051 54.0547 188.357 53.9162 188.629 53.736C188.902 53.5558 189.137 53.3382 189.335 53.0832C189.537 52.8239 189.693 52.536 189.803 52.2195H193.087C192.924 52.8129 192.656 53.4041 192.282 53.9931C191.913 54.5777 191.447 55.1074 190.884 55.5822C190.322 56.0569 189.669 56.4371 188.926 56.7228C188.183 57.0086 187.357 57.1514 186.447 57.1514C185.203 57.1514 184.13 56.8723 183.229 56.314C182.332 55.7558 181.684 54.947 181.284 53.8876C180.889 52.8239 180.814 51.5359 181.06 50.0238C181.302 48.5601 181.779 47.3271 182.491 46.3249C183.207 45.3227 184.078 44.5644 185.102 44.0501C186.13 43.5358 187.227 43.2787 188.392 43.2787C189.236 43.2787 189.994 43.393 190.667 43.6215C191.344 43.8457 191.917 44.1754 192.388 44.6106C192.858 45.0413 193.207 45.571 193.436 46.1996C193.669 46.8282 193.761 47.5469 193.713 48.3557ZM202.04 56.9668L198.73 51.3623H197.985L197.055 56.9668H193.792L196.033 43.4633H199.297L198.427 48.7051H198.948L203.998 43.4633H208.08L201.829 49.8392L206.108 56.9668H202.04Z" fill="white"/>
<defs>
<linearGradient id="paint0_linear_206_95" x1="261.001" y1="56.416" x2="251.297" y2="56.416" gradientUnits="userSpaceOnUse">
<stop stop-color="white"/>
<stop offset="1" stop-color="white" stop-opacity="0"/>
</linearGradient>
<linearGradient id="paint1_linear_206_95" x1="261.002" y1="51.2842" x2="245.563" y2="51.2842" gradientUnits="userSpaceOnUse">
<stop stop-color="white"/>
<stop offset="1" stop-color="white" stop-opacity="0"/>
</linearGradient>
<linearGradient id="paint2_linear_206_95" x1="261.002" y1="54.21" x2="248.65" y2="54.21" gradientUnits="userSpaceOnUse">
<stop stop-color="white"/>
<stop offset="1" stop-color="white" stop-opacity="0"/>
</linearGradient>
<linearGradient id="paint3_linear_206_95" x1="105.285" y1="25.2568" x2="91.61" y2="25.2568" gradientUnits="userSpaceOnUse">
<stop stop-color="white"/>
<stop offset="1" stop-color="white" stop-opacity="0"/>
</linearGradient>
<linearGradient id="paint4_linear_206_95" x1="104.844" y1="27.4629" x2="91.61" y2="27.4629" gradientUnits="userSpaceOnUse">
<stop stop-color="white"/>
<stop offset="1" stop-color="white" stop-opacity="0"/>
</linearGradient>
<linearGradient id="paint5_linear_206_95" x1="104.403" y1="29.9482" x2="95.139" y2="29.9482" gradientUnits="userSpaceOnUse">
<stop stop-color="white"/>
<stop offset="1" stop-color="white" stop-opacity="0"/>
</linearGradient>
<linearGradient id="paint6_linear_206_95" x1="69.1125" y1="19.8015" x2="26.2648" y2="20.581" gradientUnits="userSpaceOnUse">
<stop stop-color="white"/>
<stop offset="1" stop-color="white" stop-opacity="0"/>
</linearGradient>
<linearGradient id="paint7_linear_206_95" x1="69.5534" y1="23.7725" x2="31.6167" y2="23.7725" gradientUnits="userSpaceOnUse">
<stop stop-color="white"/>
<stop offset="1" stop-color="white" stop-opacity="0"/>
</linearGradient>
<linearGradient id="paint8_linear_206_95" x1="69.5534" y1="29.0654" x2="36.9102" y2="29.0654" gradientUnits="userSpaceOnUse">
<stop stop-color="white"/>
<stop offset="1" stop-color="white" stop-opacity="0"/>
</linearGradient>
<linearGradient id="paint9_linear_206_95" x1="69.9948" y1="34.3596" x2="42.645" y2="34.3596" gradientUnits="userSpaceOnUse">
<stop stop-color="white"/>
<stop offset="1" stop-color="white" stop-opacity="0"/>
</linearGradient>
</defs>
</svg>
