<svg width="270" height="70" xmlns="http://www.w3.org/2000/svg">
 <defs>
  <clipPath id="a">
   <path id="svg_1" d="m2.03906,3.23828l45.96094,0l0,64.5l-45.96094,0l0,-64.5zm0,0"/>
  </clipPath>
  <clipPath id="b">
   <path id="svg_2" d="m31,15l38.53906,0l0,52.73828l-38.53906,0l0,-52.73828zm0,0"/>
  </clipPath>
 </defs>
 <g>
  <title>background</title>
  <rect fill="none" id="canvas_background" height="72" width="272" y="-1" x="-1"/>
 </g>
 <g>
  <title>Layer 1</title>
  <path id="svg_3" d="m-567.5,89.5l450,0l0,450l-450,0l0,-450z" fill="#FFF"/>
  <path id="svg_4" d="m416.5,271.5l450,0l0,450l-450,0l0,-450z" fill="#FFF"/>
  <path id="svg_5" d="m622.5,321.5l450,0l0,450l-450,0l0,-450z" fill="#FFF"/>
  <g stroke="null" id="svg_78">
   <g stroke="null" id="svg_6" clip-path="url(#a)">
    <path stroke="null" id="svg_7" d="m45.003648,3.23828l-14.90876,0l-28.032388,67.301368l14.313716,0l13.421145,-31.708636l8.049434,0l5.070115,-12.263653l-7.751907,0l5.070126,-12.263663l9.24359,0l-4.475071,-11.065417zm0,0" fill="#04763F"/>
   </g>
   <g stroke="null" id="svg_8" clip-path="url(#b)">
    <path stroke="null" id="svg_9" d="m50.073773,16.398583l-6.859336,17.04849l4.177544,10.172846l-10.140241,0l-4.475071,13.759426l20.280481,0l5.367642,13.160303l14.016199,0l-22.367219,-54.141065zm0,0" fill="#8F0A0A"/>
   </g>
   <g stroke="null" id="svg_10" fill="#8F0A0A">
    <g stroke="null" id="svg_11">
     <g stroke="null" id="svg_12">
      <path stroke="null" id="svg_13" d="m117.383576,34.603744l-1.402027,-5.298362l-9.194688,0l-1.434632,5.298362l-8.395864,0l9.227293,-28.415503l10.205451,0l9.357714,28.415503l-8.363248,0zm-2.983388,-11.574873l-1.222693,-4.646257c-0.285299,-1.031141 -0.631729,-2.367957 -1.043369,-4.010449c-0.403492,-1.638412 -0.668413,-2.812202 -0.798834,-3.52137c-0.110044,0.652106 -0.338281,1.736239 -0.684711,3.24423c-0.338281,1.512071 -1.092272,4.491379 -2.266061,8.933845l6.015668,0zm0,0"/>
     </g>
    </g>
   </g>
   <g stroke="null" id="svg_14" fill="#8F0A0A">
    <g stroke="null" id="svg_15">
     <g stroke="null" id="svg_16">
      <path stroke="null" id="svg_17" d="m143.980358,34.603744l-0.961861,-2.722546l-0.440166,0c-0.631729,1.002615 -1.512071,1.772913 -2.641027,2.314975c-1.133036,0.529844 -2.457624,0.798834 -3.977844,0.798834c-2.41279,0 -4.295748,-0.701019 -5.640713,-2.103045c-1.336816,-1.402027 -2.00523,-3.37872 -2.00523,-5.93416l0,-14.281111l7.564424,0l0,11.982444c0,1.426483 0.199711,2.506527 0.603203,3.24422c0.41164,0.741773 1.084123,1.108579 2.021527,1.108579c1.304211,0 2.233456,-0.509456 2.787746,-1.532448c0.55429,-1.031141 0.83144,-2.763289 0.83144,-5.200536l0,-9.602259l7.564424,0l0,21.927053l-5.705923,0zm0,0"/>
     </g>
    </g>
   </g>
   <g stroke="null" id="svg_18" fill="#8F0A0A">
    <g stroke="null" id="svg_19">
     <g stroke="null" id="svg_20">
      <path stroke="null" id="svg_21" d="m165.645385,29.011934c1.018912,0 2.241605,-0.252683 3.668088,-0.766219l0,5.526589c-1.022992,0.436097 -1.997071,0.745852 -2.918167,0.929256c-0.925176,0.195632 -2.00523,0.293447 -3.24423,0.293447c-2.543211,0 -4.377256,-0.6195 -5.493984,-1.858501c-1.120808,-1.247149 -1.679177,-3.166791 -1.679177,-5.754836l0,-9.047959l-2.657325,0l0,-3.064896l3.374641,-2.380185l1.956317,-4.613652l4.956002,0l0,4.401712l5.37987,0l0,5.657021l-5.37987,0l0,8.542582c0,1.426483 0.676562,2.13564 2.037835,2.13564zm0,0"/>
     </g>
    </g>
   </g>
   <g stroke="null" id="svg_22" fill="#8F0A0A">
    <g stroke="null" id="svg_23">
     <g stroke="null" id="svg_24">
      <path stroke="null" id="svg_25" d="m194.083713,23.583161c0,3.58658 -0.97001,6.386554 -2.90187,8.395853c-1.923711,2.013378 -4.6218,3.015993 -8.086108,3.015993c-3.337966,0 -5.991222,-1.027071 -7.955687,-3.081204c-1.968545,-2.054132 -2.950783,-4.82965 -2.950783,-8.330643c0,-3.574352 0.961861,-6.34988 2.885572,-8.330653c1.93186,-1.976694 4.646247,-2.96708 8.135011,-2.96708c2.151948,0 4.051203,0.456474 5.705923,1.369422c1.650641,0.912948 2.922247,2.229387 3.814817,3.945238c0.900719,1.707703 1.353124,3.700704 1.353124,5.983073zm-14.199603,0c0,1.891106 0.248614,3.333887 0.749921,4.320194c0.497228,0.978158 1.340896,1.467237 2.526914,1.467237c1.181939,0 2.013368,-0.489079 2.494298,-1.467237c0.489079,-0.986307 0.733624,-2.429088 0.733624,-4.320194c0,-1.866649 -0.252693,-3.280905 -0.749921,-4.238686c-0.489079,-0.953702 -1.328668,-1.434632 -2.510606,-1.434632c-1.165641,0 -1.997081,0.48093 -2.494309,1.434632c-0.501307,0.945553 -0.749921,2.359808 -0.749921,4.238686zm0,0"/>
     </g>
    </g>
   </g>
   <g stroke="null" id="svg_26" fill="#04763F">
    <g stroke="null" id="svg_27">
     <g stroke="null" id="svg_28">
      <path stroke="null" id="svg_29" d="m206.371598,34.603744l-7.531819,0l0,-28.301379l16.726506,0l0,6.129792l-9.194688,0l0,5.412476l8.477372,0l0,6.129792l-8.477372,0l0,10.62932zm0,0"/>
     </g>
    </g>
   </g>
   <g stroke="null" id="svg_30" fill="#04763F">
    <g stroke="null" id="svg_31">
     <g stroke="null" id="svg_32">
      <path stroke="null" id="svg_33" d="m235.385729,34.603744l-0.961861,-2.722546l-0.440166,0c-0.631729,1.002615 -1.512071,1.772913 -2.641027,2.314975c-1.133036,0.529844 -2.457624,0.798834 -3.977844,0.798834c-2.41279,0 -4.295748,-0.701019 -5.640713,-2.103045c-1.336816,-1.402027 -2.00523,-3.37872 -2.00523,-5.93416l0,-14.281111l7.564424,0l0,11.982444c0,1.426483 0.199711,2.506527 0.603203,3.24422c0.41164,0.741773 1.084123,1.108579 2.021527,1.108579c1.304211,0 2.233456,-0.509456 2.787746,-1.532448c0.55429,-1.031141 0.83144,-2.763289 0.83144,-5.200536l0,-9.602259l7.564424,0l0,21.927053l-5.705923,0zm0,0"/>
     </g>
    </g>
   </g>
   <g stroke="null" id="svg_34" fill="#04763F">
    <g stroke="null" id="svg_35">
     <g stroke="null" id="svg_36">
      <path stroke="null" id="svg_37" d="m253.888045,34.603744l-7.580732,0l0,-30.127275l7.580732,0l0,30.127275zm0,0"/>
     </g>
    </g>
   </g>
   <g stroke="null" id="svg_38" fill="#04763F">
    <g stroke="null" id="svg_39">
     <g stroke="null" id="svg_40">
      <path stroke="null" id="svg_41" d="m266.700613,34.603744l-7.580732,0l0,-30.127275l7.580732,0l0,30.127275zm0,0"/>
     </g>
    </g>
   </g>
   <g stroke="null" id="svg_42">
    <g stroke="null" id="svg_43">
     <g stroke="null" id="svg_44">
      <path stroke="null" id="svg_45" d="m137.026163,65.122282l-2.037825,-5.216844l-6.569968,0l-2.021527,5.216844l-1.923711,0l6.472152,-16.449367l1.613956,0l6.439547,16.449367l-1.972624,0zm-2.641027,-6.928626l-1.891106,-5.070115c-0.252693,-0.639877 -0.505377,-1.426483 -0.766219,-2.363888c-0.163026,0.717316 -0.399422,1.508002 -0.701019,2.363888l-1.940009,5.070115l5.298352,0zm0,0"/>
     </g>
    </g>
   </g>
   <g stroke="null" id="svg_46">
    <g stroke="null" id="svg_47">
     <g stroke="null" id="svg_48">
      <path stroke="null" id="svg_49" d="m150.92932,55.927595c0,0.794755 -0.228237,1.397947 -0.684711,1.809588c-0.456474,0.41572 -1.1045,0.69287 -1.940009,0.83144l0,0.114113c1.051518,0.142649 1.817736,0.448325 2.298667,0.912948c0.476851,0.468702 0.717316,1.120808 0.717316,1.956317c0,1.141185 -0.419789,2.021527 -1.255298,2.641027c-0.839588,0.6195 -2.066361,0.929256 -3.684396,0.929256l-5.412476,0l0,-12.292189l5.396168,0c3.040439,0 4.564739,1.03522 4.564739,3.097501zm-1.467237,5.493984c0,-0.660254 -0.256763,-1.145254 -0.766219,-1.45093c-0.501307,-0.301596 -1.332747,-0.456474 -2.494309,-0.456474l-3.374641,0l0,4.043054l3.423554,0c2.13972,0 3.211614,-0.709167 3.211614,-2.135651zm-0.34235,-5.31466c0,-0.595044 -0.236396,-1.018912 -0.701019,-1.271606c-0.456474,-0.260842 -1.153413,-0.391263 -2.086738,-0.391263l-3.505062,0l0,3.472467l3.146404,0c1.149333,0 1.960396,-0.13857 2.429098,-0.423869c0.476851,-0.281219 0.717316,-0.741773 0.717316,-1.385729zm0,0"/>
     </g>
    </g>
   </g>
   <g stroke="null" id="svg_50">
    <g stroke="null" id="svg_51">
     <g stroke="null" id="svg_52">
      <path stroke="null" id="svg_53" d="m162.305828,54.427752l-3.994151,0l0,10.69453l-1.858501,0l0,-10.69453l-3.945238,0l0,-1.597659l9.797891,0l0,1.597659zm0,0"/>
     </g>
    </g>
   </g>
   <g stroke="null" id="svg_54">
    <g stroke="null" id="svg_55">
     <g stroke="null" id="svg_56">
      <path stroke="null" id="svg_57" d="m175.333069,58.976183c0,2.00115 -0.505387,3.566203 -1.516151,4.69516c-1.002615,1.120808 -2.392413,1.679177 -4.173475,1.679177c-1.100431,0 -2.078589,-0.252693 -2.934475,-0.766229c-0.847737,-0.521684 -1.507991,-1.263447 -1.972614,-2.233456c-0.456474,-0.96593 -0.684711,-2.090817 -0.684711,-3.374651c0,-2.009299 0.497228,-3.570272 1.499843,-4.678852c0.998535,-1.116728 2.388334,-1.679177 4.173475,-1.679177c1.715851,0 3.081193,0.570598 4.091957,1.711782c1.010764,1.141185 1.516151,2.68993 1.516151,4.646247zm-9.357714,0c0,1.565053 0.313824,2.7633 0.945553,3.58658c0.627649,0.815132 1.552825,1.222703 2.771448,1.222703c1.214544,0 2.13972,-0.407571 2.771448,-1.222703c0.627649,-0.815132 0.945553,-2.009299 0.945553,-3.58658c0,-1.565053 -0.317904,-2.746992 -0.945553,-3.553975c-0.631729,-0.815132 -1.560984,-1.222693 -2.787756,-1.222693c-1.230852,0 -2.151948,0.403492 -2.771448,1.206395c-0.6195,0.794755 -0.929245,1.984842 -0.929245,3.570272zm0,0"/>
     </g>
    </g>
   </g>
   <g stroke="null" id="svg_58">
    <g stroke="null" id="svg_59">
     <g stroke="null" id="svg_60">
      <path stroke="null" id="svg_61" d="m183.505636,65.350519c-1.772913,0 -3.146404,-0.546141 -4.124562,-1.646572c-0.978158,-1.096351 -1.467237,-2.645096 -1.467237,-4.646247c0,-2.054132 0.493148,-3.639563 1.483535,-4.76037c0.986307,-1.116728 2.400562,-1.679177 4.238686,-1.679177c0.586895,0 1.17379,0.065211 1.760685,0.195632c0.595044,0.122272 1.063746,0.269001 1.402027,0.440176l-0.570587,1.581351c-0.41572,-0.163026 -0.864045,-0.297517 -1.353124,-0.407561c-0.489079,-0.105965 -0.921096,-0.163026 -1.287903,-0.163026c-2.502458,0 -3.749607,1.593579 -3.749607,4.776668c0,1.512071 0.301596,2.669563 0.912948,3.472467c0.607272,0.806983 1.507991,1.206395 2.706238,1.206395c1.031141,0 2.086738,-0.220088 3.162712,-0.668413l0,1.662869c-0.82736,0.423879 -1.86666,0.635808 -3.113809,0.635808zm0,0"/>
     </g>
    </g>
   </g>
   <g stroke="null" id="svg_62">
    <g stroke="null" id="svg_63">
     <g stroke="null" id="svg_64">
      <path stroke="null" id="svg_65" d="m197.072822,65.122282l-0.358658,-1.744387l-0.097816,0c-0.611352,0.774378 -1.218623,1.296062 -1.825895,1.565053c-0.611352,0.269001 -1.369422,0.407571 -2.282369,0.407571c-1.218623,0 -2.176405,-0.313824 -2.869264,-0.945553c-0.684711,-0.627649 -1.027061,-1.52022 -1.027061,-2.673633c0,-2.48615 1.980763,-3.790361 5.950458,-3.912633l2.086738,-0.065211l0,-0.749921c0,-0.96593 -0.211929,-1.679177 -0.635798,-2.135651c-0.41572,-0.464623 -1.075974,-0.701008 -1.988922,-0.701008c-1.022992,0 -2.180484,0.317904 -3.472467,0.945553l-0.570587,-1.418335c0.607272,-0.334201 1.271606,-0.595044 1.988922,-0.782527c0.725465,-0.183403 1.45093,-0.27714 2.168246,-0.27714c1.467237,0 2.55136,0.326053 3.260528,0.978158c0.705088,0.652106 1.059677,1.695474 1.059677,3.130106l0,8.379556l-1.385729,0zm-4.189773,-1.304211c1.149333,0 2.058201,-0.313824 2.722535,-0.945553c0.660254,-0.639877 0.994466,-1.536528 0.994466,-2.68994l0,-1.108579l-1.858501,0.081518c-1.479466,0.057062 -2.551371,0.289368 -3.211625,0.701008c-0.652106,0.403492 -0.978158,1.03522 -0.978158,1.891106c0,0.676562 0.199711,1.190098 0.603203,1.548756c0.41164,0.350509 0.986307,0.521684 1.72808,0.521684zm0,0"/>
     </g>
    </g>
   </g>
   <g stroke="null" id="svg_66">
    <g stroke="null" id="svg_67">
     <g stroke="null" id="svg_68">
      <path stroke="null" id="svg_69" d="m211.450337,65.122282l-1.891106,0l0,-10.69453l-3.684396,0c-0.20786,2.665484 -0.489079,4.776668 -0.847737,6.341721c-0.358658,1.556905 -0.82736,2.698089 -1.402027,3.423554c-0.566518,0.729544 -1.287914,1.092282 -2.168256,1.092282c-0.403492,0 -0.725465,-0.048903 -0.96185,-0.146719l0,-1.369432c0.163026,0.044834 0.34643,0.065211 0.55429,0.065211c0.855886,0 1.540597,-0.904789 2.054132,-2.722535c0.509456,-1.813667 0.89664,-4.572887 1.157482,-8.28174l7.189468,0l0,12.292189zm0,0"/>
     </g>
    </g>
   </g>
   <g stroke="null" id="svg_70">
    <g stroke="null" id="svg_71">
     <g stroke="null" id="svg_72">
      <path stroke="null" id="svg_73" d="m225.984457,58.976183c0,2.00115 -0.505387,3.566203 -1.516151,4.69516c-1.002615,1.120808 -2.392413,1.679177 -4.173475,1.679177c-1.100431,0 -2.078589,-0.252693 -2.934475,-0.766229c-0.847737,-0.521684 -1.507991,-1.263447 -1.972614,-2.233456c-0.456474,-0.96593 -0.684711,-2.090817 -0.684711,-3.374651c0,-2.009299 0.497228,-3.570272 1.499843,-4.678852c0.998535,-1.116728 2.388334,-1.679177 4.173475,-1.679177c1.715851,0 3.081193,0.570598 4.091957,1.711782c1.010764,1.141185 1.516151,2.68993 1.516151,4.646247zm-9.357714,0c0,1.565053 0.313824,2.7633 0.945553,3.58658c0.627649,0.815132 1.552825,1.222703 2.771448,1.222703c1.214544,0 2.13972,-0.407571 2.771448,-1.222703c0.627649,-0.815132 0.945553,-2.009299 0.945553,-3.58658c0,-1.565053 -0.317904,-2.746992 -0.945553,-3.553975c-0.631729,-0.815132 -1.560984,-1.222693 -2.787756,-1.222693c-1.230852,0 -2.151948,0.403492 -2.771448,1.206395c-0.6195,0.794755 -0.929245,1.984842 -0.929245,3.570272zm0,0"/>
     </g>
    </g>
   </g>
   <g stroke="null" id="svg_74">
    <g stroke="null" id="svg_75">
     <g stroke="null" id="svg_76">
      <path stroke="null" id="svg_77" d="m231.10842,52.830093l0,5.151634l6.879713,0l0,-5.151634l1.858501,0l0,12.292189l-1.858501,0l0,-5.542897l-6.879713,0l0,5.542897l-1.858501,0l0,-12.292189l1.858501,0zm0,0"/>
     </g>
    </g>
   </g>
  </g>
 </g>
</svg>