<?xml version="1.0" encoding="utf-8"?>
<!-- Generator: Adobe Illustrator 14.0.0, SVG Export Plug-In . SVG Version: 6.00 Build 43363)  -->
<!DOCTYPE svg PUBLIC "-//W3C//DTD SVG 1.1//EN" "http://www.w3.org/Graphics/SVG/1.1/DTD/svg11.dtd">
<svg version="1.1" id="Слой_1" xmlns="http://www.w3.org/2000/svg" xmlns:xlink="http://www.w3.org/1999/xlink" x="0px" y="0px"
	 width="300px" height="63px" viewBox="0 0 300 63" enable-background="new 0 0 300 63" xml:space="preserve">
<g>
	<path fill="#3D3D3D" d="M114.231,5.645v23.456h-6.534v-7.975c-1.81,0.603-3.474,0.905-4.993,0.905
		c-3.284,0-5.791-0.788-7.522-2.362c-1.731-1.575-2.597-3.848-2.597-6.819V5.645h6.534v6.467c0,3.016,1.475,4.524,4.423,4.524
		c1.608,0,2.993-0.268,4.155-0.804V5.645H114.231L114.231,5.645z M138.09,23.974v5.127h-18.832V5.645h18.396v5.127h-11.829v3.954
		h10.421v4.959h-10.421v4.289H138.09L138.09,23.974z M141.876,5.645h19.602v5.127h-13.068v3.786h6.066
		c2.836,0,5.014,0.603,6.533,1.81c1.52,1.206,2.277,2.938,2.277,5.194c0,2.368-0.848,4.216-2.547,5.546
		c-1.697,1.329-4.074,1.994-7.135,1.994h-11.729V5.645L141.876,5.645z M153.17,24.342c1.115,0,1.965-0.223,2.545-0.67
		c0.58-0.447,0.873-1.083,0.873-1.91c0-1.653-1.141-2.48-3.418-2.48h-4.759v5.06H153.17L153.17,24.342z"/>
	<path fill="#FF8F00" d="M9.449,33.035c2.279,0,4.329,0.52,6.149,1.559c1.821,1.037,3.245,2.473,4.272,4.305
		s1.541,3.898,1.541,6.199s-0.513,4.367-1.541,6.199s-2.452,3.268-4.272,4.307c-1.82,1.037-3.87,1.557-6.149,1.557
		c-1.988,0-3.792-0.334-5.412-1.004S1.072,54.514,0,53.24l2.748-2.68c1.72,1.854,3.876,2.781,6.467,2.781
		c2.01,0,3.714-0.615,5.11-1.844c1.396-1.229,2.251-2.848,2.563-4.859H6.4v-3.451h10.421c-0.38-1.898-1.257-3.43-2.63-4.59
		c-1.374-1.162-3.033-1.742-4.976-1.742c-2.591,0-4.748,0.926-6.467,2.779L0,36.955c1.072-1.273,2.418-2.244,4.038-2.916
		C5.657,33.369,7.461,33.035,9.449,33.035L9.449,33.035z M34.916,46.941H30.56v9.885h-4.289V33.369h4.289v9.818h4.49l6.735-9.818
		h4.624l-8.008,11.359l8.31,12.098h-4.926L34.916,46.941L34.916,46.941z M60.417,57.16c-2.368,0-4.507-0.52-6.417-1.557
		c-1.91-1.039-3.407-2.475-4.49-4.307s-1.625-3.898-1.625-6.199s0.547-4.367,1.642-6.199c1.095-1.832,2.597-3.268,4.507-4.305
		c1.911-1.039,4.049-1.559,6.417-1.559c1.921,0,3.674,0.334,5.261,1.004c1.586,0.672,2.927,1.643,4.021,2.916l-2.814,2.646
		c-1.698-1.83-3.787-2.746-6.267-2.746c-1.608,0-3.049,0.352-4.322,1.055c-1.273,0.703-2.268,1.682-2.982,2.932
		c-0.715,1.252-1.072,2.67-1.072,4.256s0.357,3.006,1.072,4.256s1.709,2.229,2.982,2.932c1.273,0.703,2.714,1.057,4.322,1.057
		c2.48,0,4.568-0.928,6.267-2.781l2.814,2.68c-1.094,1.273-2.44,2.246-4.038,2.916C64.097,56.826,62.338,57.16,60.417,57.16
		L60.417,57.16z M94.562,33.369v23.457h-4.289V37.055H78.109v19.771h-4.29V33.369H94.562L94.562,33.369z M118.755,53.174v3.652
		h-17.592V33.369h17.123v3.654H105.52v6.098h11.326v3.586H105.52v6.467H118.755L118.755,53.174z M133.265,33.369
		c2.033,0,3.803,0.336,5.311,1.006c1.508,0.67,2.664,1.631,3.468,2.883c0.804,1.25,1.206,2.736,1.206,4.455
		c0,1.697-0.402,3.178-1.206,4.439c-0.805,1.264-1.96,2.229-3.468,2.9c-1.508,0.67-3.278,1.004-5.311,1.004h-5.295v6.77h-4.356
		V33.369H133.265L133.265,33.369z M133.063,46.371c1.899,0,3.34-0.402,4.323-1.207c0.983-0.803,1.475-1.953,1.475-3.451
		c0-1.496-0.491-2.646-1.475-3.451c-0.983-0.803-2.423-1.207-4.323-1.207h-5.093v9.316H133.063L133.063,46.371z M163.725,37.055
		h-7.773v19.771h-4.324V37.055h-7.74v-3.686h19.837V37.055L163.725,37.055z"/>
	<polygon fill-rule="evenodd" clip-rule="evenodd" fill="#3D3D3D" points="178.828,0 185.691,0 185.691,62.336 178.828,62.336 
		178.828,0 	"/>
	<path fill="#3D3D3D" d="M199.504,26.433l-0.498-1.3h-3.949l-0.48,1.3h-2.023l4.479-11.557l4.494,11.557H199.504L199.504,26.433z
		 M197.031,19.611l-1.363,3.9h2.729L197.031,19.611L197.031,19.611z M208.396,20.831c0.396,0.085,0.734,0.225,1.018,0.417
		c0.285,0.192,0.492,0.396,0.619,0.61c0.127,0.214,0.225,0.425,0.289,0.634c0.064,0.208,0.096,0.376,0.096,0.505l0.016,0.208
		c0,0.578-0.113,1.081-0.344,1.509c-0.23,0.428-0.496,0.749-0.795,0.962c-0.299,0.214-0.656,0.383-1.066,0.506
		c-0.412,0.123-0.738,0.195-0.979,0.217c-0.242,0.021-0.48,0.032-0.717,0.032h-3.738V15.197h3.738c0.055,0,0.127,0,0.217,0
		c0.092,0,0.266,0.019,0.521,0.056c0.258,0.038,0.504,0.091,0.738,0.161c0.236,0.069,0.498,0.182,0.787,0.337
		s0.535,0.342,0.738,0.562c0.203,0.22,0.377,0.506,0.523,0.859c0.143,0.353,0.215,0.749,0.215,1.188
		c0,0.685-0.178,1.233-0.537,1.645C209.379,20.417,208.932,20.692,208.396,20.831L208.396,20.831z M204.656,17.059v2.825h1.877
		c0.055,0,0.121-0.002,0.201-0.008c0.082-0.005,0.229-0.032,0.441-0.08c0.215-0.048,0.404-0.118,0.57-0.209
		c0.166-0.091,0.314-0.232,0.449-0.425c0.135-0.192,0.201-0.417,0.201-0.674c0-0.45-0.156-0.792-0.467-1.027
		c-0.309-0.235-0.619-0.358-0.932-0.369l-0.465-0.032H204.656L204.656,17.059z M206.533,24.571c1.35,0,2.023-0.471,2.023-1.413
		c0-0.45-0.168-0.79-0.506-1.02c-0.336-0.23-0.67-0.351-1.002-0.361l-0.516-0.016h-1.877v2.809H206.533L206.533,24.571z
		 M218.107,15.197v1.717h-2.359v9.519h-1.861v-9.519h-2.361v-1.717H218.107L218.107,15.197z M222.346,15.55
		c0.727-0.332,1.535-0.498,2.422-0.498c0.889,0,1.691,0.166,2.408,0.498s1.297,0.768,1.742,1.308
		c0.443,0.541,0.785,1.156,1.025,1.846c0.242,0.69,0.363,1.394,0.363,2.111c0,0.717-0.121,1.42-0.363,2.111
		c-0.24,0.69-0.578,1.306-1.02,1.846c-0.438,0.54-1.018,0.977-1.74,1.308c-0.723,0.332-1.527,0.498-2.416,0.498
		c-0.898,0-1.709-0.166-2.432-0.498c-0.721-0.332-1.305-0.768-1.748-1.308c-0.445-0.54-0.789-1.156-1.029-1.846
		c-0.24-0.69-0.359-1.394-0.359-2.111c0-0.717,0.123-1.42,0.367-2.111c0.248-0.69,0.592-1.305,1.037-1.846
		C221.047,16.318,221.629,15.882,222.346,15.55L222.346,15.55z M224.768,24.764c0.664,0,1.258-0.144,1.781-0.434
		c0.525-0.289,0.924-0.666,1.197-1.131c0.271-0.466,0.471-0.977,0.594-1.533c0.123-0.557,0.123-1.116,0-1.678
		c-0.123-0.562-0.322-1.075-0.594-1.541c-0.273-0.466-0.672-0.843-1.197-1.132c-0.523-0.289-1.117-0.434-1.781-0.434
		c-0.588,0-1.119,0.113-1.588,0.337c-0.471,0.225-0.854,0.521-1.146,0.891c-0.295,0.369-0.521,0.789-0.676,1.26
		c-0.154,0.471-0.234,0.955-0.234,1.453s0.08,0.981,0.234,1.452c0.154,0.471,0.381,0.892,0.676,1.261
		c0.293,0.369,0.676,0.666,1.146,0.891C223.648,24.651,224.18,24.764,224.768,24.764L224.768,24.764z M244.623,15.181v11.252h-1.877
		v-6.902l-3.227,6.902h-1.766l-3.436-7.046v7.046h-1.879V15.181h1.91l4.271,8.748l4.092-8.748H244.623L244.623,15.181z
		 M249.838,15.55c0.729-0.332,1.537-0.498,2.426-0.498s1.689,0.166,2.406,0.498s1.299,0.768,1.742,1.308
		c0.445,0.541,0.787,1.156,1.027,1.846c0.24,0.69,0.361,1.394,0.361,2.111c0,0.717-0.121,1.42-0.361,2.111
		c-0.24,0.69-0.58,1.306-1.02,1.846c-0.438,0.54-1.02,0.977-1.742,1.308c-0.721,0.332-1.525,0.498-2.414,0.498
		c-0.898,0-1.709-0.166-2.432-0.498c-0.723-0.332-1.307-0.768-1.75-1.308c-0.445-0.54-0.787-1.156-1.027-1.846
		c-0.24-0.69-0.361-1.394-0.361-2.111c0-0.717,0.125-1.42,0.369-2.111c0.246-0.69,0.592-1.305,1.037-1.846
		C248.543,16.318,249.121,15.882,249.838,15.55L249.838,15.55z M252.264,24.764c0.664,0,1.256-0.144,1.781-0.434
		c0.523-0.289,0.924-0.666,1.197-1.131c0.271-0.466,0.469-0.977,0.592-1.533c0.125-0.557,0.125-1.116,0-1.678
		c-0.123-0.562-0.32-1.075-0.592-1.541c-0.273-0.466-0.674-0.843-1.197-1.132c-0.525-0.289-1.117-0.434-1.781-0.434
		c-0.588,0-1.119,0.113-1.59,0.337s-0.854,0.521-1.148,0.891c-0.293,0.369-0.518,0.789-0.674,1.26
		c-0.154,0.471-0.232,0.955-0.232,1.453s0.078,0.981,0.232,1.452c0.156,0.471,0.381,0.892,0.674,1.261
		c0.295,0.369,0.678,0.666,1.148,0.891S251.676,24.764,252.264,24.764L252.264,24.764z M263.691,19.724
		c1.305,0,2.283,0.289,2.93,0.867c0.646,0.577,0.971,1.391,0.971,2.439c0,0.578-0.115,1.089-0.344,1.533
		c-0.232,0.444-0.498,0.778-0.805,1.003c-0.305,0.225-0.658,0.406-1.059,0.546c-0.4,0.139-0.734,0.227-0.996,0.265
		c-0.262,0.037-0.494,0.056-0.697,0.056h-3.738V15.197h6.965v1.814h-5.105v2.712H263.691L263.691,19.724z M263.691,24.571
		c0.322,0,0.617-0.033,0.891-0.097c0.273-0.064,0.531-0.219,0.771-0.465s0.359-0.572,0.359-0.979c0-0.995-0.674-1.493-2.021-1.493
		h-1.879v3.034H263.691L263.691,24.571z M269.662,26.433V15.197h1.895v8.154l5.602-8.154h1.926v11.236h-1.91v-8.298l-5.584,8.298
		H269.662L269.662,26.433z M287.254,26.433l-2.471-6.79l-2.457,6.79h-2.021l4.479-11.557l4.494,11.557H287.254L287.254,26.433z
		 M290.578,26.433V15.197h1.893v8.154l5.604-8.154H300v11.236h-1.912v-8.298l-5.584,8.298H290.578L290.578,26.433z M199.07,45.582
		c1.037,0,1.92-0.363,2.648-1.092l1.316,1.332c-1.092,1.092-2.412,1.639-3.965,1.639c-1.594,0-2.932-0.533-4.014-1.598
		c-1.08-1.064-1.619-2.459-1.619-4.182c0-1.691,0.525-3.076,1.58-4.158c1.055-1.08,2.404-1.619,4.053-1.619
		c1.563,0,2.885,0.551,3.965,1.652l-1.316,1.316c-0.729-0.729-1.611-1.092-2.648-1.092c-1.135,0-2.039,0.361-2.713,1.084
		s-1.01,1.66-1.01,2.816c0,1.178,0.354,2.121,1.066,2.834C197.127,45.227,198.012,45.582,199.07,45.582L199.07,45.582z
		 M210.531,36.064h8.426v11.234h-1.877v-9.373h-4.672v9.373h-1.877V36.064L210.531,36.064z M225.266,36.064
		c0.053,0,0.125,0.002,0.217,0.008s0.266,0.029,0.521,0.072c0.258,0.043,0.506,0.102,0.748,0.176
		c0.24,0.074,0.504,0.195,0.793,0.361s0.535,0.359,0.738,0.578s0.377,0.512,0.521,0.875s0.217,0.77,0.217,1.219
		s-0.068,0.857-0.209,1.221c-0.139,0.363-0.318,0.654-0.537,0.875c-0.221,0.219-0.463,0.412-0.73,0.578
		c-0.268,0.164-0.535,0.285-0.803,0.361c-0.268,0.074-0.51,0.133-0.729,0.176c-0.221,0.043-0.4,0.07-0.539,0.08h-0.209h-1.879v4.688
		h-1.877V36.064H225.266L225.266,36.064z M225.266,40.768c0.053,0,0.123-0.004,0.209-0.01c0.084-0.004,0.236-0.033,0.449-0.088
		c0.213-0.053,0.402-0.123,0.57-0.209c0.166-0.084,0.316-0.225,0.449-0.416c0.133-0.193,0.201-0.424,0.201-0.691
		c0-0.416-0.156-0.744-0.465-0.979c-0.313-0.234-0.627-0.363-0.949-0.385l-0.465-0.049h-1.879v2.826H225.266L225.266,40.768z
		 M233.5,36.418c0.729-0.332,1.537-0.498,2.424-0.498c0.889,0,1.689,0.166,2.406,0.498c0.717,0.33,1.299,0.768,1.742,1.307
		c0.445,0.541,0.787,1.156,1.027,1.846c0.242,0.691,0.363,1.395,0.363,2.111s-0.121,1.42-0.363,2.111
		c-0.24,0.689-0.58,1.305-1.02,1.846c-0.438,0.539-1.02,0.977-1.74,1.307c-0.723,0.334-1.527,0.498-2.416,0.498
		c-0.898,0-1.709-0.164-2.432-0.498c-0.723-0.33-1.305-0.768-1.75-1.307c-0.443-0.541-0.787-1.156-1.027-1.846
		c-0.24-0.691-0.361-1.395-0.361-2.111s0.125-1.42,0.369-2.111c0.246-0.689,0.592-1.305,1.035-1.846
		C232.203,37.186,232.783,36.748,233.5,36.418L233.5,36.418z M235.924,45.631c0.664,0,1.256-0.145,1.781-0.434
		c0.523-0.289,0.924-0.666,1.195-1.131c0.273-0.467,0.471-0.979,0.594-1.533c0.125-0.559,0.125-1.117,0-1.678
		c-0.123-0.563-0.32-1.076-0.594-1.541c-0.271-0.467-0.672-0.844-1.195-1.133c-0.525-0.289-1.117-0.432-1.781-0.432
		c-0.588,0-1.119,0.111-1.59,0.336c-0.469,0.225-0.854,0.521-1.146,0.891c-0.295,0.369-0.52,0.789-0.676,1.26
		c-0.154,0.471-0.232,0.955-0.232,1.453s0.078,0.982,0.232,1.453c0.156,0.471,0.381,0.891,0.676,1.26
		c0.293,0.369,0.678,0.666,1.146,0.891C234.805,45.518,235.336,45.631,235.924,45.631L235.924,45.631z M247.354,40.59
		c1.303,0,2.281,0.289,2.928,0.867c0.648,0.578,0.973,1.391,0.973,2.439c0,0.578-0.117,1.09-0.346,1.533
		c-0.23,0.443-0.498,0.779-0.805,1.002c-0.305,0.227-0.658,0.408-1.059,0.547s-0.732,0.227-0.994,0.266
		c-0.264,0.037-0.496,0.055-0.697,0.055h-3.74V36.064h6.965v1.813h-5.104v2.713H247.354L247.354,40.59z M247.354,45.438
		c0.32,0,0.615-0.033,0.889-0.096c0.273-0.064,0.531-0.221,0.771-0.467s0.359-0.572,0.359-0.979c0-0.994-0.674-1.492-2.02-1.492
		h-1.879v3.033H247.354L247.354,45.438z M260.787,37.941h-5.617v2.809h4.67v1.863h-4.67v2.809h5.617v1.877h-7.496V36.064h7.496
		V37.941L260.787,37.941z M264.59,37.877v9.422h-1.861V36.064h6.965v1.813H264.59L264.59,37.877z M274.205,36.418
		c0.729-0.332,1.535-0.498,2.424-0.498s1.691,0.166,2.408,0.498c0.717,0.33,1.297,0.768,1.74,1.307
		c0.445,0.541,0.787,1.156,1.029,1.846c0.24,0.691,0.359,1.395,0.359,2.111s-0.119,1.42-0.359,2.111
		c-0.242,0.689-0.582,1.305-1.02,1.846c-0.439,0.539-1.02,0.977-1.742,1.307c-0.723,0.334-1.527,0.498-2.416,0.498
		c-0.898,0-1.709-0.164-2.432-0.498c-0.723-0.33-1.305-0.768-1.75-1.307c-0.443-0.541-0.785-1.156-1.027-1.846
		c-0.24-0.691-0.361-1.395-0.361-2.111s0.123-1.42,0.371-2.111c0.244-0.689,0.59-1.305,1.033-1.846
		C272.906,37.186,273.488,36.748,274.205,36.418L274.205,36.418z M276.629,45.631c0.662,0,1.258-0.145,1.783-0.434
		c0.523-0.289,0.92-0.666,1.193-1.131c0.273-0.467,0.473-0.979,0.596-1.533c0.121-0.559,0.121-1.117,0-1.678
		c-0.123-0.563-0.322-1.076-0.596-1.541c-0.273-0.467-0.67-0.844-1.193-1.133c-0.525-0.289-1.121-0.432-1.783-0.432
		c-0.59,0-1.117,0.111-1.59,0.336c-0.471,0.225-0.852,0.521-1.146,0.891s-0.52,0.789-0.674,1.26
		c-0.156,0.471-0.232,0.955-0.232,1.453s0.076,0.982,0.232,1.453c0.154,0.471,0.379,0.891,0.674,1.26s0.676,0.666,1.146,0.891
		C275.512,45.518,276.039,45.631,276.629,45.631L276.629,45.631z M296.484,36.049v11.25h-1.879v-6.9l-3.227,6.9h-1.764l-3.436-7.047
		v7.047h-1.879v-11.25h1.912l4.268,8.746l4.094-8.746H296.484L296.484,36.049z"/>
</g>
</svg>
