<svg width="300" height="70" viewBox="0 0 300 70" fill="none" xmlns="http://www.w3.org/2000/svg">
<g clip-path="url(#clip0_206_3)">
<path d="M190.903 14.4941C161.539 6.82054 141.208 18.7011 136.851 23.8337L129.309 21.0578C150.628 4.90314 179.59 9.69818 190.903 14.4941Z" fill="black"/>
<path d="M231.1 6.03266C233.924 17.294 229.924 34.3535 227.571 41.4756C234.63 32.2251 234.714 9.97083 233.874 0C222.616 10.6261 210.66 11.4223 202.683 9.68381C198.093 8.68366 193.783 6.57755 189.183 5.62802C154.356 -1.56073 130.242 12.2688 122.19 20.612H124.963C147.149 2.5135 181.603 7.54087 196.057 12.3169C215.419 18.5508 227.487 10.7249 231.1 6.03266Z" fill="black"/>
<path d="M71.1187 40.5467C96.868 19.8962 139.784 49.5069 213.498 27.8564C132.968 38.8074 92.5765 15.1686 71.1187 40.5467Z" fill="black"/>
<path d="M66.4761 40.5467C87.6709 8.71043 147.723 41.8102 189.355 15.7852C139.144 36.504 92.4649 -1.90157 66.4761 40.5467Z" fill="#E87222"/>
<path d="M74.5923 60.6625V62.0379H70.0932V60.6625H74.5923ZM67.316 63.1824H68.9645C69.0555 63.8893 69.29 64.4301 69.6679 64.8045C70.0494 65.179 70.6427 65.3663 71.4476 65.3663C72.0426 65.3663 72.5326 65.2088 72.9176 64.8938C73.3026 64.5753 73.5878 64.1448 73.7733 63.6023C73.9623 63.0599 74.0568 62.4509 74.0568 61.7754V60.6835C74.0568 59.9555 73.9518 59.322 73.7418 58.783C73.5318 58.2441 73.2256 57.8276 72.8231 57.5336C72.4241 57.2396 71.9359 57.0926 71.3584 57.0926C70.8369 57.0926 70.4099 57.1819 70.0774 57.3603C69.7449 57.5388 69.4895 57.7943 69.311 58.1268C69.136 58.4558 69.0205 58.853 68.9645 59.3185H67.3108C67.3808 58.6255 67.5733 58.0061 67.8883 57.4601C68.2068 56.9141 68.653 56.4836 69.227 56.1686C69.8044 55.8537 70.5149 55.6962 71.3584 55.6962C72.2473 55.6962 73.0156 55.9027 73.663 56.3156C74.314 56.7251 74.8162 57.3026 75.1697 58.0481C75.5232 58.7935 75.7 59.6685 75.7 60.673V61.7912C75.7 62.7956 75.525 63.6688 75.175 64.4108C74.8285 65.1528 74.3368 65.7268 73.6998 66.1327C73.0628 66.5387 72.3121 66.7417 71.4476 66.7417C70.5832 66.7417 69.8569 66.5877 69.269 66.2797C68.681 65.9683 68.226 65.5448 67.904 65.0093C67.582 64.4703 67.386 63.8613 67.316 63.1824ZM85.1331 66.5947L81.5213 61.7754H80.3768V66.5947H78.7547V55.8432H80.3768V60.3842H80.9071L84.9704 55.8432H86.9496L82.65 60.6572L87.1123 66.5947H85.1331ZM98.0456 59.3395H96.4077C96.3447 58.9895 96.2275 58.6815 96.056 58.4156C95.8845 58.1496 95.6745 57.9238 95.426 57.7383C95.1775 57.5528 94.8993 57.4128 94.5913 57.3183C94.2868 57.2238 93.9631 57.1766 93.6201 57.1766C93.0006 57.1766 92.4459 57.3323 91.9559 57.6438C91.4694 57.9553 91.0844 58.4121 90.8009 59.014C90.5209 59.616 90.3809 60.351 90.3809 61.2189C90.3809 62.0939 90.5209 62.8324 90.8009 63.4344C91.0844 64.0363 91.4712 64.4913 91.9611 64.7993C92.4511 65.1073 93.0023 65.2613 93.6148 65.2613C93.9543 65.2613 94.2763 65.2158 94.5808 65.1248C94.8888 65.0303 95.167 64.892 95.4155 64.7101C95.664 64.5281 95.874 64.3058 96.0455 64.0433C96.2205 63.7773 96.3412 63.4729 96.4077 63.1299L98.0456 63.1351C97.9581 63.6636 97.7884 64.1501 97.5364 64.5946C97.2879 65.0355 96.9677 65.417 96.5757 65.739C96.1872 66.0575 95.7427 66.3042 95.2423 66.4792C94.7418 66.6542 94.1958 66.7417 93.6043 66.7417C92.6734 66.7417 91.8439 66.5212 91.1159 66.0802C90.3879 65.6358 89.814 65.0005 89.394 64.1746C88.9775 63.3486 88.7693 62.3634 88.7693 61.2189C88.7693 60.071 88.9793 59.0858 89.3992 58.2633C89.8192 57.4373 90.3932 56.8039 91.1212 56.3629C91.8491 55.9184 92.6769 55.6962 93.6043 55.6962C94.1748 55.6962 94.7068 55.7784 95.2003 55.9429C95.6972 56.1039 96.1435 56.3419 96.539 56.6569C96.9344 56.9684 97.2617 57.3498 97.5207 57.8013C97.7797 58.2493 97.9546 58.762 98.0456 59.3395ZM109.427 55.8432V66.5947H107.81V57.2291H102.749V66.5947H101.132V55.8432H109.427ZM112.942 66.5947V55.8432H119.683V57.2396H114.564V60.5155H119.331V61.9067H114.564V65.1983H119.746V66.5947H112.942ZM122.884 66.5947V55.8432H126.717C127.553 55.8432 128.246 55.9954 128.796 56.2999C129.345 56.6044 129.756 57.0209 130.029 57.5493C130.302 58.0743 130.439 58.6658 130.439 59.3238C130.439 59.9852 130.3 60.5802 130.024 61.1087C129.751 61.6337 129.338 62.0502 128.785 62.3581C128.236 62.6626 127.544 62.8149 126.711 62.8149H124.076V61.4394H126.564C127.093 61.4394 127.522 61.3484 127.851 61.1664C128.18 60.9809 128.421 60.729 128.575 60.4105C128.729 60.092 128.806 59.7297 128.806 59.3238C128.806 58.9178 128.729 58.5573 128.575 58.2423C128.421 57.9273 128.178 57.6806 127.845 57.5021C127.516 57.3236 127.082 57.2343 126.543 57.2343H124.506V66.5947H122.884ZM132.845 57.2396V55.8432H141.166V57.2396H137.811V66.5947H136.194V57.2396H132.845Z" fill="black"/>
<path d="M158.276 61.2189C158.276 62.4019 158.049 63.4046 157.594 64.2271C157.139 65.0495 156.523 65.6743 155.746 66.1012C154.972 66.5282 154.105 66.7417 153.142 66.7417C152.176 66.7417 151.306 66.5265 150.533 66.096C149.759 65.6655 149.145 65.0408 148.69 64.2218C148.239 63.3994 148.013 62.3984 148.013 61.2189C148.013 60.036 148.239 59.0333 148.69 58.2108C149.145 57.3883 149.759 56.7636 150.533 56.3366C151.306 55.9097 152.176 55.6962 153.142 55.6962C154.105 55.6962 154.972 55.9097 155.746 56.3366C156.523 56.7636 157.139 57.3883 157.594 58.2108C158.049 59.0333 158.276 60.036 158.276 61.2189ZM155.62 61.2189C155.62 60.519 155.52 59.9275 155.321 59.4445C155.125 58.9615 154.841 58.5958 154.47 58.3473C154.103 58.0988 153.66 57.9746 153.142 57.9746C152.628 57.9746 152.185 58.0988 151.814 58.3473C151.443 58.5958 151.158 58.9615 150.958 59.4445C150.762 59.9275 150.664 60.519 150.664 61.2189C150.664 61.9189 150.762 62.5104 150.958 62.9934C151.158 63.4764 151.443 63.8421 151.814 64.0906C152.185 64.3391 152.628 64.4633 153.142 64.4633C153.66 64.4633 154.103 64.3391 154.47 64.0906C154.841 63.8421 155.125 63.4764 155.321 62.9934C155.52 62.5104 155.62 61.9189 155.62 61.2189ZM160.828 66.5947V55.8432H165.27C166.075 55.8432 166.769 56.0006 167.354 56.3156C167.942 56.6271 168.395 57.0629 168.714 57.6228C169.032 58.1793 169.191 58.8268 169.191 59.5653C169.191 60.3072 169.029 60.9565 168.703 61.5129C168.381 62.0659 167.921 62.4946 167.322 62.7991C166.724 63.1036 166.013 63.2559 165.191 63.2559H162.451V61.2084H164.708C165.1 61.2084 165.427 61.1402 165.69 61.0037C165.956 60.8672 166.157 60.6765 166.293 60.4315C166.43 60.183 166.498 59.8942 166.498 59.5653C166.498 59.2328 166.43 58.9458 166.293 58.7043C166.157 58.4593 165.956 58.2703 165.69 58.1373C165.424 58.0043 165.096 57.9378 164.708 57.9378H163.427V66.5947H160.828ZM171.507 66.5947V55.8432H179.004V57.9536H174.106V60.1585H178.621V62.2741H174.106V64.4843H179.004V66.5947H171.507ZM181.666 66.5947V55.8432H184.265V60.1585H188.501V55.8432H191.095V66.5947H188.501V62.2741H184.265V66.5947H181.666ZM193.76 66.5947V55.8432H201.104V57.9536H196.358V59.6335H197.776C198.651 59.6335 199.412 59.7752 200.059 60.0587C200.71 60.3422 201.213 60.7412 201.566 61.2557C201.923 61.7702 202.101 62.3756 202.101 63.0721C202.101 63.7686 201.923 64.3811 201.566 64.9095C201.213 65.438 200.71 65.851 200.059 66.1485C199.412 66.446 198.651 66.5947 197.776 66.5947H193.76ZM196.358 64.5368H197.776C198.154 64.5368 198.472 64.4721 198.731 64.3426C198.994 64.2096 199.191 64.0311 199.324 63.8071C199.461 63.5796 199.529 63.3276 199.529 63.0511C199.529 62.6521 199.379 62.3196 199.078 62.0537C198.777 61.7842 198.343 61.6494 197.776 61.6494H196.358V64.5368ZM205.74 66.7417V64.6838H206.291C206.589 64.6838 206.827 64.6541 207.005 64.5946C207.187 64.5316 207.329 64.4318 207.431 64.2953C207.536 64.1588 207.623 63.9768 207.693 63.7493L207.814 63.4186L203.845 55.8432H206.512L208.901 60.673L210.822 55.8432H213.447L209.751 64.3636C209.559 64.7835 209.331 65.1755 209.069 65.5395C208.806 65.9 208.475 66.1905 208.076 66.411C207.681 66.6315 207.182 66.7417 206.58 66.7417H205.74ZM215.579 66.5947V55.8432H220.02C220.825 55.8432 221.52 56.0006 222.104 56.3156C222.692 56.6271 223.146 57.0629 223.464 57.6228C223.783 58.1793 223.942 58.8268 223.942 59.5653C223.942 60.3072 223.779 60.9565 223.454 61.5129C223.132 62.0659 222.671 62.4946 222.073 62.7991C221.474 63.1036 220.764 63.2559 219.942 63.2559H217.201V61.2084H219.459C219.851 61.2084 220.178 61.1402 220.44 61.0037C220.706 60.8672 220.907 60.6765 221.044 60.4315C221.18 60.183 221.249 59.8942 221.249 59.5653C221.249 59.2328 221.18 58.9458 221.044 58.7043C220.907 58.4593 220.706 58.2703 220.44 58.1373C220.174 58.0043 219.847 57.9378 219.459 57.9378H218.178V66.5947H215.579ZM233.602 55.8432V57.9536H228.856V66.5947H226.258V55.8432H233.602Z" fill="#E97724"/>
<path d="M56.1357 53.8442C56.2465 53.6049 56.5867 53.6049 56.6975 53.8442L57.8754 56.3893C57.9205 56.4868 58.0129 56.5539 58.1195 56.5667L60.9041 56.9005C61.1659 56.9319 61.2711 57.2554 61.0777 57.4348L59.0211 59.3416C58.9424 59.4146 58.9071 59.5231 58.9279 59.6285L59.4709 62.3799C59.522 62.6387 59.2467 62.8386 59.0164 62.7101L56.5674 61.3434C56.4737 61.2911 56.3595 61.2911 56.2658 61.3434L53.8168 62.7101C53.5865 62.8386 53.3112 62.6387 53.3623 62.3799L53.9053 59.6285C53.9261 59.5231 53.8908 59.4146 53.8121 59.3416L51.7555 57.4348C51.5621 57.2554 51.6672 56.9319 51.9291 56.9005L54.7137 56.5667C54.8203 56.5539 54.9126 56.4868 54.9577 56.3893L56.1357 53.8442Z" fill="#E87222"/>
<path d="M244.015 53.8442C244.125 53.6049 244.466 53.6049 244.576 53.8442L245.754 56.3893C245.799 56.4868 245.892 56.5539 245.998 56.5667L248.783 56.9005C249.045 56.9319 249.15 57.2554 248.957 57.4348L246.9 59.3416C246.821 59.4146 246.786 59.5231 246.807 59.6285L247.35 62.3799C247.401 62.6387 247.126 62.8386 246.895 62.7101L244.446 61.3434C244.353 61.2911 244.238 61.2911 244.145 61.3434L241.696 62.7101C241.465 62.8386 241.19 62.6387 241.241 62.3799L241.784 59.6285C241.805 59.5231 241.77 59.4146 241.691 59.3416L239.634 57.4348C239.441 57.2554 239.546 56.9319 239.808 56.9005L242.593 56.5667C242.699 56.5539 242.792 56.4868 242.837 56.3893L244.015 53.8442Z" fill="#E87222"/>
</g>
<defs>
<clipPath id="clip0_206_3">
<rect width="300" height="70" fill="white"/>
</clipPath>
</defs>
</svg>
