<?xml version="1.0" encoding="UTF-8"?>
<!DOCTYPE svg PUBLIC "-//W3C//DTD SVG 1.1//EN" "http://www.w3.org/Graphics/SVG/1.1/DTD/svg11.dtd">
<!-- Creator: CorelDRAW -->
<svg xmlns="http://www.w3.org/2000/svg" xml:space="preserve" width="202.011mm" height="33.4301mm" version="1.1" style="shape-rendering:geometricPrecision; text-rendering:geometricPrecision; image-rendering:optimizeQuality; fill-rule:evenodd; clip-rule:evenodd"
viewBox="0 0 20186.83 3340.65"
 xmlns:xlink="http://www.w3.org/1999/xlink"
 xmlns:xodm="http://www.corel.com/coreldraw/odm/2003">
 <defs>
  <style type="text/css">
   <![CDATA[
    .fil0 {fill:white}
    .fil1 {fill:white;fill-rule:nonzero}
   ]]>
  </style>
 </defs>
 <g id="Слой_x0020_1">
  <metadata id="CorelCorpID_0Corel-Layer"/>
  <g id="_105553386779360">
   <path class="fil0" d="M277.01 1255.31c950.73,-398.48 1783.2,-506.59 2767.16,7.67 882.4,461.19 498.97,661.93 686.2,1050.9 214.39,445.36 874.74,474.64 1128.19,33.93 127.89,-222.4 96.17,-507.38 -36.08,-681.86 -170.48,-224.91 -280.52,-214.04 -600.64,-281.42 -333.88,-70.27 -1178.29,-951.63 -2720.06,-651.32 -621.19,120.99 -780.23,256.07 -1224.77,522.1z"/>
   <path class="fil0" d="M3430.23 2385.18c-305.8,-260.9 -897.33,-424.99 -1332.5,-477.08 -182.87,-21.89 -420.87,6.7 -585.61,-27.32 -382.52,-78.99 -342.6,-389.99 -743.78,-470.22 -656.44,-131.27 -979.98,641.44 -617.24,1035.24 79.47,86.27 149.03,143.34 282.1,190.37 355.14,125.49 635.78,-134.3 928.32,-246.79 913.54,-351.26 1372.1,-140.06 2068.71,-4.2z"/>
  </g>
  <g id="_105553386794080">
   <path class="fil1" d="M6837.39 1678.27c177.04,0 327.62,-62.06 451.73,-186.17l224.5 227.24c-186.17,186.17 -411.58,279.25 -676.23,279.25 -271.96,0 -500.11,-90.81 -684.45,-272.41 -184.35,-181.61 -276.52,-419.34 -276.52,-713.2 0,-288.39 89.9,-524.74 269.68,-709.09 179.78,-184.34 410.21,-276.51 691.29,-276.51 266.47,0 491.88,93.99 676.23,281.99l-224.5 224.5c-124.11,-124.11 -274.7,-186.17 -451.73,-186.17 -193.47,0 -347.7,61.6 -462.69,184.8 -114.98,123.19 -172.48,283.36 -172.48,480.48 0,200.77 60.69,361.84 182.06,483.22 121.37,121.37 272.41,182.06 453.11,182.06zm8095.64 292.94l-84.87 -221.76 -673.49 0 -82.14 221.76 -344.96 0 763.84 -1971.21 766.58 1971.21 -344.96 0zm-421.62 -1163.56l-232.71 665.28 465.42 0 -232.72 -665.28zm1938.35 208.07c67.53,14.6 125.48,38.32 173.85,71.18 48.37,32.86 83.5,67.53 105.41,104.04 21.9,36.5 38.33,72.55 49.29,108.14 10.95,35.59 16.42,64.33 16.42,86.24l2.74 35.59c0,98.56 -19.62,184.34 -58.86,257.35 -39.24,73.01 -84.41,127.76 -135.52,164.26 -51.1,36.5 -111.79,65.25 -182.06,86.24 -70.27,21 -125.93,33.32 -167,36.96 -41.07,3.65 -81.67,5.48 -121.83,5.48l-637.9 0 0 -1916.45 637.9 0c9.13,0 21.44,0 36.96,0 15.51,0 45.17,3.19 88.98,9.58 43.81,6.39 85.78,15.51 125.94,27.37 40.15,11.86 84.87,31.03 134.15,57.5 49.29,26.46 91.27,58.4 125.94,95.82 34.68,37.41 64.33,86.24 88.98,146.47 24.64,60.24 36.96,127.77 36.96,202.6 0,116.82 -30.58,210.35 -91.72,280.62 -61.15,70.27 -137.35,117.27 -228.61,141zm-637.9 -643.39l0 481.85 320.31 0c9.13,0 20.54,-0.45 34.23,-1.37 13.69,-0.91 38.78,-5.48 75.29,-13.68 36.5,-8.21 68.9,-20.09 97.19,-35.59 28.29,-15.52 53.84,-39.7 76.66,-72.55 22.81,-32.86 34.23,-71.19 34.23,-114.99 0,-76.66 -26.46,-135.06 -79.39,-175.22 -52.93,-40.16 -105.87,-61.15 -158.8,-62.98l-79.39 -5.48 -320.31 0zm320.31 1281.29c229.98,0 344.97,-80.3 344.97,-240.92 0,-76.67 -28.75,-134.61 -86.24,-173.86 -57.5,-39.23 -114.54,-59.77 -171.12,-61.6l-87.61 -2.74 -320.31 0 0 479.11 320.31 0zm1973.95 -1598.86l0 292.94 -402.46 0 0 1623.5 -317.59 0 0 -1623.5 -402.46 0 0 -292.94 1122.5 0zm722.77 60.23c124.11,-56.58 261.92,-84.87 413.41,-84.87 151.49,0 288.38,28.29 410.67,84.87 122.28,56.58 221.3,130.96 297.05,223.13 75.75,92.16 134.15,197.12 175.22,314.84 41.06,117.73 61.6,237.73 61.6,360.03 0,122.28 -20.54,242.29 -61.6,360.02 -41.07,117.73 -99.02,222.67 -173.85,314.85 -74.84,92.17 -173.86,166.55 -297.05,223.13 -123.2,56.58 -260.55,84.87 -412.04,84.87 -153.32,0 -291.57,-28.29 -414.78,-84.87 -123.2,-56.58 -222.67,-130.96 -298.42,-223.13 -75.75,-92.17 -134.15,-197.12 -175.22,-314.85 -41.07,-117.73 -61.6,-237.73 -61.6,-360.02 0,-122.29 20.99,-242.3 62.97,-360.03 41.98,-117.72 100.84,-222.67 176.59,-314.84 75.75,-92.17 174.77,-166.55 297.05,-223.13zm413.41 1571.49c113.16,0 214.46,-24.64 303.9,-73.92 89.44,-49.29 157.42,-113.62 203.97,-193.01 46.54,-79.4 80.3,-166.55 101.3,-261.47 20.99,-94.9 20.99,-190.28 0,-286.1 -21,-95.82 -54.76,-183.43 -101.3,-262.82 -46.55,-79.39 -114.53,-143.74 -203.97,-193.01 -89.44,-49.29 -190.74,-73.92 -303.9,-73.92 -100.39,0 -190.74,19.16 -271.04,57.49 -80.31,38.33 -145.57,88.98 -195.75,151.95 -50.19,62.97 -88.53,134.6 -114.99,214.91 -26.47,80.31 -39.7,162.91 -39.7,247.78 0,84.87 13.23,167.46 39.7,247.77 26.46,80.31 64.79,151.95 114.99,214.92 50.18,62.97 115.44,113.62 195.75,151.95 80.3,38.32 170.65,57.49 271.04,57.49zm-10439.17 -1631.72l0 292.94 -402.46 0 0 1623.5 -317.59 0 0 -1623.5 -402.46 0 0 -292.94 1122.5 0zm722.77 60.23c124.11,-56.58 261.92,-84.87 413.41,-84.87 151.49,0 288.38,28.29 410.67,84.87 122.28,56.58 221.3,130.96 297.05,223.13 75.75,92.16 134.15,197.12 175.22,314.84 41.06,117.73 61.6,237.73 61.6,360.03 0,122.28 -20.54,242.29 -61.6,360.02 -41.07,117.73 -99.02,222.67 -173.85,314.85 -74.84,92.17 -173.86,166.55 -297.05,223.13 -123.2,56.58 -260.55,84.87 -412.04,84.87 -153.32,0 -291.57,-28.29 -414.78,-84.87 -123.2,-56.58 -222.67,-130.96 -298.42,-223.13 -75.75,-92.17 -134.15,-197.12 -175.22,-314.85 -41.07,-117.73 -61.6,-237.73 -61.6,-360.02 0,-122.29 20.99,-242.3 62.97,-360.03 41.98,-117.72 100.84,-222.67 176.59,-314.84 75.75,-92.17 174.77,-166.55 297.05,-223.13zm413.41 1571.49c113.16,0 214.46,-24.64 303.9,-73.92 89.44,-49.29 157.42,-113.62 203.97,-193.01 46.54,-79.4 80.3,-166.55 101.3,-261.47 20.99,-94.9 20.99,-190.28 0,-286.1 -21,-95.82 -54.76,-183.43 -101.3,-262.82 -46.55,-79.39 -114.53,-143.74 -203.97,-193.01 -89.44,-49.29 -190.74,-73.92 -303.9,-73.92 -100.39,0 -190.74,19.16 -271.04,57.49 -80.31,38.33 -145.57,88.98 -195.75,151.95 -50.19,62.97 -88.53,134.6 -114.99,214.91 -26.47,80.31 -39.7,162.91 -39.7,247.78 0,84.87 13.23,167.46 39.7,247.77 26.46,80.31 64.79,151.95 114.99,214.92 50.18,62.97 115.44,113.62 195.75,151.95 80.3,38.32 170.65,57.49 271.04,57.49zm2817.18 -1631.72l-791.22 974.65 796.7 941.8 -418.87 0 -591.36 -728.26 -180.69 202.6 0 525.66 -320.32 0 0 -1916.45 320.32 0 0 966.44 785.74 -966.44 399.72 0z"/>
   <path class="fil1" d="M6341.96 3330.14l-32.6 -85.17 -258.67 0 -31.55 85.17 -132.49 0 293.36 -757.08 294.42 757.08 -132.49 0zm-161.94 -446.88l-89.38 255.51 178.76 0 -89.39 -255.51zm744.46 79.91c25.93,5.61 48.2,14.72 66.77,27.34 18.58,12.61 32.07,25.93 40.48,39.95 8.41,14.02 14.72,27.87 18.93,41.54 4.21,13.66 6.31,24.7 6.31,33.12l1.05 13.67c0,37.85 -7.53,70.8 -22.6,98.84 -15.07,28.04 -32.42,49.07 -52.05,63.09 -19.63,14.02 -42.93,25.06 -69.92,33.13 -26.99,8.06 -48.37,12.79 -64.14,14.2 -15.77,1.4 -31.37,2.1 -46.79,2.1l-245 0 0 -736.05 245 0c3.51,0 8.23,0 14.19,0 5.97,0 17.36,1.23 34.18,3.68 16.83,2.46 32.95,5.97 48.37,10.52 15.43,4.56 32.6,11.91 51.52,22.07 18.94,10.17 35.06,22.43 48.38,36.8 13.32,14.37 24.71,33.13 34.18,56.26 9.46,23.13 14.19,49.07 14.19,77.81 0,44.87 -11.74,80.79 -35.23,107.78 -23.48,26.99 -52.75,45.04 -87.8,54.15zm-245 -247.11l0 185.07 123.02 0c3.51,0 7.88,-0.18 13.14,-0.53 5.26,-0.35 14.9,-2.1 28.92,-5.26 14.02,-3.16 26.46,-7.71 37.32,-13.67 10.87,-5.96 20.69,-15.25 29.45,-27.86 8.75,-12.62 13.14,-27.34 13.14,-44.17 0,-29.44 -10.16,-51.87 -30.5,-67.29 -20.33,-15.43 -40.65,-23.48 -60.99,-24.18l-30.49 -2.11 -123.02 0zm123.02 492.1c88.33,0 132.49,-30.85 132.49,-92.53 0,-29.44 -11.04,-51.69 -33.12,-66.76 -22.08,-15.08 -43.99,-22.96 -65.72,-23.66l-33.65 -1.05 -123.02 0 0 184.01 123.02 0zm758.12 -614.08l0 112.51 -154.57 0 0 623.54 -121.97 0 0 -623.54 -154.57 0 0 -112.51 431.12 0zm277.59 23.13c47.67,-21.73 100.6,-32.6 158.78,-32.6 58.18,0 110.76,10.86 157.73,32.6 46.97,21.73 84.99,50.29 114.08,85.7 29.1,35.4 51.52,75.71 67.3,120.92 15.77,45.21 23.65,91.31 23.65,138.27 0,46.97 -7.88,93.05 -23.65,138.27 -15.78,45.21 -38.03,85.52 -66.77,120.91 -28.74,35.41 -66.77,63.96 -114.09,85.7 -47.32,21.73 -100.07,32.6 -158.25,32.6 -58.89,0 -111.98,-10.86 -159.31,-32.6 -47.32,-21.73 -85.52,-50.29 -114.61,-85.7 -29.09,-35.4 -51.52,-75.71 -67.29,-120.91 -15.78,-45.22 -23.66,-91.31 -23.66,-138.27 0,-46.97 8.06,-93.06 24.18,-138.27 16.13,-45.22 38.73,-85.53 67.82,-120.92 29.09,-35.41 67.12,-63.96 114.09,-85.7zm158.78 603.56c43.46,0 82.36,-9.46 116.72,-28.39 34.35,-18.93 60.46,-43.64 78.33,-74.14 17.88,-30.49 30.85,-63.96 38.9,-100.42 8.06,-36.44 8.06,-73.08 0,-109.87 -8.05,-36.8 -21.03,-70.45 -38.9,-100.95 -17.88,-30.49 -43.99,-55.2 -78.33,-74.13 -34.36,-18.93 -73.26,-28.39 -116.72,-28.39 -38.55,0 -73.26,7.35 -104.1,22.07 -30.85,14.73 -55.91,34.18 -75.19,58.36 -19.28,24.19 -34,51.7 -44.16,82.54 -10.16,30.85 -15.25,62.57 -15.25,95.16 0,32.6 5.09,64.31 15.25,95.16 10.16,30.85 24.88,58.36 44.16,82.54 19.28,24.18 44.34,43.64 75.19,58.36 30.84,14.72 65.54,22.08 104.1,22.08zm1300.69 -627.75l0 737.1 -123.02 0 0 -452.14 -211.35 452.14 -115.66 0 -225.02 -461.6 0 461.6 -123.03 0 0 -737.1 125.13 0 279.7 573.07 268.13 -573.07 125.12 0zm341.74 24.18c47.67,-21.73 100.6,-32.6 158.78,-32.6 58.18,0 110.76,10.86 157.73,32.6 46.97,21.73 84.99,50.29 114.08,85.7 29.1,35.4 51.52,75.71 67.3,120.92 15.77,45.21 23.65,91.31 23.65,138.27 0,46.97 -7.88,93.05 -23.65,138.27 -15.78,45.21 -38.03,85.52 -66.77,120.91 -28.74,35.41 -66.77,63.96 -114.09,85.7 -47.32,21.73 -100.07,32.6 -158.25,32.6 -58.89,0 -111.98,-10.86 -159.31,-32.6 -47.32,-21.73 -85.52,-50.29 -114.61,-85.7 -29.09,-35.4 -51.52,-75.71 -67.29,-120.91 -15.78,-45.22 -23.66,-91.31 -23.66,-138.27 0,-46.97 8.06,-93.06 24.18,-138.27 16.13,-45.22 38.73,-85.53 67.82,-120.92 29.09,-35.41 67.12,-63.96 114.09,-85.7zm158.78 603.56c43.46,0 82.36,-9.46 116.72,-28.39 34.35,-18.93 60.46,-43.64 78.33,-74.14 17.88,-30.49 30.85,-63.96 38.9,-100.42 8.06,-36.44 8.06,-73.08 0,-109.87 -8.05,-36.8 -21.03,-70.45 -38.9,-100.95 -17.88,-30.49 -43.99,-55.2 -78.33,-74.13 -34.36,-18.93 -73.26,-28.39 -116.72,-28.39 -38.55,0 -73.26,7.35 -104.1,22.07 -30.85,14.73 -55.91,34.18 -75.19,58.36 -19.28,24.19 -34,51.7 -44.16,82.54 -10.16,30.85 -15.25,62.57 -15.25,95.16 0,32.6 5.09,64.31 15.25,95.16 10.16,30.85 24.88,58.36 44.16,82.54 19.28,24.18 44.34,43.64 75.19,58.36 30.84,14.72 65.54,22.08 104.1,22.08zm748.67 -330.18c85.52,0 149.48,18.93 191.89,56.78 42.41,37.86 63.62,91.14 63.62,159.84 0,37.85 -7.53,71.32 -22.6,100.41 -15.07,29.1 -32.6,51 -52.57,65.72 -19.98,14.72 -43.11,26.64 -69.4,35.75 -26.29,9.1 -48.02,14.89 -65.19,17.35 -17.18,2.45 -32.42,3.68 -45.74,3.68l-245 0 0 -736.05 456.35 0 0 118.83 -334.37 0 0 177.69 123.02 0zm0 317.56c21.03,0 40.48,-2.1 58.36,-6.31 17.88,-4.21 34.7,-14.37 50.47,-30.5 15.77,-16.12 23.65,-37.5 23.65,-64.13 0,-65.19 -44.16,-97.79 -132.49,-97.79l-123.02 0 0 198.73 123.02 0zm391.15 121.97l0 -736.05 124.08 0 0 534.16 366.97 -534.16 126.18 0 0 736.05 -125.13 0 0 -543.63 -365.92 543.63 -126.18 0zm1152.45 0l-161.94 -444.79 -160.88 444.79 -132.49 0 293.36 -757.08 294.42 757.08 -132.49 0zm217.66 0l0 -736.05 124.08 0 0 534.16 366.96 -534.16 126.18 0 0 736.05 -125.13 0 0 -543.63 -365.91 543.63 -126.18 0zm1486.81 -112.51c67.99,0 125.83,-23.83 173.5,-71.5l86.22 87.27c-71.5,71.51 -158.07,107.25 -259.72,107.25 -104.45,0 -192.07,-34.88 -262.87,-104.63 -70.8,-69.74 -106.21,-161.05 -106.21,-273.91 0,-110.76 34.53,-201.54 103.58,-272.34 69.05,-70.8 157.55,-106.21 265.5,-106.21 102.35,0 188.92,36.1 259.72,108.3l-86.22 86.22c-47.67,-47.67 -105.51,-71.5 -173.5,-71.5 -74.31,0 -133.55,23.66 -177.7,70.98 -44.16,47.32 -66.24,108.82 -66.24,184.54 0,77.11 23.3,138.97 69.92,185.59 46.62,46.62 104.63,69.92 174.03,69.92zm750.76 -623.54l552.04 0 0 736.05 -123.02 0 0 -614.08 -305.99 0 0 614.08 -123.02 0 0 -736.05zm965.28 0c3.51,0 8.23,0.18 14.2,0.53 5.96,0.35 17.35,1.93 34.17,4.73 16.83,2.81 33.13,6.67 48.9,11.57 15.78,4.91 33.13,12.79 52.05,23.65 18.93,10.87 35.05,23.48 48.37,37.85 13.32,14.37 24.71,33.48 34.18,57.31 9.46,23.83 14.2,50.47 14.2,79.91 0,29.44 -4.56,56.08 -13.67,79.91 -9.11,23.83 -20.86,42.94 -35.23,57.31 -14.37,14.37 -30.32,26.99 -47.85,37.85 -17.53,10.86 -35.06,18.75 -52.57,23.65 -17.53,4.92 -33.48,8.76 -47.85,11.57 -14.37,2.81 -26.11,4.56 -35.23,5.26l-13.67 0 -123.02 0 0 307.03 -123.02 0 0 -738.15 246.05 0zm0 308.09c3.51,0 8.06,-0.18 13.67,-0.53 5.61,-0.35 15.42,-2.28 29.44,-5.79 14.02,-3.5 26.46,-8.05 37.33,-13.66 10.86,-5.62 20.68,-14.73 29.44,-27.34 8.76,-12.62 13.14,-27.69 13.14,-45.22 0,-27.34 -10.16,-48.72 -30.49,-64.14 -20.34,-15.42 -41.01,-23.83 -62.04,-25.23l-30.5 -3.16 -123.02 0 0 185.07 123.02 0zm539.42 -284.96c47.67,-21.73 100.6,-32.6 158.78,-32.6 58.18,0 110.76,10.86 157.73,32.6 46.97,21.73 84.99,50.29 114.08,85.7 29.1,35.4 51.52,75.71 67.3,120.92 15.77,45.21 23.65,91.31 23.65,138.27 0,46.97 -7.88,93.05 -23.65,138.27 -15.78,45.21 -38.03,85.52 -66.77,120.91 -28.74,35.41 -66.77,63.96 -114.09,85.7 -47.32,21.73 -100.07,32.6 -158.25,32.6 -58.89,0 -111.98,-10.86 -159.31,-32.6 -47.32,-21.73 -85.52,-50.29 -114.61,-85.7 -29.09,-35.4 -51.52,-75.71 -67.29,-120.91 -15.78,-45.22 -23.66,-91.31 -23.66,-138.27 0,-46.97 8.06,-93.06 24.18,-138.27 16.13,-45.22 38.73,-85.53 67.82,-120.92 29.09,-35.41 67.12,-63.96 114.09,-85.7zm158.78 603.56c43.46,0 82.36,-9.46 116.72,-28.39 34.35,-18.93 60.46,-43.64 78.33,-74.14 17.88,-30.49 30.85,-63.96 38.9,-100.42 8.06,-36.44 8.06,-73.08 0,-109.87 -8.05,-36.8 -21.03,-70.45 -38.9,-100.95 -17.88,-30.49 -43.99,-55.2 -78.33,-74.13 -34.36,-18.93 -73.26,-28.39 -116.72,-28.39 -38.55,0 -73.26,7.35 -104.1,22.07 -30.85,14.73 -55.91,34.18 -75.19,58.36 -19.28,24.19 -34,51.7 -44.16,82.54 -10.16,30.85 -15.25,62.57 -15.25,95.16 0,32.6 5.09,64.31 15.25,95.16 10.16,30.85 24.88,58.36 44.16,82.54 19.28,24.18 44.34,43.64 75.19,58.36 30.84,14.72 65.54,22.08 104.1,22.08zm748.67 -330.18c85.51,0 149.47,18.93 191.88,56.78 42.41,37.86 63.62,91.14 63.62,159.84 0,37.85 -7.53,71.32 -22.6,100.41 -15.07,29.1 -32.6,51 -52.57,65.72 -19.98,14.72 -43.11,26.64 -69.4,35.75 -26.29,9.1 -48.02,14.89 -65.18,17.35 -17.18,2.45 -32.42,3.68 -45.74,3.68l-245 0 0 -736.05 456.34 0 0 118.83 -334.36 0 0 177.69 123.02 0zm0 317.56c21.03,0 40.48,-2.1 58.35,-6.31 17.88,-4.21 34.7,-14.37 50.47,-30.5 15.77,-16.12 23.65,-37.5 23.65,-64.13 0,-65.19 -44.16,-97.79 -132.48,-97.79l-123.02 0 0 198.73 123.02 0zm880.09 -491.05l-368.02 0 0 184.02 305.98 0 0 121.97 -305.98 0 0 184.01 368.02 0 0 123.02 -491.04 0 0 -736.05 491.04 0 0 123.02zm249.21 -4.2l0 617.22 -121.97 0 0 -736.05 456.35 0 0 118.83 -334.37 0zm629.85 -95.69c47.67,-21.73 100.6,-32.6 158.78,-32.6 58.18,0 110.76,10.86 157.73,32.6 46.97,21.73 84.99,50.29 114.08,85.7 29.1,35.4 51.52,75.71 67.3,120.92 15.77,45.21 23.65,91.31 23.65,138.27 0,46.97 -7.88,93.05 -23.65,138.27 -15.78,45.21 -38.03,85.52 -66.77,120.91 -28.74,35.41 -66.77,63.96 -114.09,85.7 -47.32,21.73 -100.07,32.6 -158.25,32.6 -58.89,0 -111.98,-10.86 -159.31,-32.6 -47.32,-21.73 -85.52,-50.29 -114.61,-85.7 -29.09,-35.4 -51.52,-75.71 -67.29,-120.91 -15.78,-45.22 -23.66,-91.31 -23.66,-138.27 0,-46.97 8.06,-93.06 24.18,-138.27 16.13,-45.22 38.73,-85.53 67.82,-120.92 29.09,-35.41 67.12,-63.96 114.09,-85.7zm158.78 603.56c43.46,0 82.36,-9.46 116.72,-28.39 34.35,-18.93 60.46,-43.64 78.33,-74.14 17.88,-30.49 30.85,-63.96 38.9,-100.42 8.06,-36.44 8.06,-73.08 0,-109.87 -8.05,-36.8 -21.03,-70.45 -38.9,-100.95 -17.88,-30.49 -43.99,-55.2 -78.33,-74.13 -34.36,-18.93 -73.26,-28.39 -116.72,-28.39 -38.55,0 -73.26,7.35 -104.1,22.07 -30.85,14.73 -55.91,34.18 -75.19,58.36 -19.28,24.19 -34,51.7 -44.16,82.54 -10.16,30.85 -15.25,62.57 -15.25,95.16 0,32.6 5.09,64.31 15.25,95.16 10.16,30.85 24.88,58.36 44.16,82.54 19.28,24.18 44.34,43.64 75.19,58.36 30.84,14.72 65.54,22.08 104.1,22.08zm1300.7 -627.75l0 737.1 -123.02 0 0 -452.14 -211.35 452.14 -115.66 0 -225.02 -461.6 0 461.6 -123.03 0 0 -737.1 125.13 0 279.7 573.07 268.13 -573.07 125.12 0z"/>
  </g>
  <g id="_105553385809760">
   <path class="fil0" d="M277.01 1255.31c950.73,-398.48 1783.2,-506.59 2767.16,7.67 882.4,461.19 498.97,661.93 686.2,1050.9 214.39,445.36 874.74,474.64 1128.19,33.93 127.89,-222.4 96.17,-507.38 -36.08,-681.86 -170.48,-224.91 -280.52,-214.04 -600.64,-281.42 -333.88,-70.27 -1178.29,-951.63 -2720.06,-651.32 -621.19,120.99 -780.23,256.07 -1224.77,522.1z"/>
   <path class="fil0" d="M3430.23 2385.18c-305.8,-260.9 -897.33,-424.99 -1332.5,-477.08 -182.87,-21.89 -420.87,6.7 -585.61,-27.32 -382.52,-78.99 -342.6,-389.99 -743.78,-470.22 -656.44,-131.27 -979.98,641.44 -617.24,1035.24 79.47,86.27 149.03,143.34 282.1,190.37 355.14,125.49 635.78,-134.3 928.32,-246.79 913.54,-351.26 1372.1,-140.06 2068.71,-4.2z"/>
  </g>
  <g id="_105553385757504">
   <path class="fil1" d="M6837.39 1678.27c177.04,0 327.62,-62.06 451.73,-186.17l224.5 227.24c-186.17,186.17 -411.58,279.25 -676.23,279.25 -271.96,0 -500.11,-90.81 -684.45,-272.41 -184.35,-181.61 -276.52,-419.34 -276.52,-713.2 0,-288.39 89.9,-524.74 269.68,-709.09 179.78,-184.34 410.21,-276.51 691.29,-276.51 266.47,0 491.88,93.99 676.23,281.99l-224.5 224.5c-124.11,-124.11 -274.7,-186.17 -451.73,-186.17 -193.47,0 -347.7,61.6 -462.69,184.8 -114.98,123.19 -172.48,283.36 -172.48,480.48 0,200.77 60.69,361.84 182.06,483.22 121.37,121.37 272.41,182.06 453.11,182.06zm8095.64 292.94l-84.87 -221.76 -673.49 0 -82.14 221.76 -344.96 0 763.84 -1971.21 766.58 1971.21 -344.96 0zm-421.62 -1163.56l-232.71 665.28 465.42 0 -232.72 -665.28zm1938.35 208.07c67.53,14.6 125.48,38.32 173.85,71.18 48.37,32.86 83.5,67.53 105.41,104.04 21.9,36.5 38.33,72.55 49.29,108.14 10.95,35.59 16.42,64.33 16.42,86.24l2.74 35.59c0,98.56 -19.62,184.34 -58.86,257.35 -39.24,73.01 -84.41,127.76 -135.52,164.26 -51.1,36.5 -111.79,65.25 -182.06,86.24 -70.27,21 -125.93,33.32 -167,36.96 -41.07,3.65 -81.67,5.48 -121.83,5.48l-637.9 0 0 -1916.45 637.9 0c9.13,0 21.44,0 36.96,0 15.51,0 45.17,3.19 88.98,9.58 43.81,6.39 85.78,15.51 125.94,27.37 40.15,11.86 84.87,31.03 134.15,57.5 49.29,26.46 91.27,58.4 125.94,95.82 34.68,37.41 64.33,86.24 88.98,146.47 24.64,60.24 36.96,127.77 36.96,202.6 0,116.82 -30.58,210.35 -91.72,280.62 -61.15,70.27 -137.35,117.27 -228.61,141zm-637.9 -643.39l0 481.85 320.31 0c9.13,0 20.54,-0.45 34.23,-1.37 13.69,-0.91 38.78,-5.48 75.29,-13.68 36.5,-8.21 68.9,-20.09 97.19,-35.59 28.29,-15.52 53.84,-39.7 76.66,-72.55 22.81,-32.86 34.23,-71.19 34.23,-114.99 0,-76.66 -26.46,-135.06 -79.39,-175.22 -52.93,-40.16 -105.87,-61.15 -158.8,-62.98l-79.39 -5.48 -320.31 0zm320.31 1281.29c229.98,0 344.97,-80.3 344.97,-240.92 0,-76.67 -28.75,-134.61 -86.24,-173.86 -57.5,-39.23 -114.54,-59.77 -171.12,-61.6l-87.61 -2.74 -320.31 0 0 479.11 320.31 0zm1973.95 -1598.86l0 292.94 -402.46 0 0 1623.5 -317.59 0 0 -1623.5 -402.46 0 0 -292.94 1122.5 0zm722.77 60.23c124.11,-56.58 261.92,-84.87 413.41,-84.87 151.49,0 288.38,28.29 410.67,84.87 122.28,56.58 221.3,130.96 297.05,223.13 75.75,92.16 134.15,197.12 175.22,314.84 41.06,117.73 61.6,237.73 61.6,360.03 0,122.28 -20.54,242.29 -61.6,360.02 -41.07,117.73 -99.02,222.67 -173.85,314.85 -74.84,92.17 -173.86,166.55 -297.05,223.13 -123.2,56.58 -260.55,84.87 -412.04,84.87 -153.32,0 -291.57,-28.29 -414.78,-84.87 -123.2,-56.58 -222.67,-130.96 -298.42,-223.13 -75.75,-92.17 -134.15,-197.12 -175.22,-314.85 -41.07,-117.73 -61.6,-237.73 -61.6,-360.02 0,-122.29 20.99,-242.3 62.97,-360.03 41.98,-117.72 100.84,-222.67 176.59,-314.84 75.75,-92.17 174.77,-166.55 297.05,-223.13zm413.41 1571.49c113.16,0 214.46,-24.64 303.9,-73.92 89.44,-49.29 157.42,-113.62 203.97,-193.01 46.54,-79.4 80.3,-166.55 101.3,-261.47 20.99,-94.9 20.99,-190.28 0,-286.1 -21,-95.82 -54.76,-183.43 -101.3,-262.82 -46.55,-79.39 -114.53,-143.74 -203.97,-193.01 -89.44,-49.29 -190.74,-73.92 -303.9,-73.92 -100.39,0 -190.74,19.16 -271.04,57.49 -80.31,38.33 -145.57,88.98 -195.75,151.95 -50.19,62.97 -88.53,134.6 -114.99,214.91 -26.47,80.31 -39.7,162.91 -39.7,247.78 0,84.87 13.23,167.46 39.7,247.77 26.46,80.31 64.79,151.95 114.99,214.92 50.18,62.97 115.44,113.62 195.75,151.95 80.3,38.32 170.65,57.49 271.04,57.49zm-10439.17 -1631.72l0 292.94 -402.46 0 0 1623.5 -317.59 0 0 -1623.5 -402.46 0 0 -292.94 1122.5 0zm722.77 60.23c124.11,-56.58 261.92,-84.87 413.41,-84.87 151.49,0 288.38,28.29 410.67,84.87 122.28,56.58 221.3,130.96 297.05,223.13 75.75,92.16 134.15,197.12 175.22,314.84 41.06,117.73 61.6,237.73 61.6,360.03 0,122.28 -20.54,242.29 -61.6,360.02 -41.07,117.73 -99.02,222.67 -173.85,314.85 -74.84,92.17 -173.86,166.55 -297.05,223.13 -123.2,56.58 -260.55,84.87 -412.04,84.87 -153.32,0 -291.57,-28.29 -414.78,-84.87 -123.2,-56.58 -222.67,-130.96 -298.42,-223.13 -75.75,-92.17 -134.15,-197.12 -175.22,-314.85 -41.07,-117.73 -61.6,-237.73 -61.6,-360.02 0,-122.29 20.99,-242.3 62.97,-360.03 41.98,-117.72 100.84,-222.67 176.59,-314.84 75.75,-92.17 174.77,-166.55 297.05,-223.13zm413.41 1571.49c113.16,0 214.46,-24.64 303.9,-73.92 89.44,-49.29 157.42,-113.62 203.97,-193.01 46.54,-79.4 80.3,-166.55 101.3,-261.47 20.99,-94.9 20.99,-190.28 0,-286.1 -21,-95.82 -54.76,-183.43 -101.3,-262.82 -46.55,-79.39 -114.53,-143.74 -203.97,-193.01 -89.44,-49.29 -190.74,-73.92 -303.9,-73.92 -100.39,0 -190.74,19.16 -271.04,57.49 -80.31,38.33 -145.57,88.98 -195.75,151.95 -50.19,62.97 -88.53,134.6 -114.99,214.91 -26.47,80.31 -39.7,162.91 -39.7,247.78 0,84.87 13.23,167.46 39.7,247.77 26.46,80.31 64.79,151.95 114.99,214.92 50.18,62.97 115.44,113.62 195.75,151.95 80.3,38.32 170.65,57.49 271.04,57.49zm2817.18 -1631.72l-791.22 974.65 796.7 941.8 -418.87 0 -591.36 -728.26 -180.69 202.6 0 525.66 -320.32 0 0 -1916.45 320.32 0 0 966.44 785.74 -966.44 399.72 0z"/>
   <path class="fil1" d="M6341.96 3330.14l-32.6 -85.17 -258.67 0 -31.55 85.17 -132.49 0 293.36 -757.08 294.42 757.08 -132.49 0zm-161.94 -446.88l-89.38 255.51 178.76 0 -89.39 -255.51zm744.46 79.91c25.93,5.61 48.2,14.72 66.77,27.34 18.58,12.61 32.07,25.93 40.48,39.95 8.41,14.02 14.72,27.87 18.93,41.54 4.21,13.66 6.31,24.7 6.31,33.12l1.05 13.67c0,37.85 -7.53,70.8 -22.6,98.84 -15.07,28.04 -32.42,49.07 -52.05,63.09 -19.63,14.02 -42.93,25.06 -69.92,33.13 -26.99,8.06 -48.37,12.79 -64.14,14.2 -15.77,1.4 -31.37,2.1 -46.79,2.1l-245 0 0 -736.05 245 0c3.51,0 8.23,0 14.19,0 5.97,0 17.36,1.23 34.18,3.68 16.83,2.46 32.95,5.97 48.37,10.52 15.43,4.56 32.6,11.91 51.52,22.07 18.94,10.17 35.06,22.43 48.38,36.8 13.32,14.37 24.71,33.13 34.18,56.26 9.46,23.13 14.19,49.07 14.19,77.81 0,44.87 -11.74,80.79 -35.23,107.78 -23.48,26.99 -52.75,45.04 -87.8,54.15zm-245 -247.11l0 185.07 123.02 0c3.51,0 7.88,-0.18 13.14,-0.53 5.26,-0.35 14.9,-2.1 28.92,-5.26 14.02,-3.16 26.46,-7.71 37.32,-13.67 10.87,-5.96 20.69,-15.25 29.45,-27.86 8.75,-12.62 13.14,-27.34 13.14,-44.17 0,-29.44 -10.16,-51.87 -30.5,-67.29 -20.33,-15.43 -40.65,-23.48 -60.99,-24.18l-30.49 -2.11 -123.02 0zm123.02 492.1c88.33,0 132.49,-30.85 132.49,-92.53 0,-29.44 -11.04,-51.69 -33.12,-66.76 -22.08,-15.08 -43.99,-22.96 -65.72,-23.66l-33.65 -1.05 -123.02 0 0 184.01 123.02 0zm758.12 -614.08l0 112.51 -154.57 0 0 623.54 -121.97 0 0 -623.54 -154.57 0 0 -112.51 431.12 0zm277.59 23.13c47.67,-21.73 100.6,-32.6 158.78,-32.6 58.18,0 110.76,10.86 157.73,32.6 46.97,21.73 84.99,50.29 114.08,85.7 29.1,35.4 51.52,75.71 67.3,120.92 15.77,45.21 23.65,91.31 23.65,138.27 0,46.97 -7.88,93.05 -23.65,138.27 -15.78,45.21 -38.03,85.52 -66.77,120.91 -28.74,35.41 -66.77,63.96 -114.09,85.7 -47.32,21.73 -100.07,32.6 -158.25,32.6 -58.89,0 -111.98,-10.86 -159.31,-32.6 -47.32,-21.73 -85.52,-50.29 -114.61,-85.7 -29.09,-35.4 -51.52,-75.71 -67.29,-120.91 -15.78,-45.22 -23.66,-91.31 -23.66,-138.27 0,-46.97 8.06,-93.06 24.18,-138.27 16.13,-45.22 38.73,-85.53 67.82,-120.92 29.09,-35.41 67.12,-63.96 114.09,-85.7zm158.78 603.56c43.46,0 82.36,-9.46 116.72,-28.39 34.35,-18.93 60.46,-43.64 78.33,-74.14 17.88,-30.49 30.85,-63.96 38.9,-100.42 8.06,-36.44 8.06,-73.08 0,-109.87 -8.05,-36.8 -21.03,-70.45 -38.9,-100.95 -17.88,-30.49 -43.99,-55.2 -78.33,-74.13 -34.36,-18.93 -73.26,-28.39 -116.72,-28.39 -38.55,0 -73.26,7.35 -104.1,22.07 -30.85,14.73 -55.91,34.18 -75.19,58.36 -19.28,24.19 -34,51.7 -44.16,82.54 -10.16,30.85 -15.25,62.57 -15.25,95.16 0,32.6 5.09,64.31 15.25,95.16 10.16,30.85 24.88,58.36 44.16,82.54 19.28,24.18 44.34,43.64 75.19,58.36 30.84,14.72 65.54,22.08 104.1,22.08zm1300.69 -627.75l0 737.1 -123.02 0 0 -452.14 -211.35 452.14 -115.66 0 -225.02 -461.6 0 461.6 -123.03 0 0 -737.1 125.13 0 279.7 573.07 268.13 -573.07 125.12 0zm341.74 24.18c47.67,-21.73 100.6,-32.6 158.78,-32.6 58.18,0 110.76,10.86 157.73,32.6 46.97,21.73 84.99,50.29 114.08,85.7 29.1,35.4 51.52,75.71 67.3,120.92 15.77,45.21 23.65,91.31 23.65,138.27 0,46.97 -7.88,93.05 -23.65,138.27 -15.78,45.21 -38.03,85.52 -66.77,120.91 -28.74,35.41 -66.77,63.96 -114.09,85.7 -47.32,21.73 -100.07,32.6 -158.25,32.6 -58.89,0 -111.98,-10.86 -159.31,-32.6 -47.32,-21.73 -85.52,-50.29 -114.61,-85.7 -29.09,-35.4 -51.52,-75.71 -67.29,-120.91 -15.78,-45.22 -23.66,-91.31 -23.66,-138.27 0,-46.97 8.06,-93.06 24.18,-138.27 16.13,-45.22 38.73,-85.53 67.82,-120.92 29.09,-35.41 67.12,-63.96 114.09,-85.7zm158.78 603.56c43.46,0 82.36,-9.46 116.72,-28.39 34.35,-18.93 60.46,-43.64 78.33,-74.14 17.88,-30.49 30.85,-63.96 38.9,-100.42 8.06,-36.44 8.06,-73.08 0,-109.87 -8.05,-36.8 -21.03,-70.45 -38.9,-100.95 -17.88,-30.49 -43.99,-55.2 -78.33,-74.13 -34.36,-18.93 -73.26,-28.39 -116.72,-28.39 -38.55,0 -73.26,7.35 -104.1,22.07 -30.85,14.73 -55.91,34.18 -75.19,58.36 -19.28,24.19 -34,51.7 -44.16,82.54 -10.16,30.85 -15.25,62.57 -15.25,95.16 0,32.6 5.09,64.31 15.25,95.16 10.16,30.85 24.88,58.36 44.16,82.54 19.28,24.18 44.34,43.64 75.19,58.36 30.84,14.72 65.54,22.08 104.1,22.08zm748.67 -330.18c85.52,0 149.48,18.93 191.89,56.78 42.41,37.86 63.62,91.14 63.62,159.84 0,37.85 -7.53,71.32 -22.6,100.41 -15.07,29.1 -32.6,51 -52.57,65.72 -19.98,14.72 -43.11,26.64 -69.4,35.75 -26.29,9.1 -48.02,14.89 -65.19,17.35 -17.18,2.45 -32.42,3.68 -45.74,3.68l-245 0 0 -736.05 456.35 0 0 118.83 -334.37 0 0 177.69 123.02 0zm0 317.56c21.03,0 40.48,-2.1 58.36,-6.31 17.88,-4.21 34.7,-14.37 50.47,-30.5 15.77,-16.12 23.65,-37.5 23.65,-64.13 0,-65.19 -44.16,-97.79 -132.49,-97.79l-123.02 0 0 198.73 123.02 0zm391.15 121.97l0 -736.05 124.08 0 0 534.16 366.97 -534.16 126.18 0 0 736.05 -125.13 0 0 -543.63 -365.92 543.63 -126.18 0zm1152.45 0l-161.94 -444.79 -160.88 444.79 -132.49 0 293.36 -757.08 294.42 757.08 -132.49 0zm217.66 0l0 -736.05 124.08 0 0 534.16 366.96 -534.16 126.18 0 0 736.05 -125.13 0 0 -543.63 -365.91 543.63 -126.18 0zm1486.81 -112.51c67.99,0 125.83,-23.83 173.5,-71.5l86.22 87.27c-71.5,71.51 -158.07,107.25 -259.72,107.25 -104.45,0 -192.07,-34.88 -262.87,-104.63 -70.8,-69.74 -106.21,-161.05 -106.21,-273.91 0,-110.76 34.53,-201.54 103.58,-272.34 69.05,-70.8 157.55,-106.21 265.5,-106.21 102.35,0 188.92,36.1 259.72,108.3l-86.22 86.22c-47.67,-47.67 -105.51,-71.5 -173.5,-71.5 -74.31,0 -133.55,23.66 -177.7,70.98 -44.16,47.32 -66.24,108.82 -66.24,184.54 0,77.11 23.3,138.97 69.92,185.59 46.62,46.62 104.63,69.92 174.03,69.92zm750.76 -623.54l552.04 0 0 736.05 -123.02 0 0 -614.08 -305.99 0 0 614.08 -123.02 0 0 -736.05zm965.28 0c3.51,0 8.23,0.18 14.2,0.53 5.96,0.35 17.35,1.93 34.17,4.73 16.83,2.81 33.13,6.67 48.9,11.57 15.78,4.91 33.13,12.79 52.05,23.65 18.93,10.87 35.05,23.48 48.37,37.85 13.32,14.37 24.71,33.48 34.18,57.31 9.46,23.83 14.2,50.47 14.2,79.91 0,29.44 -4.56,56.08 -13.67,79.91 -9.11,23.83 -20.86,42.94 -35.23,57.31 -14.37,14.37 -30.32,26.99 -47.85,37.85 -17.53,10.86 -35.06,18.75 -52.57,23.65 -17.53,4.92 -33.48,8.76 -47.85,11.57 -14.37,2.81 -26.11,4.56 -35.23,5.26l-13.67 0 -123.02 0 0 307.03 -123.02 0 0 -738.15 246.05 0zm0 308.09c3.51,0 8.06,-0.18 13.67,-0.53 5.61,-0.35 15.42,-2.28 29.44,-5.79 14.02,-3.5 26.46,-8.05 37.33,-13.66 10.86,-5.62 20.68,-14.73 29.44,-27.34 8.76,-12.62 13.14,-27.69 13.14,-45.22 0,-27.34 -10.16,-48.72 -30.49,-64.14 -20.34,-15.42 -41.01,-23.83 -62.04,-25.23l-30.5 -3.16 -123.02 0 0 185.07 123.02 0zm539.42 -284.96c47.67,-21.73 100.6,-32.6 158.78,-32.6 58.18,0 110.76,10.86 157.73,32.6 46.97,21.73 84.99,50.29 114.08,85.7 29.1,35.4 51.52,75.71 67.3,120.92 15.77,45.21 23.65,91.31 23.65,138.27 0,46.97 -7.88,93.05 -23.65,138.27 -15.78,45.21 -38.03,85.52 -66.77,120.91 -28.74,35.41 -66.77,63.96 -114.09,85.7 -47.32,21.73 -100.07,32.6 -158.25,32.6 -58.89,0 -111.98,-10.86 -159.31,-32.6 -47.32,-21.73 -85.52,-50.29 -114.61,-85.7 -29.09,-35.4 -51.52,-75.71 -67.29,-120.91 -15.78,-45.22 -23.66,-91.31 -23.66,-138.27 0,-46.97 8.06,-93.06 24.18,-138.27 16.13,-45.22 38.73,-85.53 67.82,-120.92 29.09,-35.41 67.12,-63.96 114.09,-85.7zm158.78 603.56c43.46,0 82.36,-9.46 116.72,-28.39 34.35,-18.93 60.46,-43.64 78.33,-74.14 17.88,-30.49 30.85,-63.96 38.9,-100.42 8.06,-36.44 8.06,-73.08 0,-109.87 -8.05,-36.8 -21.03,-70.45 -38.9,-100.95 -17.88,-30.49 -43.99,-55.2 -78.33,-74.13 -34.36,-18.93 -73.26,-28.39 -116.72,-28.39 -38.55,0 -73.26,7.35 -104.1,22.07 -30.85,14.73 -55.91,34.18 -75.19,58.36 -19.28,24.19 -34,51.7 -44.16,82.54 -10.16,30.85 -15.25,62.57 -15.25,95.16 0,32.6 5.09,64.31 15.25,95.16 10.16,30.85 24.88,58.36 44.16,82.54 19.28,24.18 44.34,43.64 75.19,58.36 30.84,14.72 65.54,22.08 104.1,22.08zm748.67 -330.18c85.51,0 149.47,18.93 191.88,56.78 42.41,37.86 63.62,91.14 63.62,159.84 0,37.85 -7.53,71.32 -22.6,100.41 -15.07,29.1 -32.6,51 -52.57,65.72 -19.98,14.72 -43.11,26.64 -69.4,35.75 -26.29,9.1 -48.02,14.89 -65.18,17.35 -17.18,2.45 -32.42,3.68 -45.74,3.68l-245 0 0 -736.05 456.34 0 0 118.83 -334.36 0 0 177.69 123.02 0zm0 317.56c21.03,0 40.48,-2.1 58.35,-6.31 17.88,-4.21 34.7,-14.37 50.47,-30.5 15.77,-16.12 23.65,-37.5 23.65,-64.13 0,-65.19 -44.16,-97.79 -132.48,-97.79l-123.02 0 0 198.73 123.02 0zm880.09 -491.05l-368.02 0 0 184.02 305.98 0 0 121.97 -305.98 0 0 184.01 368.02 0 0 123.02 -491.04 0 0 -736.05 491.04 0 0 123.02zm249.21 -4.2l0 617.22 -121.97 0 0 -736.05 456.35 0 0 118.83 -334.37 0zm629.85 -95.69c47.67,-21.73 100.6,-32.6 158.78,-32.6 58.18,0 110.76,10.86 157.73,32.6 46.97,21.73 84.99,50.29 114.08,85.7 29.1,35.4 51.52,75.71 67.3,120.92 15.77,45.21 23.65,91.31 23.65,138.27 0,46.97 -7.88,93.05 -23.65,138.27 -15.78,45.21 -38.03,85.52 -66.77,120.91 -28.74,35.41 -66.77,63.96 -114.09,85.7 -47.32,21.73 -100.07,32.6 -158.25,32.6 -58.89,0 -111.98,-10.86 -159.31,-32.6 -47.32,-21.73 -85.52,-50.29 -114.61,-85.7 -29.09,-35.4 -51.52,-75.71 -67.29,-120.91 -15.78,-45.22 -23.66,-91.31 -23.66,-138.27 0,-46.97 8.06,-93.06 24.18,-138.27 16.13,-45.22 38.73,-85.53 67.82,-120.92 29.09,-35.41 67.12,-63.96 114.09,-85.7zm158.78 603.56c43.46,0 82.36,-9.46 116.72,-28.39 34.35,-18.93 60.46,-43.64 78.33,-74.14 17.88,-30.49 30.85,-63.96 38.9,-100.42 8.06,-36.44 8.06,-73.08 0,-109.87 -8.05,-36.8 -21.03,-70.45 -38.9,-100.95 -17.88,-30.49 -43.99,-55.2 -78.33,-74.13 -34.36,-18.93 -73.26,-28.39 -116.72,-28.39 -38.55,0 -73.26,7.35 -104.1,22.07 -30.85,14.73 -55.91,34.18 -75.19,58.36 -19.28,24.19 -34,51.7 -44.16,82.54 -10.16,30.85 -15.25,62.57 -15.25,95.16 0,32.6 5.09,64.31 15.25,95.16 10.16,30.85 24.88,58.36 44.16,82.54 19.28,24.18 44.34,43.64 75.19,58.36 30.84,14.72 65.54,22.08 104.1,22.08zm1300.7 -627.75l0 737.1 -123.02 0 0 -452.14 -211.35 452.14 -115.66 0 -225.02 -461.6 0 461.6 -123.03 0 0 -737.1 125.13 0 279.7 573.07 268.13 -573.07 125.12 0z"/>
  </g>
 </g>
</svg>
