<?xml version="1.0" encoding="UTF-8"?>
<!DOCTYPE svg PUBLIC "-//W3C//DTD SVG 1.1//EN" "http://www.w3.org/Graphics/SVG/1.1/DTD/svg11.dtd">
<!-- Creator: CorelDRAW -->
<svg xmlns="http://www.w3.org/2000/svg" xml:space="preserve" width="185.912mm" height="40.3711mm" version="1.1" style="shape-rendering:geometricPrecision; text-rendering:geometricPrecision; image-rendering:optimizeQuality; fill-rule:evenodd; clip-rule:evenodd"
viewBox="0 0 18576.93 4034.02"
 xmlns:xlink="http://www.w3.org/1999/xlink"
 xmlns:xodm="http://www.corel.com/coreldraw/odm/2003">
 <defs>
  <style type="text/css">
   <![CDATA[
    .fil2 {fill:#3D3D3D}
    .fil0 {fill:#FF9000}
    .fil1 {fill:#3D3D3D;fill-rule:nonzero}
   ]]>
  </style>
 </defs>
 <g id="Слой_x0020_1">
  <metadata id="CorelCorpID_0Corel-Layer"/>
  <g id="_105553130824416">
   <polygon class="fil0" points="-0,0 18576.93,0 18576.93,4034.02 -0,4034.02 "/>
   <g>
    <path class="fil1" d="M1457.05 943.36l0 986.68 -279.1 0 0 -384.8 -380.58 0 0 384.8 -279.09 0 0 -986.68 279.09 0 0 370.71 380.58 0 0 -370.71 279.1 0zm696.31 1006.42c-104.3,0 -198.04,-22.08 -281.2,-66.25 -83.16,-44.17 -148.47,-105.25 -195.92,-183.24 -47.46,-78 -71.19,-165.86 -71.19,-263.59 0,-97.73 23.72,-185.59 71.19,-263.59 47.45,-77.99 112.76,-139.07 195.92,-183.24 83.17,-44.17 176.9,-66.25 281.2,-66.25 104.31,0 198.05,22.08 281.2,66.25 83.17,44.17 148.48,105.25 195.93,183.24 47.45,78 71.19,165.86 71.19,263.59 0,97.73 -23.73,185.59 -71.19,263.59 -47.45,77.99 -112.76,139.07 -195.93,183.24 -83.16,44.17 -176.89,66.25 -281.2,66.25zm0 -231.16c49.81,0 94.92,-11.75 135.32,-35.24 40.41,-23.49 72.36,-56.62 95.86,-99.37 23.49,-42.76 35.23,-91.86 35.23,-147.3 0,-55.45 -11.74,-104.54 -35.23,-147.3 -23.49,-42.76 -55.45,-75.88 -95.86,-99.37 -40.4,-23.49 -85.5,-35.24 -135.32,-35.24 -49.8,0 -94.91,11.75 -135.32,35.24 -40.4,23.49 -72.35,56.62 -95.85,99.37 -23.49,42.76 -35.24,91.85 -35.24,147.3 0,55.44 11.75,104.54 35.24,147.3 23.49,42.76 55.45,75.88 95.85,99.37 40.41,23.49 85.51,35.24 135.32,35.24zm1416.6 -304.47c58.26,18.8 102.66,47.92 133.2,87.39 30.55,39.47 45.81,88.33 45.81,146.59 0,87.39 -34.06,156.23 -102.19,206.5 -68.13,50.27 -164.68,75.41 -289.67,75.41l-506.02 0 0 -986.68 479.24 0c118.4,0 210.26,22.31 275.57,66.95 65.31,44.64 97.96,107.84 97.96,189.58 0,47.93 -11.51,90.21 -34.53,126.86 -23.02,36.65 -56.15,65.78 -99.37,87.39zm-444.01 -76.11l177.6 0c78.93,0 118.4,-32.43 118.4,-97.27 0,-64.84 -39.47,-97.26 -118.4,-97.26l-177.6 0 0 194.52zm219.89 391.85c80.81,0 121.22,-34.29 121.22,-102.9 0,-66.72 -40.41,-100.07 -121.22,-100.07l-219.89 0 0 202.97 219.89 0zm1038.83 219.89c-104.3,0 -198.04,-22.08 -281.2,-66.25 -83.16,-44.17 -148.47,-105.25 -195.92,-183.24 -47.46,-78 -71.19,-165.86 -71.19,-263.59 0,-97.73 23.72,-185.59 71.19,-263.59 47.45,-77.99 112.76,-139.07 195.92,-183.24 83.17,-44.17 176.9,-66.25 281.2,-66.25 104.31,0 198.05,22.08 281.2,66.25 83.17,44.17 148.48,105.25 195.93,183.24 47.45,78 71.19,165.86 71.19,263.59 0,97.73 -23.73,185.59 -71.19,263.59 -47.45,77.99 -112.76,139.07 -195.93,183.24 -83.16,44.17 -176.89,66.25 -281.2,66.25zm0 -231.16c49.81,0 94.92,-11.75 135.32,-35.24 40.41,-23.49 72.36,-56.62 95.86,-99.37 23.49,-42.76 35.23,-91.86 35.23,-147.3 0,-55.45 -11.74,-104.54 -35.23,-147.3 -23.49,-42.76 -55.45,-75.88 -95.86,-99.37 -40.4,-23.49 -85.5,-35.24 -135.32,-35.24 -49.8,0 -94.91,11.75 -135.32,35.24 -40.4,23.49 -72.35,56.62 -95.85,99.37 -23.49,42.76 -35.24,91.85 -35.24,147.3 0,55.44 11.75,104.54 35.24,147.3 23.49,42.76 55.45,75.88 95.85,99.37 40.41,23.49 85.51,35.24 135.32,35.24zm1178.39 231.16c-103.36,0 -196.16,-21.85 -278.39,-65.55 -82.22,-43.7 -146.83,-104.54 -193.81,-182.53 -46.98,-78 -70.48,-166.33 -70.48,-265 0,-98.66 23.49,-187 70.48,-265 46.98,-77.99 111.59,-138.84 193.81,-182.54 82.23,-43.7 175.03,-65.54 278.39,-65.54 90.21,0 171.5,15.98 243.85,47.92 72.35,31.96 132.5,78 180.42,138.13l-177.6 160.7c-63.9,-77.06 -141.42,-115.59 -232.57,-115.59 -53.57,0 -101.25,11.75 -143.07,35.24 -41.82,23.49 -74.23,56.62 -97.26,99.37 -23.02,42.76 -34.53,91.85 -34.53,147.3 0,55.44 11.51,104.54 34.53,147.3 23.02,42.76 55.44,75.88 97.26,99.37 41.82,23.49 89.5,35.24 143.07,35.24 91.15,0 168.67,-38.53 232.57,-115.59l177.6 160.7c-47.92,60.13 -108.07,106.18 -180.42,138.13 -72.35,31.95 -153.64,47.92 -243.85,47.92zm549.73 -1006.42l274.86 0 0 579.33 407.36 -579.33 262.18 0 0 986.68 -274.86 0 0 -577.92 -405.95 577.92 -263.59 0 0 -986.68zm1155.83 0l824.59 0 0 215.66 -549.73 0 0 159.28 255.12 0c119.35,0 210.97,25.37 274.87,76.11 63.9,50.74 95.85,123.58 95.85,218.48 0,99.6 -35.71,177.36 -107.13,233.28 -71.42,55.91 -171.49,83.87 -300.23,83.87l-493.34 0 0 -986.68zm475.02 786.53c46.98,0 82.7,-9.39 107.13,-28.19 24.43,-18.8 36.64,-45.58 36.64,-80.35 0,-69.54 -47.92,-104.3 -143.77,-104.3l-200.16 0 0 212.84 200.16 0zm569.46 -786.53l274.86 0 0 579.33 407.36 -579.33 262.18 0 0 986.68 -274.86 0 0 -577.92 -405.95 577.92 -263.59 0 0 -986.68zm1606.89 0c89.27,0 166.79,14.8 232.57,44.4 65.78,29.61 116.52,71.89 152.23,126.86 35.71,54.98 53.56,119.58 53.56,193.81 0,74.24 -17.85,138.6 -53.56,193.11 -35.71,54.5 -86.45,96.56 -152.23,126.15 -65.78,29.6 -143.3,44.4 -232.57,44.4l-171.97 0 0 257.95 -279.09 0 0 -986.68 451.05 0zm-16.92 508.85c57.33,0 100.55,-12.45 129.68,-37.36 29.13,-24.9 43.7,-60.37 43.7,-106.42 0,-46.04 -14.57,-81.75 -43.7,-107.13 -29.13,-25.37 -72.35,-38.05 -129.68,-38.05l-155.05 0 0 288.96 155.05 0zm1075.49 497.57c-103.36,0 -196.16,-21.85 -278.39,-65.55 -82.22,-43.7 -146.83,-104.54 -193.81,-182.53 -46.98,-78 -70.48,-166.33 -70.48,-265 0,-98.66 23.49,-187 70.48,-265 46.98,-77.99 111.59,-138.84 193.81,-182.54 82.23,-43.7 175.03,-65.54 278.39,-65.54 90.21,0 171.5,15.98 243.85,47.92 72.35,31.96 132.5,78 180.42,138.13l-177.6 160.7c-63.9,-77.06 -141.42,-115.59 -232.57,-115.59 -53.57,0 -101.25,11.75 -143.07,35.24 -41.82,23.49 -74.23,56.62 -97.26,99.37 -23.02,42.76 -34.53,91.85 -34.53,147.3 0,55.44 11.51,104.54 34.53,147.3 23.02,42.76 55.44,75.88 97.26,99.37 41.82,23.49 89.5,35.24 143.07,35.24 91.15,0 168.67,-38.53 232.57,-115.59l177.6 160.7c-47.92,60.13 -108.07,106.18 -180.42,138.13 -72.35,31.95 -153.64,47.92 -243.85,47.92zm948.63 -397.5l-126.86 0 0 377.76 -277.69 0 0 -986.68 277.69 0 0 383.4 133.91 0 235.39 -383.4 293.19 0 -308.68 476.42 311.51 510.26 -314.33 0 -224.12 -377.76zm-11083.3 543.24c95.86,0 182.07,21.85 258.65,65.55 76.59,43.7 136.5,104.07 179.72,181.12 43.23,77.06 64.84,163.98 64.84,260.77 0,96.79 -21.61,183.71 -64.84,260.77 -43.23,77.05 -103.13,137.42 -179.72,181.12 -76.58,43.7 -162.8,65.55 -258.65,65.55 -83.63,0 -159.51,-14.1 -227.64,-42.29 -68.13,-28.2 -124.74,-69.07 -169.85,-122.64l115.58 -112.76c72.35,78 163.03,116.99 272.04,116.99 84.58,0 156.22,-25.84 214.96,-77.52 58.73,-51.68 94.68,-119.81 107.83,-204.38l-441.18 0 0 -145.19 438.36 0c-15.98,-79.87 -52.86,-144.24 -110.65,-193.1 -57.8,-48.86 -127.57,-73.3 -209.32,-73.3 -109.01,0 -199.69,39 -272.04,117l-115.58 -112.76c45.11,-53.57 101.72,-94.45 169.85,-122.64 68.13,-28.19 144.01,-42.29 227.64,-42.29zm1925.68 584.96l-183.24 0 0 415.82 -180.42 0 0 -986.68 180.42 0 0 412.99 188.89 0 283.31 -412.99 194.52 0 -336.88 477.83 349.57 508.85 -207.21 0 -288.96 -415.82zm1927.09 429.92c-99.6,0 -189.58,-21.85 -269.92,-65.55 -80.35,-43.7 -143.31,-104.07 -188.89,-181.12 -45.58,-77.06 -68.36,-163.98 -68.36,-260.77 0,-96.79 23.02,-183.71 69.07,-260.77 46.04,-77.05 109.24,-137.42 189.58,-181.12 80.35,-43.7 170.32,-65.55 269.93,-65.55 80.81,0 154.57,14.1 221.29,42.29 66.72,28.19 123.11,69.07 169.15,122.64l-118.4 111.35c-71.43,-77.06 -159.28,-115.59 -263.59,-115.59 -67.66,0 -128.27,14.81 -181.83,44.41 -53.57,29.6 -95.38,70.72 -125.45,123.34 -30.07,52.62 -45.11,112.29 -45.11,179.01 0,66.72 15.04,126.39 45.11,179.01 30.08,52.62 71.88,93.74 125.45,123.34 53.56,29.6 114.17,44.4 181.83,44.4 104.31,0 192.16,-38.99 263.59,-116.99l118.4 112.76c-46.04,53.57 -102.66,94.44 -169.85,122.64 -67.19,28.19 -141.19,42.29 -222.01,42.29zm2290.75 -1000.78l0 986.68 -180.42 0 0 -831.63 -511.67 0 0 831.63 -180.42 0 0 -986.68 872.51 0zm1872.11 833.04l0 153.64 -740.01 0 0 -986.68 720.28 0 0 153.64 -537.04 0 0 256.53 476.43 0 0 150.82 -476.43 0 0 272.04 556.77 0zm1464.76 -833.04c85.51,0 159.99,14.1 223.42,42.29 63.43,28.19 112.05,68.6 145.89,121.22 33.82,52.63 50.74,115.11 50.74,187.48 0,71.42 -16.92,133.67 -50.74,186.76 -33.83,53.1 -82.46,93.74 -145.89,121.93 -63.43,28.2 -137.9,42.29 -223.42,42.29l-222.71 0 0 284.73 -183.24 0 0 -986.68 405.95 0zm-8.45 546.9c79.88,0 140.48,-16.91 181.83,-50.74 41.35,-33.82 62.02,-82.23 62.02,-145.18 0,-62.96 -20.67,-111.35 -62.02,-145.19 -41.35,-33.82 -101.95,-50.74 -181.83,-50.74l-214.26 0 0 391.85 214.26 0zm2144.16 -391.85l-327.01 0 0 831.63 -181.84 0 0 -831.63 -325.6 0 0 -155.05 834.45 0 0 155.05z"/>
    <polygon class="fil2" points="12987.47,705.92 13276.16,705.92 13276.16,3328.1 12987.47,3328.1 "/>
    <path class="fil1" d="M13792.37 1693.17l-20.14 82.38c-7.43,31.28 -11.48,47.7 -12.04,49.28 -0.45,1.69 -1.92,3.38 -4.28,5.29 -2.25,1.92 -4.73,2.82 -7.42,2.82l-71.47 0c-8.21,0 -12.26,-3.83 -12.26,-11.59 0,-0.34 0.22,-1.46 0.67,-3.27l110.74 -423.34c11.93,-45.91 43.21,-68.87 93.96,-68.87 50.64,0 81.82,22.95 93.63,68.87l111.51 426.6c0,7.76 -4.05,11.59 -12.26,11.59l-71.46 0c-6.86,0 -11.14,-3.72 -12.94,-11.25l-30.95 -128.51 -155.29 0zm137.17 -76.86l-34.66 -142.69c-10.35,-42.2 -16.09,-64.25 -17.45,-65.94 -1.35,-1.8 -3.71,-2.7 -7.31,-2.7 -5.18,0 -8.43,1.91 -9.56,5.63l-50.07 205.7 119.06 0zm563.77 76.18c0,48.95 -16.88,85.52 -50.52,109.61 -33.53,24.08 -85.18,36.12 -154.96,36.12 -29.37,0 -57.39,-1.01 -83.83,-3.15 -26.56,-2.14 -44.01,-5.63 -52.44,-10.58 -8.44,-4.95 -12.72,-14.96 -12.72,-30.16l0 -425.25c0,-13.39 3.15,-22.95 9.45,-28.69 6.19,-5.75 24.31,-9.57 54.24,-11.48 29.82,-2.03 56.38,-3.04 79.45,-3.04 138.63,0 207.95,45.68 207.95,137.17l0 13.5c0,23.07 -5.4,43.67 -16.09,61.78 -10.8,18.12 -26.22,31.51 -46.13,40.06 43.66,18.91 65.6,53.12 65.6,102.51l0 11.59zm-94.64 -214.6l0 -9.56c0,-23.74 -8.66,-40.51 -26.11,-50.3 -17.33,-9.79 -47.59,-14.63 -90.58,-14.63 -13.84,0 -30.39,0.45 -49.51,1.58l0 136.84 85.74 0c53.57,0 80.46,-21.26 80.46,-63.92zm2.59 213.25l0 -8.88c0,-22.62 -6.97,-40.18 -21.04,-52.78 -14.06,-12.49 -34.77,-18.8 -62,-18.8l-85.74 0 0 148.77 55.36 1.24c40.07,0 68.99,-5.07 86.76,-15.31 17.79,-10.23 26.67,-28.24 26.67,-54.24zm499.75 -293.7c0,8.1 -4.5,12.16 -13.5,12.16l-118.39 0 0 409.84c0,3.71 -1.24,6.86 -3.94,9.56 -2.59,2.59 -5.85,3.94 -9.56,3.94l-66.62 0c-3.72,0 -6.86,-1.35 -9.56,-3.94 -2.59,-2.7 -3.94,-5.86 -3.94,-9.56l0 -409.84 -118.27 0c-9.12,0 -13.62,-4.06 -13.62,-12.16l0 -53.45c0,-3.49 1.35,-6.52 4.05,-9 2.59,-2.59 5.75,-3.83 9.57,-3.83l330.28 0c3.71,0 6.97,1.24 9.56,3.83 2.59,2.48 3.94,5.52 3.94,9l0 53.45zm418.39 230.12c0,68.54 -16.77,120.86 -50.3,156.76 -33.53,35.89 -80.91,53.9 -142.23,53.9 -61.11,0 -108.37,-18.01 -141.9,-53.9 -33.53,-35.9 -50.3,-88.22 -50.3,-156.76l0 -91.03c0,-71.24 17.33,-124.12 52.1,-158.67 34.77,-34.66 81.47,-51.99 140.1,-51.99 61.32,0 108.7,18.01 142.23,54.13 33.53,36.01 50.3,88.22 50.3,156.53l0 91.03zm-94.64 0l0 -91.03c0,-43.89 -7.87,-76.41 -23.74,-97.46 -15.76,-20.93 -40.51,-31.4 -74.15,-31.4 -33.42,0 -58.07,10.46 -74.05,31.4 -15.87,21.04 -23.85,53.57 -23.85,97.46l0 91.03c0,44.12 7.98,76.75 23.85,97.69 15.99,21.04 40.63,31.51 74.05,31.51 33.64,0 58.4,-10.46 74.15,-31.51 15.87,-20.93 23.74,-53.57 23.74,-97.69zm615.88 195.13c0,6.86 -3.71,10.24 -11.25,10.24l-68.19 0c-2.93,0 -5.41,-1.35 -7.65,-4.17 -2.14,-2.7 -3.27,-5.85 -3.27,-9.33l0 -313.85c0,-4.62 -0.67,-6.97 -2.02,-6.97 -0.79,0 -4.85,7.31 -12.16,21.82l-54.69 108.71c-4.84,9.45 -12.6,14.18 -23.06,14.18l-67.98 0c-10.35,0 -17.55,-3.83 -21.71,-11.48l-49.85 -98.23c-11.81,-23.29 -18.23,-34.99 -19.13,-34.99 -1.24,0 -1.92,2.36 -1.92,6.97l0 313.85c0,3.49 -1.12,6.63 -3.26,9.33 -2.26,2.82 -4.73,4.17 -7.65,4.17l-68.2 0c-7.53,0 -11.25,-3.38 -11.25,-10.24l0 -464.52c0,-7.42 2.7,-13.84 7.87,-19.13 5.3,-5.3 11.71,-7.88 19.14,-7.88l55.14 0c11.36,0 19.69,5.41 24.98,16.21l69.55 140.77c22.73,45.91 34.65,70 36.01,72.13 1.35,2.25 2.59,3.27 3.94,3.27 1.57,0 3.49,-2.26 5.97,-6.86l84.06 -169.81c14.07,-28.36 22.17,-43.78 24.19,-46.25 2.14,-2.59 4.96,-4.73 8.55,-6.63 3.72,-1.92 7.54,-2.82 11.7,-2.82l55.15 0c7.42,0 13.84,2.71 19.02,8.1 5.29,5.41 7.98,11.7 7.98,18.91l0 464.52zm472.74 -195.13c0,68.54 -16.77,120.86 -50.3,156.76 -33.53,35.89 -80.91,53.9 -142.23,53.9 -61.11,0 -108.37,-18.01 -141.9,-53.9 -33.53,-35.9 -50.3,-88.22 -50.3,-156.76l0 -91.03c0,-71.24 17.33,-124.12 52.1,-158.67 34.77,-34.66 81.47,-51.99 140.1,-51.99 61.32,0 108.7,18.01 142.23,54.13 33.53,36.01 50.3,88.22 50.3,156.53l0 91.03zm-94.64 0l0 -91.03c0,-43.89 -7.87,-76.41 -23.74,-97.46 -15.76,-20.93 -40.51,-31.4 -74.15,-31.4 -33.42,0 -58.07,10.46 -74.05,31.4 -15.87,21.04 -23.85,53.57 -23.85,97.46l0 91.03c0,44.12 7.98,76.75 23.85,97.69 15.99,21.04 40.63,31.51 74.05,31.51 33.64,0 58.4,-10.46 74.15,-31.51 15.87,-20.93 23.74,-53.57 23.74,-97.69zm489.62 -218.64l-213.36 0 0 106.57c11.7,-0.9 31.74,-1.35 60.31,-1.35 63.13,0 111.29,13.16 144.49,39.38 33.08,26.22 49.74,65.16 49.74,116.58l0 12.16c0,34.31 -7.43,63.01 -22.06,86.19 -14.74,23.18 -36.68,40.63 -65.83,52.33 -29.15,11.59 -64.59,17.44 -106.34,17.44 -30.72,0 -61.66,-1.35 -92.61,-3.94 -30.95,-2.7 -48.95,-5.74 -53.91,-9.11 -4.95,-3.38 -7.42,-8.66 -7.42,-15.98l0 -465.2c0,-3.72 1.35,-6.86 3.94,-9.56 2.7,-2.59 5.86,-3.94 9.56,-3.94l293.48 0c3.94,0 7.2,1.24 9.67,3.83 2.59,2.47 3.83,5.51 3.83,8.99l0 53.46c0,8.1 -4.5,12.15 -13.5,12.15zm-213.36 185.68l0 163.5c18.68,1.8 38.82,2.59 60.31,2.59 35.44,0 61.1,-6.19 77.19,-18.8 15.99,-12.49 24.08,-32.41 24.08,-59.63l0 -12.16c0,-27.68 -8.21,-47.71 -24.75,-59.86 -16.43,-12.15 -41.98,-18.34 -76.52,-18.34 -21.49,0 -41.64,0.9 -60.31,2.7zm339.28 211.33l0 -461.94c0,-8.55 4.28,-12.83 12.83,-12.83l58.07 0c8.55,0 12.83,4.28 12.83,12.83l0 355.15c0,4.17 1.12,6.19 3.38,6.19 2.14,0 3.94,-1.69 5.18,-5.29l157.31 -347.15c3.5,-7.43 7.2,-12.94 11.26,-16.43 3.94,-3.5 10.01,-5.3 18.45,-5.3l73.15 0c7.19,0 13.61,2.71 18.91,8.1 5.4,5.41 8.09,11.7 8.09,18.91l0 461.27c0,3.71 -1.35,6.86 -4.05,9.56 -2.82,2.59 -5.97,3.94 -9.45,3.94l-57.39 0c-3.72,0 -6.75,-1.35 -9.23,-3.94 -2.36,-2.7 -3.6,-5.86 -3.6,-9.56l0 -339.62c0,-3.49 -1.24,-5.29 -3.61,-5.29 -2.25,0 -4.16,1.8 -5.97,5.29l-149.99 328.7c-4.85,11.03 -10.24,17.79 -16.32,20.48 -6.08,2.59 -14.3,3.94 -24.87,3.94l-67.97 0c-7.42,0 -13.84,-2.59 -19.14,-7.87 -5.18,-5.3 -7.87,-11.71 -7.87,-19.14zm756.55 15.42l-97.9 -405.79c-1.69,-6.97 -5.29,-10.57 -10.58,-10.57 -5.4,0 -9.11,3.6 -10.8,10.57l-97.89 405.79c-1.81,7.76 -6.09,11.59 -12.94,11.59l-71.47 0c-8.21,0 -12.26,-3.83 -12.26,-11.59 0,-0.34 0.22,-1.46 0.67,-3.27l110.74 -423.34c11.93,-45.91 43.21,-68.87 93.96,-68.87 50.64,0 81.82,22.95 93.63,68.87l111.51 426.6c0,7.76 -4.05,11.59 -12.26,11.59l-71.46 0c-6.64,0 -10.92,-3.83 -12.94,-11.59zm160.24 -15.42l0 -461.94c0,-8.55 4.28,-12.83 12.83,-12.83l58.07 0c8.55,0 12.83,4.28 12.83,12.83l0 355.15c0,4.17 1.12,6.19 3.38,6.19 2.14,0 3.94,-1.69 5.18,-5.29l157.31 -347.15c3.5,-7.43 7.2,-12.94 11.26,-16.43 3.94,-3.5 10.01,-5.3 18.45,-5.3l73.15 0c7.19,0 13.61,2.71 18.91,8.1 5.4,5.41 8.09,11.7 8.09,18.91l0 461.27c0,3.71 -1.35,6.86 -4.05,9.56 -2.82,2.59 -5.97,3.94 -9.45,3.94l-57.39 0c-3.72,0 -6.75,-1.35 -9.23,-3.94 -2.36,-2.7 -3.6,-5.86 -3.6,-9.56l0 -339.62c0,-3.49 -1.24,-5.29 -3.61,-5.29 -2.25,0 -4.16,1.8 -5.97,5.29l-149.99 328.7c-4.85,11.03 -10.24,17.79 -16.32,20.48 -6.08,2.59 -14.3,3.94 -24.87,3.94l-67.97 0c-7.42,0 -13.84,-2.59 -19.14,-7.87 -5.18,-5.3 -7.87,-11.71 -7.87,-19.14zm-3749.4 876.11c0,7.08 -3.49,11.81 -10.69,14.4 -7.08,2.48 -21.94,5.07 -44.34,7.76 -22.39,2.59 -44.56,3.94 -66.62,3.94 -57.28,0 -103.52,-17.44 -138.4,-52.44 -35,-34.88 -52.44,-86.3 -52.44,-153.94l0 -99.24c0,-52.78 9.67,-94.42 29.03,-125.13 19.36,-30.62 43.33,-51.88 71.9,-63.81 28.48,-11.81 58.52,-17.78 89.91,-17.78 21.61,0 43.78,1.35 66.51,3.94 22.73,2.7 37.58,5.29 44.68,7.99 6.97,2.59 10.46,7.42 10.46,14.51l0 45.13c0,9.45 -4.5,14.18 -13.5,14.18l-1.24 0c-41.98,-3.49 -77.2,-5.29 -105.55,-5.29 -65.27,0 -97.9,42.09 -97.9,126.26l0 99.24c0,84.18 32.63,126.26 97.9,126.26 15.86,0 33.41,-0.68 52.77,-2.03l52.78 -3.6 1.24 0c9,0 13.5,4.73 13.5,14.18l0 45.47zm908.36 -364.6l0 371.91c0,3.71 -1.35,6.86 -4.05,9.56 -2.82,2.59 -5.97,3.94 -9.45,3.94l-66.96 0c-3.71,0 -6.86,-1.35 -9.56,-3.94 -2.59,-2.7 -3.94,-5.86 -3.94,-9.56l0 -371.91c0,-13.17 -1.92,-22.05 -5.86,-26.56 -4.05,-4.5 -11.47,-6.75 -22.5,-6.75l-135.15 0c-11.37,0 -19.03,2.37 -22.73,7.09 -3.72,4.73 -5.63,13.5 -5.63,26.22l0 371.91c0,3.71 -1.35,6.86 -3.94,9.56 -2.59,2.59 -5.86,3.94 -9.57,3.94l-66.62 0c-3.71,0 -6.86,-1.35 -9.56,-3.94 -2.59,-2.7 -3.94,-5.86 -3.94,-9.56l0 -371.91c0,-40.85 9.56,-70.45 28.58,-88.79 19.03,-18.34 50.08,-27.57 93.41,-27.57l135.15 0c43.1,0 74.27,9.11 93.51,27.24 19.25,18.12 28.81,47.82 28.81,89.12zm475.13 40.28c0,34.44 -7.43,63.47 -22.39,86.99 -14.97,23.51 -37.03,41.3 -66.17,53.23 -29.04,12.04 -64.26,18 -105.67,18 -12.27,0 -32.41,-0.9 -60.31,-2.7l0 176.11c0,3.71 -1.24,6.86 -3.61,9.56 -2.47,2.59 -5.51,3.94 -9.22,3.94l-67.3 0c-3.71,0 -6.86,-1.35 -9.56,-3.94 -2.59,-2.7 -3.94,-5.86 -3.94,-9.56l0 -464.53c0,-7.31 2.59,-12.6 7.76,-15.98 5.18,-3.38 23.18,-6.42 54.02,-9.11 30.95,-2.59 61.66,-3.94 92.16,-3.94 63.13,0 111.29,13.17 144.49,39.39 33.08,26.33 49.74,65.15 49.74,116.58l0 5.96zm-92.96 0l0 -5.96c0,-27.24 -8.09,-47.15 -24.08,-59.64 -16.09,-12.6 -41.75,-18.8 -77.19,-18.8 -21.49,0 -41.64,0.9 -60.31,2.93l0 160.58c25.32,1.24 45.46,1.92 60.31,1.92 34.77,0 60.31,-6.42 76.63,-19.25 16.43,-12.83 24.64,-33.42 24.64,-61.78zm564.47 139.76c0,68.54 -16.77,120.86 -50.3,156.76 -33.53,35.89 -80.91,53.9 -142.23,53.9 -61.11,0 -108.37,-18.01 -141.9,-53.9 -33.53,-35.9 -50.3,-88.22 -50.3,-156.76l0 -91.03c0,-71.24 17.33,-124.12 52.1,-158.67 34.77,-34.66 81.47,-51.99 140.1,-51.99 61.32,0 108.7,18.01 142.23,54.13 33.53,36.01 50.3,88.22 50.3,156.53l0 91.03zm-94.64 0l0 -91.03c0,-43.89 -7.87,-76.41 -23.74,-97.46 -15.76,-20.93 -40.51,-31.4 -74.15,-31.4 -33.42,0 -58.07,10.46 -74.05,31.4 -15.87,21.04 -23.85,53.57 -23.85,97.46l0 91.03c0,44.12 7.98,76.75 23.85,97.69 15.99,21.04 40.63,31.51 74.05,31.51 33.64,0 58.4,-10.46 74.15,-31.51 15.87,-20.93 23.74,-53.57 23.74,-97.69zm515.4 -218.64l-213.36 0 0 106.57c11.7,-0.9 31.74,-1.35 60.31,-1.35 63.13,0 111.29,13.16 144.49,39.38 33.08,26.22 49.74,65.16 49.74,116.58l0 12.16c0,34.31 -7.43,63.01 -22.06,86.19 -14.74,23.18 -36.68,40.63 -65.83,52.33 -29.15,11.59 -64.59,17.44 -106.34,17.44 -30.72,0 -61.66,-1.35 -92.61,-3.94 -30.95,-2.7 -48.95,-5.74 -53.91,-9.11 -4.95,-3.38 -7.42,-8.66 -7.42,-15.98l0 -465.2c0,-3.72 1.35,-6.86 3.94,-9.56 2.7,-2.59 5.86,-3.94 9.56,-3.94l293.48 0c3.94,0 7.2,1.24 9.67,3.83 2.59,2.47 3.83,5.51 3.83,8.99l0 53.46c0,8.1 -4.5,12.15 -13.5,12.15zm-213.36 185.68l0 163.5c18.68,1.8 38.82,2.59 60.31,2.59 35.44,0 61.1,-6.19 77.19,-18.8 15.99,-12.49 24.08,-32.41 24.08,-59.63l0 -12.16c0,-27.68 -8.21,-47.71 -24.75,-59.86 -16.43,-12.15 -41.98,-18.34 -76.52,-18.34 -21.49,0 -41.64,0.9 -60.31,2.7zm662.81 220.22c0,5.52 -1.46,9.11 -4.16,11.03 -2.71,1.91 -16.89,4.39 -42.32,7.53 -25.54,3.27 -57.28,4.84 -95.31,4.84 -57.17,0 -97.46,-11.36 -120.86,-34.09 -23.41,-22.73 -35.11,-57.51 -35.11,-104.09l0 -235.64c0,-46.81 11.7,-81.59 35.11,-104.43 23.4,-22.73 63.69,-34.09 120.86,-34.09 31.62,0 62,1.58 91.15,4.62 29.14,3.04 44.79,5.85 47.14,8.21 2.26,2.48 3.49,6.08 3.49,10.91l0 43.22c0,3.71 -1.35,6.86 -3.94,9.56 -2.7,2.59 -5.85,3.94 -9.56,3.94l-137.85 0c-20.47,0 -34.43,4.28 -42.08,12.83 -7.54,8.55 -11.37,23.63 -11.37,45.24l0 72.8 182.98 0c3.83,0 6.97,1.35 9.56,3.94 2.7,2.71 3.94,5.86 3.94,9.57l0 48.5c0,3.71 -1.24,6.85 -3.94,9.56 -2.59,2.59 -5.74,3.94 -9.56,3.94l-182.98 0 0 87.32c0,21.6 3.83,36.68 11.37,45.24 7.64,8.55 21.6,12.83 42.08,12.83l137.85 0c3.72,0 6.86,1.35 9.56,3.94 2.59,2.7 3.94,5.86 3.94,9.56l0 43.22zm210 -350.42l0 355.04c0,3.71 -1.24,6.86 -3.94,9.56 -2.59,2.59 -5.86,3.94 -9.56,3.94l-65.95 0c-3.71,0 -6.86,-1.35 -9.56,-3.94 -2.59,-2.7 -3.94,-5.86 -3.94,-9.56l0 -355.04c0,-46.81 11.7,-81.59 35.11,-104.43 23.4,-22.73 63.69,-34.09 120.86,-34.09 31.62,0 62,1.58 91.15,4.62 29.14,3.04 44.79,5.85 47.14,8.21 2.26,2.48 3.49,6.08 3.49,10.91l0 43.22c0,3.71 -1.35,6.86 -3.94,9.56 -2.7,2.59 -5.85,3.94 -9.56,3.94l-137.85 0c-20.47,0 -34.43,4.28 -42.08,12.83 -7.54,8.55 -11.37,23.63 -11.37,45.24zm646.27 163.16c0,68.54 -16.77,120.86 -50.3,156.76 -33.53,35.89 -80.91,53.9 -142.23,53.9 -61.11,0 -108.37,-18.01 -141.9,-53.9 -33.53,-35.9 -50.3,-88.22 -50.3,-156.76l0 -91.03c0,-71.24 17.33,-124.12 52.1,-158.67 34.77,-34.66 81.47,-51.99 140.1,-51.99 61.32,0 108.7,18.01 142.23,54.13 33.53,36.01 50.3,88.22 50.3,156.53l0 91.03zm-94.64 0l0 -91.03c0,-43.89 -7.87,-76.41 -23.74,-97.46 -15.76,-20.93 -40.51,-31.4 -74.15,-31.4 -33.42,0 -58.07,10.46 -74.05,31.4 -15.87,21.04 -23.85,53.57 -23.85,97.46l0 91.03c0,44.12 7.98,76.75 23.85,97.69 15.99,21.04 40.63,31.51 74.05,31.51 33.64,0 58.4,-10.46 74.15,-31.51 15.87,-20.93 23.74,-53.57 23.74,-97.69zm641.66 195.13c0,6.86 -3.71,10.24 -11.25,10.24l-68.19 0c-2.93,0 -5.41,-1.35 -7.65,-4.17 -2.14,-2.7 -3.27,-5.85 -3.27,-9.33l0 -313.85c0,-4.62 -0.67,-6.97 -2.02,-6.97 -0.79,0 -4.85,7.31 -12.16,21.82l-54.69 108.71c-4.84,9.45 -12.6,14.18 -23.06,14.18l-67.98 0c-10.35,0 -17.55,-3.83 -21.71,-11.48l-49.85 -98.23c-11.81,-23.29 -18.23,-34.99 -19.13,-34.99 -1.24,0 -1.92,2.36 -1.92,6.97l0 313.85c0,3.49 -1.12,6.63 -3.26,9.33 -2.26,2.82 -4.73,4.17 -7.65,4.17l-68.2 0c-7.53,0 -11.25,-3.38 -11.25,-10.24l0 -464.52c0,-7.42 2.7,-13.84 7.87,-19.13 5.3,-5.3 11.71,-7.88 19.14,-7.88l55.14 0c11.36,0 19.69,5.41 24.98,16.21l69.55 140.77c22.73,45.91 34.65,70 36.01,72.13 1.35,2.25 2.59,3.27 3.94,3.27 1.57,0 3.49,-2.26 5.97,-6.86l84.06 -169.81c14.07,-28.36 22.17,-43.78 24.19,-46.25 2.14,-2.59 4.96,-4.73 8.55,-6.63 3.72,-1.92 7.54,-2.82 11.7,-2.82l55.15 0c7.42,0 13.84,2.71 19.02,8.1 5.29,5.41 7.98,11.7 7.98,18.91l0 464.52z"/>
   </g>
  </g>
 </g>
</svg>
