<?xml version="1.0" encoding="utf-8"?>
<!-- Generator: Adobe Illustrator 24.1.2, SVG Export Plug-In . SVG Version: 6.00 Build 0)  -->
<svg version="1.1" id="Слой_1" xmlns="http://www.w3.org/2000/svg" xmlns:xlink="http://www.w3.org/1999/xlink" x="0px" y="0px"
	 viewBox="0 0 764 126" style="enable-background:new 0 0 764 126;" xml:space="preserve">
<style type="text/css">
	.st0{fill:#FFFFFF;}
	.st1{enable-background:new    ;}
</style>
<g id="Слой_3">
</g>
<g id="Слой_4">
</g>
<g>
	<path class="st0" d="M249.96,53.01c-7.99-4.05-25.03-10.86-49.29-10.86c-35.09,0-61.04,2.45-121.59,35.55
		c-3.91-9.04-12.91-15.38-23.37-15.38c-11.5,0-21.24,7.67-24.38,18.17C18.73,75.79,7.83,70.28,6.76,68
		c-0.3-1.05-0.47-2.59-0.56-4.38c16.71-5.04,19.79-14.72,20.34-18.46c2.84-0.03,5.64-0.09,8.17-0.15c4.06-0.11,7.97-1.31,11.29-3.49
		l2.15-1.43c1.89-1.26,4.15-2.77,6.76-4.38c-5.09,24.9,25.84,30.85,47.19,20.77c7.55-3.57,19.07-8.97,30.95-12.16
		c17.2-4.62,34.38-6.94,36.82-7.26c0.1,0,0.2-0.02,0.29-0.04c0,0,0.02,0,0.02,0l0,0c0.88-0.13,1.71-0.63,2.2-1.46
		c0.86-1.46,0.38-3.35-1.08-4.21c-64.11-38-109.48-7.75-126.56,3.63l-2.11,1.4c-2.37,1.55-5.16,2.41-8.08,2.49
		c-6.29,0.17-17.68,0.36-23.29-0.16c-3.58-0.34-6.37,0.43-8.28,2.26c-1.99,1.92-2.23,4.31-2.25,5.2C0.51,48.52-0.87,63.65,0.86,69.7
		c1.69,5.96,18.25,12.91,29.43,16.97c-0.02,0.36-0.03,0.73-0.03,1.1c0,14.03,11.42,25.45,25.45,25.45
		c14.04,0,25.45-11.42,25.45-25.45c0-1.37-0.11-2.72-0.32-4.03c60.13-33.03,85.5-35.46,119.83-35.46c7.52,0,14.29,0.69,20.26,1.75
		c-0.1,15.32,14.7,11.45,21.11,14.56c4.49,2.17,8.16,8.65,10.1,12.72v8.94c0,1.33-0.26,2.3-0.74,2.75
		c-0.49,0.46-1.28,0.42-1.24,0.42l-15.18-0.02c0.03-0.54,0.06-1.08,0.06-1.63c0-14.03-11.42-25.45-25.45-25.45
		c-14.03,0-25.45,11.42-25.45,25.45c0,0.55,0.02,1.09,0.06,1.63H92.23c-1.7,0-3.07,1.37-3.07,3.07c0,1.7,1.37,3.07,3.07,3.07h93.13
		c3.29,10.24,12.91,17.68,24.23,17.68c11.33,0,20.94-7.44,24.23-17.68h15.86c0.12,0,0.28,0.01,0.47,0.01c1.14,0,3.39-0.24,5.28-1.94
		c1.89-1.66,2.84-4.14,2.84-7.36V66.48C258.27,60.78,255.09,55.61,249.96,53.01z M55.71,107.08c-10.65,0-19.31-8.66-19.31-19.31
		c0-10.65,8.66-19.31,19.31-19.31c10.65,0,19.31,8.66,19.31,19.31C75.02,98.42,66.36,107.08,55.71,107.08z M209.59,107.08
		c-10.65,0-19.31-8.66-19.31-19.31c0-10.65,8.66-19.31,19.31-19.31c10.65,0,19.31,8.66,19.31,19.31
		C228.9,98.42,220.24,107.08,209.59,107.08z"/>
	<circle class="st0" cx="209.59" cy="87.77" r="8.5"/>
	<circle class="st0" cx="55.71" cy="87.77" r="8.5"/>
</g>
<g class="st1">
	<path class="st0" d="M310.94,44.84H299.3l-2.22,5.37h-5.95l11.18-25.07h5.73l11.21,25.07h-6.09L310.94,44.84z M309.11,40.44
		l-3.98-9.6l-3.98,9.6H309.11z"/>
	<path class="st0" d="M340.27,44.74c0,1.74-0.66,3.09-1.97,4.05c-1.31,0.96-3.27,1.43-5.87,1.43h-10.28V30.95H332
		c2.41,0,4.3,0.44,5.66,1.31c1.36,0.87,2.04,2.1,2.04,3.67c0,0.96-0.25,1.8-0.73,2.53c-0.49,0.73-1.19,1.3-2.1,1.7
		C339.14,40.92,340.27,42.44,340.27,44.74z M327.27,38.86h4.23c1.96,0,2.94-0.69,2.94-2.08c0-1.36-0.98-2.04-2.94-2.04h-4.23V38.86z
		 M335.04,44.31c0-0.74-0.24-1.28-0.72-1.63c-0.48-0.35-1.23-0.52-2.26-0.52h-4.8v4.26h4.69C334.02,46.42,335.04,45.72,335.04,44.31
		z"/>
	<path class="st0" d="M360.62,35.53h-6.52v14.69h-5.55V35.53h-6.52v-4.58h18.59V35.53z"/>
	<path class="st0" d="M366.37,49.23c-1.61-0.85-2.87-2.02-3.78-3.53c-0.91-1.5-1.36-3.21-1.36-5.12s0.45-3.62,1.36-5.12
		c0.91-1.5,2.17-2.68,3.78-3.53s3.43-1.27,5.46-1.27s3.84,0.42,5.44,1.27c1.6,0.85,2.85,2.02,3.76,3.53
		c0.91,1.5,1.36,3.21,1.36,5.12s-0.45,3.62-1.36,5.12c-0.91,1.5-2.16,2.68-3.76,3.53c-1.6,0.85-3.42,1.27-5.44,1.27
		S367.98,50.08,366.37,49.23z M375.36,44.47c0.92-0.97,1.38-2.26,1.38-3.89s-0.46-2.92-1.38-3.89c-0.92-0.97-2.1-1.45-3.53-1.45
		c-1.43,0-2.61,0.48-3.55,1.45s-1.4,2.26-1.4,3.89s0.47,2.92,1.4,3.89s2.11,1.45,3.55,1.45C373.26,45.92,374.44,45.43,375.36,44.47z
		"/>
	<path class="st0" d="M405.03,50.22V38.68l-5.77,9.67h-2.36l-5.62-9.71v11.57h-5.05V30.95h5.84l6.16,11.14l6.55-11.14h5.23
		l0.07,19.27H405.03z"/>
	<path class="st0" d="M418.98,49.23c-1.61-0.85-2.87-2.02-3.78-3.53c-0.91-1.5-1.36-3.21-1.36-5.12s0.45-3.62,1.36-5.12
		c0.91-1.5,2.17-2.68,3.78-3.53c1.61-0.85,3.43-1.27,5.46-1.27c2.03,0,3.84,0.42,5.45,1.27c1.6,0.85,2.85,2.02,3.76,3.53
		c0.91,1.5,1.36,3.21,1.36,5.12s-0.45,3.62-1.36,5.12c-0.91,1.5-2.16,2.68-3.76,3.53c-1.6,0.85-3.42,1.27-5.45,1.27
		C422.42,50.5,420.6,50.08,418.98,49.23z M427.97,44.47c0.92-0.97,1.38-2.26,1.38-3.89s-0.46-2.92-1.38-3.89s-2.09-1.45-3.53-1.45
		c-1.43,0-2.61,0.48-3.55,1.45c-0.93,0.97-1.4,2.26-1.4,3.89s0.47,2.92,1.4,3.89c0.93,0.97,2.11,1.45,3.55,1.45
		C425.88,45.92,427.05,45.43,427.97,44.47z"/>
	<path class="st0" d="M454.82,33.4c1.38,0.75,2.45,1.81,3.21,3.17c0.75,1.36,1.13,2.94,1.13,4.73c0,1.84-0.45,3.47-1.34,4.89
		s-2.14,2.52-3.74,3.29s-3.42,1.16-5.44,1.16c-3.37,0-6.01-1.08-7.93-3.24c-1.92-2.16-2.88-5.33-2.88-9.51
		c0-3.87,0.84-6.96,2.53-9.26c1.68-2.3,4.27-3.81,7.75-4.53l9.17-1.83l0.75,4.8l-8.09,1.61c-2.2,0.43-3.83,1.15-4.89,2.15
		s-1.69,2.42-1.88,4.26c0.84-0.91,1.84-1.61,3.01-2.1c1.17-0.49,2.45-0.73,3.83-0.73C451.82,32.27,453.43,32.65,454.82,33.4z
		 M452.12,44.92c0.87-0.93,1.31-2.11,1.31-3.55c0-1.46-0.44-2.62-1.31-3.47c-0.87-0.86-2.02-1.29-3.46-1.29
		c-1.46,0-2.63,0.43-3.51,1.29c-0.88,0.86-1.33,2.02-1.33,3.47c0,1.46,0.45,2.64,1.36,3.56c0.91,0.92,2.07,1.38,3.47,1.38
		C450.09,46.31,451.24,45.85,452.12,44.92z"/>
	<path class="st0" d="M462.95,30.95h5.55v11.46l9.38-11.46h5.12v19.27h-5.55V38.75l-9.35,11.46h-5.16V30.95z"/>
	<path class="st0" d="M506.86,30.95v19.27h-5.59V35.53h-6.09l-0.18,3.4c-0.1,2.53-0.33,4.63-0.72,6.3s-1,2.99-1.86,3.94
		c-0.86,0.96-2.05,1.43-3.58,1.43c-0.81,0-1.78-0.14-2.9-0.43l0.29-4.58c0.38,0.05,0.66,0.07,0.82,0.07c0.84,0,1.46-0.3,1.88-0.91
		c0.42-0.61,0.7-1.38,0.84-2.33c0.14-0.94,0.25-2.19,0.32-3.74l0.29-7.74H506.86z"/>
	<path class="st0" d="M512.24,30.95h5.55v11.46l9.38-11.46h5.12v19.27h-5.55V38.75l-9.35,11.46h-5.16V30.95z"/>
	<path class="st0" d="M551.44,49.23c-1.64-0.85-2.91-2.02-3.83-3.53c-0.92-1.5-1.38-3.21-1.38-5.12s0.46-3.62,1.38-5.12
		c0.92-1.5,2.2-2.68,3.83-3.53s3.48-1.27,5.53-1.27c2.03,0,3.8,0.42,5.32,1.27c1.52,0.85,2.62,2.06,3.31,3.64l-4.33,2.33
		c-1-1.77-2.45-2.65-4.33-2.65c-1.46,0-2.66,0.48-3.62,1.43s-1.43,2.26-1.43,3.9c0,1.65,0.48,2.95,1.43,3.9s2.16,1.43,3.62,1.43
		c1.91,0,3.35-0.88,4.33-2.65l4.33,2.36c-0.69,1.53-1.8,2.72-3.31,3.58c-1.52,0.86-3.29,1.29-5.32,1.29
		C554.92,50.5,553.07,50.08,551.44,49.23z"/>
	<path class="st0" d="M598.31,30.95v19.27h-5.59V35.53h-8.02v14.69h-5.55V30.95H598.31z"/>
	<path class="st0" d="M619.92,31.9c1.47,0.82,2.62,1.98,3.46,3.47c0.83,1.49,1.25,3.23,1.25,5.21s-0.42,3.72-1.25,5.21
		c-0.84,1.49-1.99,2.65-3.46,3.47s-3.1,1.24-4.89,1.24c-2.46,0-4.39-0.78-5.8-2.33v8.99h-5.59V30.95h5.34v2.22
		c1.38-1.67,3.4-2.51,6.05-2.51C616.82,30.66,618.45,31.07,619.92,31.9z M617.59,44.47c0.92-0.97,1.38-2.26,1.38-3.89
		s-0.46-2.92-1.38-3.89c-0.92-0.97-2.1-1.45-3.53-1.45s-2.61,0.48-3.53,1.45s-1.38,2.26-1.38,3.89s0.46,2.92,1.38,3.89
		s2.1,1.45,3.53,1.45S616.67,45.43,617.59,44.47z"/>
	<path class="st0" d="M632.1,49.23c-1.61-0.85-2.87-2.02-3.78-3.53c-0.91-1.5-1.36-3.21-1.36-5.12s0.45-3.62,1.36-5.12
		c0.91-1.5,2.17-2.68,3.78-3.53c1.61-0.85,3.43-1.27,5.46-1.27c2.03,0,3.84,0.42,5.45,1.27c1.6,0.85,2.85,2.02,3.76,3.53
		c0.91,1.5,1.36,3.21,1.36,5.12s-0.45,3.62-1.36,5.12c-0.91,1.5-2.16,2.68-3.76,3.53c-1.6,0.85-3.42,1.27-5.45,1.27
		C635.53,50.5,633.71,50.08,632.1,49.23z M641.09,44.47c0.92-0.97,1.38-2.26,1.38-3.89s-0.46-2.92-1.38-3.89s-2.09-1.45-3.53-1.45
		c-1.43,0-2.61,0.48-3.55,1.45c-0.93,0.97-1.4,2.26-1.4,3.89s0.47,2.92,1.4,3.89c0.93,0.97,2.11,1.45,3.55,1.45
		C639,45.92,640.17,45.43,641.09,44.47z"/>
	<path class="st0" d="M667.94,33.4c1.38,0.75,2.45,1.81,3.21,3.17c0.75,1.36,1.13,2.94,1.13,4.73c0,1.84-0.45,3.47-1.34,4.89
		s-2.14,2.52-3.74,3.29c-1.6,0.78-3.42,1.16-5.44,1.16c-3.37,0-6.01-1.08-7.93-3.24c-1.92-2.16-2.88-5.33-2.88-9.51
		c0-3.87,0.84-6.96,2.53-9.26c1.68-2.3,4.27-3.81,7.75-4.53l9.17-1.83l0.75,4.8l-8.09,1.61c-2.2,0.43-3.83,1.15-4.89,2.15
		c-1.06,1-1.69,2.42-1.88,4.26c0.84-0.91,1.84-1.61,3.01-2.1c1.17-0.49,2.45-0.73,3.83-0.73C664.94,32.27,666.55,32.65,667.94,33.4z
		 M665.23,44.92c0.87-0.93,1.31-2.11,1.31-3.55c0-1.46-0.44-2.62-1.31-3.47c-0.87-0.86-2.02-1.29-3.46-1.29
		c-1.46,0-2.63,0.43-3.51,1.29c-0.88,0.86-1.33,2.02-1.33,3.47c0,1.46,0.45,2.64,1.36,3.56c0.91,0.92,2.06,1.38,3.47,1.38
		C663.21,46.31,664.36,45.85,665.23,44.92z"/>
	<path class="st0" d="M694.69,42.16h-14.58c0.26,1.19,0.88,2.14,1.86,2.83c0.98,0.69,2.2,1.04,3.65,1.04c1,0,1.89-0.15,2.67-0.45
		c0.78-0.3,1.5-0.77,2.17-1.42l2.97,3.22c-1.81,2.08-4.46,3.12-7.95,3.12c-2.17,0-4.1-0.42-5.77-1.27
		c-1.67-0.85-2.96-2.02-3.87-3.53c-0.91-1.5-1.36-3.21-1.36-5.12c0-1.89,0.45-3.59,1.34-5.1s2.13-2.7,3.69-3.55
		c1.56-0.85,3.31-1.27,5.25-1.27c1.89,0,3.59,0.41,5.12,1.22s2.73,1.98,3.6,3.49c0.87,1.52,1.31,3.28,1.31,5.28
		C694.8,40.72,694.76,41.23,694.69,42.16z M681.62,35.96c-0.86,0.72-1.39,1.7-1.58,2.94h9.49c-0.19-1.22-0.72-2.19-1.58-2.92
		c-0.86-0.73-1.91-1.09-3.15-1.09C683.54,34.89,682.48,35.24,681.62,35.96z"/>
	<path class="st0" d="M714.53,35.53h-9.89v14.69h-5.55V30.95h15.44V35.53z"/>
	<path class="st0" d="M720.28,49.23c-1.61-0.85-2.87-2.02-3.78-3.53c-0.91-1.5-1.36-3.21-1.36-5.12s0.45-3.62,1.36-5.12
		c0.91-1.5,2.17-2.68,3.78-3.53c1.61-0.85,3.43-1.27,5.46-1.27c2.03,0,3.84,0.42,5.44,1.27s2.85,2.02,3.76,3.53
		c0.91,1.5,1.36,3.21,1.36,5.12s-0.45,3.62-1.36,5.12c-0.91,1.5-2.16,2.68-3.76,3.53c-1.6,0.85-3.42,1.27-5.44,1.27
		C723.72,50.5,721.9,50.08,720.28,49.23z M729.27,44.47c0.92-0.97,1.38-2.26,1.38-3.89s-0.46-2.92-1.38-3.89
		c-0.92-0.97-2.1-1.45-3.53-1.45s-2.62,0.48-3.55,1.45c-0.93,0.97-1.4,2.26-1.4,3.89s0.47,2.92,1.4,3.89
		c0.93,0.97,2.11,1.45,3.55,1.45S728.35,45.43,729.27,44.47z"/>
	<path class="st0" d="M758.95,50.22V38.68l-5.77,9.67h-2.36l-5.62-9.71v11.57h-5.05V30.95h5.84l6.16,11.14l6.55-11.14h5.23
		L764,50.22H758.95z"/>
</g>
<g class="st1">
	<path class="st0" d="M311.66,91.81c0,1.74-0.66,3.09-1.97,4.05c-1.31,0.96-3.27,1.43-5.87,1.43h-10.28V78.02h9.85
		c2.41,0,4.3,0.44,5.66,1.31c1.36,0.87,2.04,2.1,2.04,3.67c0,0.96-0.25,1.8-0.73,2.53c-0.49,0.73-1.19,1.3-2.1,1.7
		C310.52,87.99,311.66,89.52,311.66,91.81z M298.65,85.94h4.23c1.96,0,2.94-0.69,2.94-2.08c0-1.36-0.98-2.04-2.94-2.04h-4.23V85.94z
		 M306.43,91.38c0-0.74-0.24-1.28-0.72-1.63c-0.48-0.35-1.23-0.52-2.26-0.52h-4.8v4.26h4.69C305.4,93.49,306.43,92.79,306.43,91.38z
		"/>
	<path class="st0" d="M349.01,72.22l-10.67,19.84c-1.03,1.91-2.26,3.36-3.71,4.33c-1.45,0.98-3.02,1.47-4.71,1.47
		c-1.31,0-2.67-0.29-4.08-0.86l1.4-4.41c1,0.31,1.84,0.47,2.51,0.47c0.72,0,1.36-0.17,1.93-0.52c0.57-0.35,1.1-0.89,1.58-1.63
		l0.21-0.29l-9.89-18.41h6.2l6.66,13.47l6.88-13.47H349.01z"/>
	<path class="st0" d="M368.82,78.02v19.27h-5.59V82.6h-6.09l-0.18,3.4c-0.1,2.53-0.33,4.63-0.72,6.3s-1,2.99-1.86,3.94
		c-0.86,0.96-2.05,1.43-3.58,1.43c-0.81,0-1.78-0.14-2.9-0.43l0.29-4.58c0.38,0.05,0.66,0.07,0.82,0.07c0.84,0,1.46-0.3,1.88-0.91
		c0.42-0.61,0.7-1.38,0.84-2.33c0.14-0.94,0.25-2.19,0.32-3.74l0.29-7.74H368.82z"/>
	<path class="st0" d="M390.38,85.88c1.34,1.11,2.01,2.68,2.01,4.71c0,2.13-0.75,3.78-2.24,4.96c-1.49,1.18-3.59,1.77-6.29,1.77
		l-9.67-0.04V78.02h5.55v6.16h4.87C387.12,84.2,389.04,84.77,390.38,85.88z M385.83,92.67c0.57-0.48,0.86-1.19,0.86-2.15
		c0-0.93-0.28-1.61-0.84-2.04s-1.39-0.66-2.49-0.68l-3.62-0.04v5.59h3.62C384.44,93.37,385.26,93.15,385.83,92.67z"/>
	<path class="st0" d="M411.66,78.02v19.27h-4.98v-5.52h-4.12l-3.65,5.52h-5.95l4.41-6.3c-1.34-0.53-2.36-1.28-3.06-2.27
		s-1.06-2.19-1.06-3.6c0-2.27,0.82-4.02,2.45-5.25c1.63-1.23,3.89-1.84,6.75-1.84H411.66z M399.86,83.21
		c-0.61,0.43-0.91,1.12-0.91,2.08s0.29,1.65,0.88,2.1c0.58,0.44,1.47,0.66,2.67,0.66h4.19v-5.48h-4.12
		C401.37,82.57,400.47,82.78,399.86,83.21z"/>
	<path class="st0" d="M417.03,78.02h5.55v7.52h8.38v-7.52h5.59v19.27h-5.59v-7.2h-8.38v7.2h-5.55V78.02z"/>
	<path class="st0" d="M445.45,96.3c-1.61-0.85-2.87-2.02-3.78-3.53c-0.91-1.5-1.36-3.21-1.36-5.12s0.45-3.62,1.36-5.12
		c0.91-1.5,2.17-2.68,3.78-3.53c1.61-0.85,3.43-1.27,5.46-1.27c2.03,0,3.84,0.42,5.44,1.27s2.85,2.02,3.76,3.53
		c0.91,1.5,1.36,3.21,1.36,5.12s-0.45,3.62-1.36,5.12c-0.91,1.5-2.16,2.68-3.76,3.53c-1.6,0.85-3.42,1.27-5.44,1.27
		C448.88,97.58,447.06,97.15,445.45,96.3z M454.44,91.54c0.92-0.97,1.38-2.26,1.38-3.89s-0.46-2.92-1.38-3.89
		c-0.92-0.97-2.1-1.45-3.53-1.45s-2.62,0.48-3.55,1.45c-0.93,0.97-1.4,2.26-1.4,3.89s0.47,2.92,1.4,3.89
		c0.93,0.97,2.11,1.45,3.55,1.45S453.52,92.51,454.44,91.54z"/>
	<path class="st0" d="M483.44,91.81c0,1.74-0.66,3.09-1.97,4.05s-3.27,1.43-5.87,1.43h-10.28V78.02h9.85c2.41,0,4.3,0.44,5.66,1.31
		c1.36,0.87,2.04,2.1,2.04,3.67c0,0.96-0.25,1.8-0.73,2.53c-0.49,0.73-1.19,1.3-2.1,1.7C482.3,87.99,483.44,89.52,483.44,91.81z
		 M470.44,85.94h4.23c1.96,0,2.94-0.69,2.94-2.08c0-1.36-0.98-2.04-2.94-2.04h-4.23V85.94z M478.21,91.38
		c0-0.74-0.24-1.28-0.72-1.63c-0.48-0.35-1.23-0.52-2.26-0.52h-4.8v4.26h4.69C477.18,93.49,478.21,92.79,478.21,91.38z"/>
	<path class="st0" d="M491.23,96.3c-1.64-0.85-2.91-2.02-3.83-3.53c-0.92-1.5-1.38-3.21-1.38-5.12s0.46-3.62,1.38-5.12
		c0.92-1.5,2.2-2.68,3.83-3.53s3.48-1.27,5.53-1.27c2.03,0,3.8,0.42,5.32,1.27s2.62,2.06,3.31,3.64l-4.33,2.33
		c-1-1.77-2.45-2.65-4.33-2.65c-1.46,0-2.66,0.48-3.62,1.43c-0.96,0.96-1.43,2.26-1.43,3.9c0,1.65,0.48,2.95,1.43,3.9
		c0.95,0.96,2.16,1.43,3.62,1.43c1.91,0,3.35-0.88,4.33-2.65l4.33,2.36c-0.69,1.53-1.8,2.72-3.31,3.58s-3.29,1.29-5.32,1.29
		C494.71,97.58,492.86,97.15,491.23,96.3z"/>
	<path class="st0" d="M517.29,89.98h-2.9v7.31h-5.59V78.02h5.59v7.49h3.01l5.23-7.49h5.95l-6.73,9.24l7.2,10.03h-6.59L517.29,89.98z
		"/>
	<path class="st0" d="M549.81,89.23h-14.58c0.26,1.19,0.88,2.14,1.86,2.83c0.98,0.69,2.2,1.04,3.65,1.04c1,0,1.89-0.15,2.67-0.45
		c0.78-0.3,1.5-0.77,2.17-1.42l2.97,3.22c-1.82,2.08-4.47,3.12-7.95,3.12c-2.17,0-4.09-0.42-5.77-1.27
		c-1.67-0.85-2.96-2.02-3.87-3.53c-0.91-1.5-1.36-3.21-1.36-5.12c0-1.89,0.45-3.59,1.34-5.1s2.13-2.7,3.69-3.55
		c1.56-0.85,3.31-1.27,5.25-1.27c1.89,0,3.59,0.41,5.12,1.22c1.53,0.81,2.73,1.98,3.6,3.49c0.87,1.52,1.31,3.28,1.31,5.28
		C549.92,87.8,549.88,88.3,549.81,89.23z M536.74,83.03c-0.86,0.72-1.38,1.7-1.58,2.94h9.49c-0.19-1.22-0.72-2.19-1.58-2.92
		c-0.86-0.73-1.91-1.09-3.15-1.09C538.66,81.96,537.59,82.32,536.74,83.03z"/>
</g>
</svg>
