<?xml version="1.0" encoding="utf-8"?>
<!-- Generator: Adobe Illustrator 24.0.0, SVG Export Plug-In . SVG Version: 6.00 Build 0)  -->
<svg version="1.1" id="Слой_1" xmlns="http://www.w3.org/2000/svg" xmlns:xlink="http://www.w3.org/1999/xlink" x="0px" y="0px"
	 viewBox="0 0 140 25" style="enable-background:new 0 0 140 25;" xml:space="preserve">
<style type="text/css">
	.st0{fill:#FF4040;}
	.st1{fill:#171717;}
</style>
<path class="st0" d="M80.6,19.3l-0.3,1.6h-4.2l0.3-1.6H80.6z M73,21.7h2.1c-0.1,0.6,0,1,0.3,1.3c0.3,0.3,0.7,0.4,1.3,0.4
	c0.5,0,0.9-0.1,1.3-0.4c0.3-0.2,0.6-0.6,0.8-1c0.2-0.4,0.4-1,0.5-1.6l0.1-0.8c0.1-0.6,0.1-1.2,0-1.6c-0.1-0.4-0.2-0.8-0.5-1
	c-0.3-0.2-0.6-0.3-1.1-0.3c-0.5,0-0.8,0.1-1.1,0.2c-0.3,0.1-0.5,0.3-0.7,0.6c-0.2,0.3-0.3,0.6-0.4,0.9h-2.1c0.2-0.6,0.5-1.2,0.8-1.7
	c0.4-0.5,0.9-0.9,1.5-1.2c0.6-0.3,1.4-0.5,2.2-0.5c0.8,0,1.5,0.2,2.1,0.6c0.6,0.4,0.9,0.9,1.2,1.6c0.2,0.7,0.3,1.5,0.1,2.5l-0.1,0.8
	c-0.2,0.9-0.5,1.8-0.9,2.4c-0.4,0.7-1,1.2-1.7,1.6c-0.7,0.4-1.4,0.6-2.3,0.6c-0.8,0-1.5-0.1-2-0.4c-0.5-0.3-0.9-0.7-1.2-1.2
	C73,22.9,73,22.3,73,21.7z"/>
<path class="st0" d="M88.1,24.9l-2.5-4.1h-0.7l-0.7,4.1h-2.1l1.6-9.7h2.1L85.2,19h0.4l3.9-3.9h2.6l-4.6,4.5l3.1,5.2H88.1z"/>
<path class="st0" d="M100.9,18.5h-2.1c0-0.3,0-0.5-0.1-0.7c-0.1-0.2-0.2-0.4-0.3-0.5c-0.2-0.1-0.3-0.3-0.6-0.3
	c-0.2-0.1-0.5-0.1-0.7-0.1c-0.5,0-1,0.1-1.4,0.4c-0.4,0.3-0.8,0.6-1.1,1.1c-0.3,0.5-0.5,1.1-0.6,1.8c-0.1,0.7-0.1,1.2,0,1.7
	c0.1,0.5,0.3,0.8,0.7,1c0.3,0.2,0.7,0.3,1.2,0.3c0.3,0,0.6,0,0.8-0.1c0.3-0.1,0.5-0.2,0.7-0.3c0.2-0.1,0.4-0.3,0.6-0.5
	c0.2-0.2,0.3-0.4,0.4-0.7h2.1c-0.1,0.4-0.3,0.9-0.6,1.3c-0.3,0.4-0.6,0.8-1,1.1c-0.4,0.3-0.9,0.6-1.4,0.8S96.3,25,95.6,25
	c-0.9,0-1.7-0.2-2.3-0.6c-0.6-0.4-1.1-1-1.4-1.8c-0.3-0.8-0.3-1.7-0.2-2.8c0.2-1,0.5-1.9,1-2.7c0.5-0.7,1.1-1.3,1.9-1.7
	c0.7-0.4,1.5-0.6,2.4-0.6c0.6,0,1.1,0.1,1.6,0.2c0.5,0.2,0.9,0.4,1.2,0.7c0.3,0.3,0.6,0.7,0.8,1.1C100.8,17.5,100.9,18,100.9,18.5z"
	/>
<path class="st0" d="M111.3,15.1l-1.6,9.7h-2.1l1.4-8.1h-4l-1.4,8.1h-2.1l1.6-9.7H111.3z"/>
<path class="st0" d="M111.6,24.9l1.6-9.7h6.6l-0.3,1.7h-4.5l-0.4,2.3h4.2l-0.3,1.7h-4.2l-0.4,2.3h4.6l-0.3,1.7H111.6z"/>
<path class="st0" d="M119.9,24.9l1.6-9.7h3.9c0.7,0,1.4,0.1,1.8,0.4c0.5,0.3,0.8,0.7,1,1.2c0.2,0.5,0.2,1.1,0.1,1.7
	c-0.1,0.6-0.3,1.2-0.7,1.7c-0.4,0.5-0.8,0.9-1.4,1.2c-0.6,0.3-1.2,0.4-2,0.4h-2.5l0.3-1.6h2.1c0.4,0,0.7-0.1,1-0.2
	c0.3-0.1,0.5-0.3,0.7-0.6c0.2-0.2,0.3-0.5,0.3-0.9c0.1-0.3,0-0.6-0.1-0.9c-0.1-0.2-0.3-0.4-0.5-0.6c-0.2-0.1-0.6-0.2-1-0.2h-1.4
	l-1.4,8.1H119.9z"/>
<path class="st0" d="M129.6,16.8l0.3-1.7h8.1l-0.3,1.7h-3l-1.3,8h-2.1l1.3-8H129.6z"/>
<path class="st1" d="M81.2,4.2h-1.5c-0.1-0.3-0.2-0.6-0.3-0.8c-0.2-0.2-0.3-0.4-0.6-0.6c-0.2-0.2-0.5-0.3-0.7-0.4
	c-0.3-0.1-0.6-0.1-0.9-0.1c-0.5,0-1,0.1-1.5,0.4c-0.4,0.3-0.8,0.7-1,1.2c-0.2,0.5-0.4,1.2-0.4,2c0,0.8,0.1,1.4,0.4,2
	c0.3,0.5,0.6,0.9,1,1.2c0.4,0.3,0.9,0.4,1.5,0.4c0.3,0,0.6,0,0.9-0.1c0.3-0.1,0.5-0.2,0.7-0.4c0.2-0.2,0.4-0.4,0.6-0.6
	c0.2-0.2,0.3-0.5,0.3-0.8l1.5,0c-0.1,0.5-0.2,0.9-0.5,1.3c-0.2,0.4-0.5,0.7-0.9,1c-0.3,0.3-0.7,0.5-1.2,0.7
	c-0.4,0.2-0.9,0.2-1.5,0.2c-0.8,0-1.6-0.2-2.2-0.6c-0.6-0.4-1.2-1-1.5-1.7C73.2,7.8,73,6.9,73,5.9c0-1,0.2-1.9,0.6-2.6
	c0.4-0.7,0.9-1.3,1.5-1.7C75.7,1.2,76.5,1,77.3,1c0.5,0,1,0.1,1.4,0.2c0.4,0.1,0.8,0.4,1.2,0.6c0.4,0.3,0.6,0.6,0.9,1
	C81,3.3,81.2,3.7,81.2,4.2z"/>
<path class="st1" d="M82.2,10.7V9.4l0.3,0c0.4,0,0.7-0.1,0.9-0.4c0.2-0.2,0.4-0.7,0.5-1.2c0.1-0.6,0.2-1.3,0.2-2.2l0.2-4.5h6v9.6
	h-1.4V2.4h-3.3L85.5,6c0,1-0.1,1.9-0.3,2.6c-0.2,0.7-0.4,1.2-0.8,1.6c-0.4,0.4-0.9,0.5-1.7,0.5H82.2z"/>
<path class="st1" d="M100.7,5.9c0,1-0.2,1.9-0.6,2.6c-0.4,0.7-0.9,1.3-1.5,1.7c-0.6,0.4-1.4,0.6-2.2,0.6c-0.8,0-1.6-0.2-2.2-0.6
	c-0.6-0.4-1.2-1-1.5-1.7c-0.4-0.7-0.6-1.6-0.6-2.6c0-1,0.2-1.9,0.6-2.6C93,2.5,93.5,2,94.2,1.6C94.8,1.2,95.6,1,96.4,1
	c0.8,0,1.6,0.2,2.2,0.6c0.6,0.4,1.2,1,1.5,1.7C100.5,4,100.7,4.9,100.7,5.9z M99.3,5.9c0-0.8-0.1-1.4-0.4-2c-0.2-0.5-0.6-0.9-1-1.2
	c-0.4-0.3-0.9-0.4-1.5-0.4c-0.5,0-1,0.1-1.5,0.4c-0.4,0.3-0.8,0.7-1,1.2c-0.2,0.5-0.4,1.2-0.4,2s0.1,1.4,0.4,2
	c0.3,0.5,0.6,0.9,1,1.2c0.4,0.3,0.9,0.4,1.5,0.4c0.5,0,1-0.1,1.5-0.4c0.4-0.3,0.8-0.7,1-1.2C99.1,7.3,99.3,6.7,99.3,5.9z"/>
<path class="st1" d="M102.5,10.7V1.1h6v1.2h-4.5V5h2.1c0.7,0,1.3,0.1,1.8,0.3c0.5,0.2,0.9,0.6,1.1,1c0.3,0.4,0.4,0.9,0.4,1.5
	s-0.1,1.1-0.4,1.5c-0.3,0.4-0.6,0.8-1.1,1c-0.5,0.2-1.1,0.4-1.8,0.4H102.5z M103.9,9.5h2.1c0.4,0,0.8-0.1,1-0.2
	c0.3-0.2,0.5-0.4,0.6-0.6c0.1-0.3,0.2-0.5,0.2-0.8c0-0.4-0.2-0.8-0.5-1.1c-0.3-0.3-0.8-0.5-1.4-0.5h-2.1V9.5z"/>
<path class="st1" d="M119.4,5.9c0,1-0.2,1.9-0.6,2.6c-0.4,0.7-0.9,1.3-1.5,1.7c-0.6,0.4-1.4,0.6-2.2,0.6c-0.8,0-1.6-0.2-2.2-0.6
	c-0.6-0.4-1.2-1-1.5-1.7c-0.4-0.7-0.6-1.6-0.6-2.6c0-1,0.2-1.9,0.6-2.6c0.4-0.7,0.9-1.3,1.5-1.7c0.7-0.4,1.4-0.6,2.2-0.6
	c0.8,0,1.6,0.2,2.2,0.6c0.6,0.4,1.2,1,1.5,1.7C119.2,4,119.4,4.9,119.4,5.9z M117.9,5.9c0-0.8-0.1-1.4-0.4-2c-0.2-0.5-0.6-0.9-1-1.2
	c-0.4-0.3-0.9-0.4-1.5-0.4c-0.6,0-1,0.1-1.5,0.4c-0.4,0.3-0.8,0.7-1,1.2c-0.2,0.5-0.4,1.2-0.4,2s0.1,1.4,0.4,2
	c0.3,0.5,0.6,0.9,1,1.2c0.4,0.3,0.9,0.4,1.5,0.4c0.5,0,1-0.1,1.5-0.4c0.4-0.3,0.8-0.7,1-1.2C117.8,7.3,117.9,6.7,117.9,5.9z"/>
<path class="st1" d="M120.4,13V9.5h0.6c0.2-0.2,0.4-0.4,0.6-0.8c0.2-0.3,0.3-0.8,0.5-1.3c0.1-0.6,0.2-1.3,0.3-2.2l0.2-4h5.9v8.3h1.1
	V13h-1.4v-2.3h-6.4V13H120.4z M122.8,9.5h4.4V2.4H124l-0.1,2.8c0,0.7-0.1,1.3-0.2,1.8c-0.1,0.5-0.2,1-0.3,1.4
	C123.1,8.8,123,9.2,122.8,9.5z"/>
<path class="st1" d="M132,10.7h-1.5l3.4-9.6h1.7l3.4,9.6h-1.5l-2.7-7.8h-0.1L132,10.7z M132.3,6.9h5v1.2h-5V6.9z"/>
<g>
	<path class="st0" d="M4,21c-0.4,0-0.7-0.2-0.9-0.6l-2.4-5.5c-0.5-1.1-0.5-2.4,0.1-3.5c0.6-1.1,1.6-1.8,2.9-2.1l7.9-1.3l4-3.5
		c3.3-2.9,7.5-4.5,12-4.5h5.3c3.9,0,7.8,1.3,10.9,3.7l3.1,2.4c1.7,1.3,3.7,2.1,5.8,2.2l3.3,0.3c4.2,0.3,7.9,2.8,9.8,6.6l0.8,1.5
		c0.5,0.9,0.4,2-0.1,2.9S64.8,21,63.8,21H60c-0.6,0-1-0.4-1-1s0.4-1,1-1h3.8c0.5,0,0.8-0.3,0.9-0.5c0.1-0.1,0.3-0.5,0-1L63.9,16
		c-1.6-3.1-4.7-5.2-8.2-5.5l-3.3-0.3c-2.5-0.2-4.9-1.1-6.9-2.6l-3.1-2.4C39.7,3.2,36.2,2,32.8,2h-5.3c-3.9,0-7.7,1.4-10.6,4
		l-4.4,3.9L4,11.3c-0.6,0.1-1.1,0.5-1.4,1c-0.3,0.5-0.3,1.2-0.1,1.8l2.4,5.5c0.2,0.5,0,1.1-0.5,1.3C4.3,21,4.1,21,4,21z M44,21H20
		c-0.6,0-1-0.4-1-1s0.4-1,1-1h24c0.6,0,1,0.4,1,1S44.6,21,44,21z"/>
</g>
<g>
	<path class="st0" d="M12,25c-2.8,0-5-2.2-5-5s2.2-5,5-5s5,2.2,5,5S14.8,25,12,25z M12,17c-1.7,0-3,1.3-3,3s1.3,3,3,3s3-1.3,3-3
		S13.7,17,12,17z"/>
</g>
<g>
	<path class="st0" d="M52,25c-2.8,0-5-2.2-5-5s2.2-5,5-5s5,2.2,5,5S54.8,25,52,25z M52,17c-1.7,0-3,1.3-3,3s1.3,3,3,3s3-1.3,3-3
		S53.7,17,52,17z"/>
</g>
</svg>
