<?xml version="1.0" encoding="UTF-8"?>
<!DOCTYPE svg PUBLIC "-//W3C//DTD SVG 1.1//EN" "http://www.w3.org/Graphics/SVG/1.1/DTD/svg11.dtd">
<!-- Creator: CorelDRAW -->
<svg xmlns="http://www.w3.org/2000/svg" xml:space="preserve" width="185.912mm" height="40.3711mm" version="1.1" style="shape-rendering:geometricPrecision; text-rendering:geometricPrecision; image-rendering:optimizeQuality; fill-rule:evenodd; clip-rule:evenodd"
viewBox="0 0 18576.93 4034.02"
 xmlns:xlink="http://www.w3.org/1999/xlink"
 xmlns:xodm="http://www.corel.com/coreldraw/odm/2003">
 <defs>
  <font id="FontID2" horiz-adv-x="645" font-variant="normal" style="fill-rule:nonzero" font-style="normal" font-weight="400">
	<font-face 
		font-family="Neo Sans Cyr Medium">
		<font-face-src>
			<font-face-name name="Neo Sans Cyr Medium"/>
		</font-face-src>
	</font-face>
   <missing-glyph><path d="M0 0z"/></missing-glyph>
   <glyph unicode="А" horiz-adv-x="645" d="M208.007 207l-3.00133e+001 -1.22007e+002c-1.0996e+001,-4.59967e+001 -1.69898e+001,-7.0993e+001 -1.79962e+001,-7.2991e+001 0,-1.99793e+000 -3.00429e+000,-5.00222e+000 -5.99378e+000,-8.00651e+000 -3.00429e+000,-2.98949e+000 -7.00015e+000,-3.99586e+000 -1.0996e+001,-3.99586e+000l-1.06009e+002 0c-1.20024e+001,0 -1.79962e+001,5.99378 -1.79962e+001,17.0046 0,0.991564 0,1.99793 0.991564,5.00222l164.008 626.994c17.9962,68.0036 63.9929,101.998 138.997,101.998 75.0037,0 121,-3.39944e+001 138.997,-1.01998e+002l164.999 -6.31996e+002c0,-1.10108e+001 -5.99378e+000,-1.70046e+001 -1.79962e+001,-1.70046e+001l-1.05994e+002 0c-1.00044e+001,0 -1.70046e+001,5.99378 -1.90025e+001,17.0046l-4.59967e+001 189.996 -2.29999e+002 0zm202.989 114l-5.0999e+001 210.996c-1.49919e+001,63.0013 -2.39899e+001,94.9978 -2.60027e+001,98.0021 -1.99793e+000,1.99793 -5.99378e+000,3.99586 -1.0996e+001,3.99586 -7.99171e+000,0 -1.20024e+001,-2.98949e+000 -1.40003e+001,-8.99808e+000l-7.39973e+001 -3.03996e+002 175.995 0z"/>
   <glyph unicode="Б" horiz-adv-x="641" d="M529.999 628.001l-3.15998e+002 0 0 -1.57999e+002c17.0046,1.99793 47.0031,1.99793 89.004,1.99793 93.9914,0 164.999,-1.90025e+001 214,-5.79991e+001 49.001,-3.89966e+001 73.9973,-9.69957e+001 73.9973,-1.73006e+002l0 -1.79962e+001c0,-5.0999e+001 -1.0996e+001,-9.29999e+001 -3.30028e+001,-1.28001e+002 -2.1992e+001,-3.39944e+001 -5.40033e+001,-5.9997e+001 -9.69957e+001,-7.70016e+001 -4.30073e+001,-1.69898e+001 -9.60041e+001,-2.60027e+001 -1.57999e+002,-2.60027e+001 -4.50052e+001,0 -9.10019e+001,2.01273 -1.36999e+002,6.00858 -4.60115e+001,3.99586 -7.19994e+001,7.99171 -8.00059e+001,12.9939 -7.00015e+000,6.00858 -1.0996e+001,13.0087 -1.0996e+001,24.0047l0 689.004c0,5.99378 1.99793,9.98964 5.99378,14.0003 3.99586,3.99586 8.99808,5.99378 14.0003,5.99378l435.001 0c6.00858,0 10.0044,-1.99793e+000 14.0003,-5.00222e+000 3.99586,-3.99586e+000 6.00858,-8.99808e+000 6.00858,-1.40003e+001l0 -7.89996e+001c0,-1.20024e+001 -7.00015e+000,-1.79962e+001 -2.00089e+001,-1.79962e+001zm-3.15998e+002 -2.75004e+002l0 -2.42001e+002c28.0006,-2.98949e+000 56.9927,-3.99586e+000 89.004,-3.99586e+000 52.9969,0 91.0019,8.99808 114,28.0006 23.9899,17.9962 35.9923,47.9947 35.9923,87.9976l0 17.9962c0,41.0093 -1.20024e+001,71.0078 -3.59923e+001,89.004 -2.50111e+001,17.9962 -6.30013e+001,26.9942 -1.14e+002,26.9942 -3.20112e+001,0 -6.10034e+001,-9.91564e-001 -8.9004e+001,-3.99586e+000z"/>
   <glyph unicode="В" horiz-adv-x="649" d="M600 208.007c0,-7.30058e+001 -2.49963e+001,-1.27009e+002 -7.50037e+001,-1.6201e+002 -4.9001e+001,-3.59923e+001 -1.26003e+002,-5.40033e+001 -2.28992e+002,-5.40033e+001 -4.39988e+001,0 -8.50081e+001,2.01273 -1.24005e+002,5.00222 -4.0003e+001,3.00429 -6.49993e+001,8.00651 -7.79932e+001,15.0067 -1.30087e+001,7.99171 -1.90025e+001,22.9984 -1.90025e+001,44.9904l0 630.013c0,19.9941 5.00222,33.9944 14.0003,42.0009 8.99808,8.99808 35.9923,14.9919 79.9911,17.9962 45.0052,3.00429 84.0018,3.99586 118.011,3.99586 205.994,0 307.992,-6.80036e+001 307.992,-2.03004e+002l0 -1.99941e+001c0,-3.39944e+001 -7.99171e+000,-6.49993e+001 -2.40047e+001,-9.19935e+001 -1.59982e+001,-2.7009e+001 -3.79902e+001,-4.60115e+001 -6.79888e+001,-5.90055e+001 64.9993,-2.80006e+001 96.9957,-7.89996e+001 96.9957,-1.52005e+002l0 -1.69898e+001zm-1.40003e+002 317.996l0 14.0003c0,35.0007 -1.29939e+001,59.997 -3.89966e+001,75.0037 -2.49963e+001,14.0003 -7.00015e+001,21.0004 -1.33994e+002,21.0004 -2.00089e+001,0 -4.50052e+001,-1.00636e+000 -7.30058e+001,-2.01273e+000l0 -2.02989e+002 126.994 0c78.9996,0 119.003,31.9964 119.003,94.9978zm3.99586 -3.15998e+002l0 12.9939c0,33.9944 -1.0996e+001,59.997 -3.09901e+001,78.008 -2.10004e+001,18.9877 -5.20053e+001,28.0006 -9.20083e+001,28.0006l-1.26994e+002 0 0 -2.20009e+002 82.0038 -1.99793e+000c58.9907,0 101.998,8.00651 128.001,22.9984 26.9942,15.0067 39.9882,42.0009 39.9882,80.0059z"/>
   <glyph unicode="Г" horiz-adv-x="576" d="M212.994 545.997l0 -5.26003e+002c0,-5.99378e+000 -1.99793e+000,-9.98964e+000 -5.99378e+000,-1.40003e+001 -3.99586e+000,-3.99586e+000 -8.99808e+000,-5.99378e+000 -1.40003e+001,-5.99378e+000l-9.80021e+001 0c-5.00222e+000,0 -1.00044e+001,1.99793 -1.40003e+001,5.99378 -3.99586e+000,4.01066 -5.99378e+000,8.00651 -5.99378e+000,14.0003l0 526.003c0,69.0099 17.9962,121 51.9905,154.003 35.0007,33.9944 95.0126,50.999 179,50.999 47.0031,0 92.0083,-1.99793e+000 135.001,-7.00015e+000 43.0073,-3.99586e+000 67.012,-7.99171e+000 70.0015,-1.20024e+001 3.00429,-3.99586e+000 5.00222,-8.99808e+000 5.00222,-1.59982e+001l0 -6.39929e+001c0,-6.00858e+000 -1.99793e+000,-1.00044e+001 -5.99378e+000,-1.40003e+001 -4.01066e+000,-4.01066e+000 -8.00651e+000,-6.00858e+000 -1.40003e+001,-6.00858e+000l-2.04011e+002 0c-2.99985e+001,0 -5.0999e+001,-7.00015e+000 -6.1995e+001,-1.90025e+001 -1.0996e+001,-1.29939e+001 -1.70046e+001,-3.50007e+001 -1.70046e+001,-6.69972e+001z"/>
   <glyph unicode="Е" horiz-adv-x="576" d="M515.998 26.9942c0,-7.99171e+000 -1.99793e+000,-1.40003e+001 -5.99378e+000,-1.69898e+001 -4.01066e+000,-1.99793e+000 -2.50111e+001,-6.00858e+000 -6.30013e+001,-1.10108e+001 -3.69987e+001,-3.99586e+000 -8.50081e+001,-7.00015e+000 -1.41009e+002,-7.00015e+000 -8.3987e+001,0 -1.43999e+002,17.0046 -1.79e+002,51.0138 -3.39944e+001,32.988 -5.19905e+001,84.9933 -5.19905e+001,153.988l0 349.001c0,69.0099 17.9962,121 51.9905,154.003 35.0007,33.9944 95.0126,50.999 179,50.999 47.0031,0 92.0083,-1.99793e+000 135.001,-7.00015e+000 43.0073,-3.99586e+000 67.012,-7.99171e+000 70.0015,-1.20024e+001 3.00429,-3.99586e+000 5.00222,-8.99808e+000 5.00222,-1.59982e+001l0 -6.39929e+001c0,-6.00858e+000 -1.99793e+000,-1.00044e+001 -5.99378e+000,-1.40003e+001 -4.01066e+000,-4.01066e+000 -8.00651e+000,-6.00858e+000 -1.40003e+001,-6.00858e+000l-2.04011e+002 0c-2.99985e+001,0 -5.0999e+001,-7.00015e+000 -6.1995e+001,-1.90025e+001 -1.0996e+001,-1.29939e+001 -1.70046e+001,-3.50007e+001 -1.70046e+001,-6.69972e+001l0 -1.07992e+002 271.008 0c5.00222,0 10.0044,-1.99793e+000 14.0003,-6.00858e+000 3.99586,-3.99586e+000 5.99378,-7.99171e+000 5.99378,-1.40003e+001l0 -7.19994e+001c0,-5.00222e+000 -1.99793e+000,-9.98964e+000 -5.99378e+000,-1.40003e+001 -3.99586e+000,-3.99586e+000 -8.99808e+000,-5.99378e+000 -1.40003e+001,-5.99378e+000l-2.71008e+002 0 0 -1.29007e+002c0,-3.19964e+001 6.00858,-5.39885e+001 17.0046,-6.69972e+001 10.996,-1.29939e+001 31.9964,-1.90025e+001 61.995,-1.90025e+001l204.011 0c5.99378,0 9.98964,-1.99793e+000 14.0003,-5.99378e+000 3.99586,-3.99586e+000 5.99378,-8.99808e+000 5.99378,-1.40003e+001l0 -6.40077e+001z"/>
   <glyph unicode="И" horiz-adv-x="711" d="M75.0037 40.003l0 684.002c0,12.9939 7.00015,19.0025 19.0025,19.0025l85.9997 0c12.9939,0 18.9877,-6.00858e+000 18.9877,-1.90025e+001l0 -5.26003e+002c0,-6.00858e+000 2.01273,-8.99808e+000 5.00222,-8.99808e+000 3.00429,0 6.00858,2.98949 8.00651,7.99171l233.003 514c5.00222,11.0108 10.996,19.0025 15.9982,24.0047 5.99378,5.99378 14.9919,8.00651 28.0006,8.00651l107.992 0c11.0108,0 20.0089,-4.01066e+000 28.0006,-1.20024e+001 8.00651,-8.00651e+000 12.0024,-1.70046e+001 12.0024,-2.80006e+001l0 -6.8301e+002c0,-5.99378e+000 -1.99793e+000,-9.98964e+000 -5.99378e+000,-1.40003e+001 -4.01066e+000,-3.99586e+000 -8.99808e+000,-5.99378e+000 -1.40003e+001,-5.99378e+000l-8.50081e+001 0c-5.00222e+000,0 -9.98964e+000,1.99793 -1.29939e+001,5.99378 -3.99586e+000,4.01066 -6.00858e+000,8.00651 -6.00858e+000,14.0003l0 503.004c0,5.00222 -1.99793e+000,8.00651 -4.98742e+000,8.00651 -3.00429e+000,0 -6.00858e+000,-3.00429e+000 -9.01288e+000,-8.00651e+000l-2.21992e+002 -4.86991e+002c-7.00015e+000,-1.6013e+001 -1.50067e+001,-2.60027e+001 -2.40047e+001,-3.00133e+001 -8.99808e+000,-3.99586e+000 -2.1992e+001,-5.99378e+000 -3.69987e+001,-5.99378e+000l-1.00992e+002 0c-1.10108e+001,0 -2.00089e+001,3.99586 -2.80006e+001,12.0024 -8.00651e+000,7.99171 -1.20024e+001,17.0046 -1.20024e+001,28.0006z"/>
   <glyph unicode="Л" horiz-adv-x="645" d="M484.002 17.0046l-1.45005e+002 600.992c-2.98949e+000,11.0108 -7.99171e+000,15.9982 -1.59982e+001,15.9982 -7.99171e+000,0 -1.29939e+001,-4.98742e+000 -1.59982e+001,-1.59982e+001l-1.45005e+002 -6.00992e+002c-1.99793e+000,-1.10108e+001 -8.99808e+000,-1.70046e+001 -1.89877e+001,-1.70046e+001l-1.06009e+002 0c-1.20024e+001,0 -1.79962e+001,5.99378 -1.79962e+001,17.0046 0,0.991564 0,1.99793 0.991564,5.00222l164.008 626.994c17.9962,68.0036 63.9929,101.998 138.997,101.998 75.0037,0 121,-3.39944e+001 138.997,-1.01998e+002l164.999 -6.31996e+002c0,-1.10108e+001 -5.99378e+000,-1.70046e+001 -1.79962e+001,-1.70046e+001l-1.05994e+002 0c-1.00044e+001,0 -1.59982e+001,5.99378 -1.90025e+001,17.0046z"/>
   <glyph unicode="М" horiz-adv-x="791" d="M717.005 15.0067c0,-1.00044e+001 -6.00858e+000,-1.50067e+001 -1.70046e+001,-1.50067e+001l-1.01006e+002 0c-3.99586e+000,0 -7.99171e+000,1.99793 -1.0996e+001,5.99378 -3.00429e+000,4.01066 -5.00222e+000,9.01288 -5.00222e+000,14.0003l0 464.999c0,7.00015 -9.91564e-001,10.0044 -2.98949e+000,10.0044 -1.00636e+000,0 -7.00015e+000,-1.0996e+001 -1.8011e+001,-3.19964e+001l-8.09975e+001 -1.61003e+002c-7.00015e+000,-1.40003e+001 -1.90025e+001,-2.10004e+001 -3.39944e+001,-2.10004e+001l-1.01006e+002 0c-1.49919e+001,0 -2.60027e+001,5.00222 -3.19964e+001,17.0046l-7.39973e+001 145.005c-1.70046e+001,34.9859 -2.7009e+001,51.9905 -2.80006e+001,51.9905 -1.99793e+000,0 -3.00429e+000,-3.00429e+000 -3.00429e+000,-1.00044e+001l0 -4.64999e+002c0,-4.98742e+000 -1.99793e+000,-9.98964e+000 -5.00222e+000,-1.40003e+001 -2.98949e+000,-3.99586e+000 -7.00015e+000,-5.99378e+000 -1.0996e+001,-5.99378e+000l-1.01006e+002 0c-1.0996e+001,0 -1.69898e+001,5.00222 -1.69898e+001,15.0067l0 687.998c0,10.996 3.99586,21.0004 12.0024,28.0006 7.99171,7.99171 16.9898,12.0024 28.0006,12.0024l81.989 0c17.0046,0 29.007,-8.00651e+000 36.9987,-2.40047e+001l103.004 -2.08007e+002c33.0028,-6.79888e+001 50.999,-1.03996e+002 52.9969,-1.07e+002 1.99793,-2.98949e+000 4.01066,-5.00222e+000 6.00858,-5.00222e+000 1.99793,0 5.00222,3.00429 8.99808,10.0044l124.005 252.005c21.0004,42.0009 32.988,64.9993 35.9923,68.0036 3.00429,3.99586 8.00651,7.00015 12.9939,9.98964 5.00222,3.00429 11.0108,4.01066 17.0046,4.01066l82.0038 0c10.996,0 19.9941,-4.01066e+000 28.0006,-1.20024e+001 7.99171,-8.00651e+000 12.0024,-1.70046e+001 12.0024,-2.80006e+001l0 -6.87998e+002z"/>
   <glyph unicode="О" horiz-adv-x="680" d="M624.996 303.996c0,-1.00992e+002 -2.49963e+001,-1.79e+002 -7.39973e+001,-2.31996e+002 -4.99926e+001,-5.29969e+001 -1.19994e+002,-8.00059e+001 -2.10996e+002,-8.00059e+001 -9.10019e+001,0 -1.61003e+002,27.009 -2.10004e+002,80.0059 -4.99926e+001,52.9969 -7.50037e+001,131.005 -7.50037e+001,231.996l0 135.001c0,105.002 26.0027,184.002 77.0016,235.001 52.0053,50.999 121,77.0016 208.007,77.0016 91.0019,0 161.003,-2.69942e+001 210.996,-8.00059e+001 49.001,-5.29969e+001 73.9973,-1.3099e+002 73.9973,-2.31996e+002l0 -1.35001e+002zm-1.40003e+002 0l0 135.001c0,64.9993 -1.19876e+001,113.009 -3.49859e+001,143.999 -2.40047e+001,31.0049 -6.00118e+001,47.0031 -1.10004e+002,47.0031 -5.00074e+001,0 -8.59997e+001,-1.59982e+001 -1.10004e+002,-4.70031e+001 -2.29984e+001,-3.09901e+001 -3.50007e+001,-7.89996e+001 -3.50007e+001,-1.43999e+002l0 -1.35001e+002c0,-6.49993e+001 12.0024,-1.12994e+002 35.0007,-1.4499e+002 24.0047,-3.10049e+001 59.997,-4.60115e+001 110.004,-4.60115e+001 49.9926,0 85.9997,15.0067 110.004,46.0115 22.9984,31.9964 34.9859,79.9911 34.9859,144.99z"/>
   <glyph unicode="П" horiz-adv-x="711" d="M636.999 570.993l0 -5.50999e+002c0,-5.99378e+000 -1.99793e+000,-9.98964e+000 -5.99378e+000,-1.40003e+001 -4.01066e+000,-3.99586e+000 -8.99808e+000,-5.99378e+000 -1.40003e+001,-5.99378e+000l-9.90084e+001 0c-5.00222e+000,0 -9.98964e+000,1.99793 -1.40003e+001,5.99378 -3.99586e+000,4.01066 -5.99378e+000,8.00651 -5.99378e+000,14.0003l0 550.999c0,19.0025 -3.00429e+000,32.0112 -8.99808e+000,39.0114 -6.00858e+000,7.00015 -1.70046e+001,9.98964 -3.30028e+001,9.98964l-2.0e+002 0c-1.70046e+001,0 -2.80006e+001,-2.98949e+000 -3.39944e+001,-9.98964e+000 -5.00222e+000,-7.00015e+000 -8.00651e+000,-2.00089e+001 -8.00651e+000,-3.90114e+001l0 -5.50999e+002c0,-5.99378e+000 -1.99793e+000,-9.98964e+000 -5.99378e+000,-1.40003e+001 -4.01066e+000,-3.99586e+000 -9.01288e+000,-5.99378e+000 -1.40003e+001,-5.99378e+000l-9.90084e+001 0c-5.00222e+000,0 -1.00044e+001,1.99793 -1.40003e+001,5.99378 -3.99586e+000,4.01066 -5.99378e+000,8.00651 -5.99378e+000,14.0003l0 550.999c0,60.0118 14.0003,104.011 42.0009,131.005 28.9922,28.0006 74.9889,41.0093 138.997,41.0093l200 0c63.9929,0 110.004,-1.30087e+001 138.005,-4.0003e+001 28.9922,-2.7009e+001 42.9925,-7.10078e+001 42.9925,-1.32011e+002z"/>
   <glyph unicode="Р" horiz-adv-x="626" d="M591.002 510.996c0,-5.0999e+001 -1.0996e+001,-9.39914e+001 -3.30028e+001,-1.28992e+002 -2.29984e+001,-3.50007e+001 -5.49948e+001,-6.10034e+001 -9.80021e+001,-7.89996e+001 -4.29925e+001,-1.70046e+001 -9.60041e+001,-2.60027e+001 -1.56993e+002,-2.60027e+001 -1.8011e+001,0 -4.80095e+001,0.991564 -8.9004e+001,3.99586l0 -2.61003e+002c0,-5.99378e+000 -1.99793e+000,-9.98964e+000 -5.99378e+000,-1.40003e+001 -3.00429e+000,-3.99586e+000 -8.00651e+000,-5.99378e+000 -1.30087e+001,-5.99378e+000l-100 0c-5.00222e+000,0 -1.00044e+001,1.99793 -1.40003e+001,5.99378 -3.99586e+000,4.01066 -5.99378e+000,8.00651 -5.99378e+000,14.0003l0 688.012c0,10.996 3.99586,18.9877 12.0024,23.9899 7.00015,5.00222 33.9944,8.99808 79.9911,13.0087 45.0052,3.99586 91.0019,5.99378 136.007,5.99378 93.9914,0 164.999,-1.90025e+001 214,-5.79991e+001 49.001,-3.89966e+001 73.9973,-9.69957e+001 73.9973,-1.73006e+002l0 -8.99808e+000zm-1.38005e+002 0l0 8.99808c0,40.003 -1.20024e+001,70.0015 -3.59923e+001,88.0124 -2.29984e+001,18.9877 -6.10034e+001,28.0006 -1.14e+002,28.0006 -3.20112e+001,0 -6.10034e+001,-1.00636e+000 -8.9004e+001,-4.01066e+000l0 -2.3799e+002c36.9987,-2.01273e+000 66.9972,-3.00429e+000 89.004,-3.00429e+000 51.9905,0 88.9892,10.0044 114,28.9922 23.9899,19.0025 35.9923,49.001 35.9923,91.0019z"/>
   <glyph unicode="С" horiz-adv-x="563" d="M517.996 31.0049c0,-1.10108e+001 -5.00222e+000,-1.8011e+001 -1.59982e+001,-2.10004e+001 -1.00044e+001,-4.01066e+000 -3.19964e+001,-8.00651e+000 -6.49993e+001,-1.20024e+001 -3.39944e+001,-3.99586e+000 -6.69972e+001,-6.00858e+000 -9.89936e+001,-6.00858e+000 -8.50081e+001,0 -1.53012e+002,26.0027 -2.05002e+002,78.008 -5.20053e+001,52.0053 -7.8008e+001,128.001 -7.8008e+001,228.001l0 147.003c0,77.9932 14.0003,139.988 43.0073,184.993 28.9922,45.9967 63.9929,77.0016 107,94.9978 42.0009,17.0046 85.9997,26.0027 133.003,26.0027 31.9964,0 64.9993,-1.99793e+000 98.0021,-5.99378e+000 33.9944,-4.01066e+000 55.9864,-8.00651e+000 65.9908,-1.20024e+001 10.996,-3.99586e+000 15.9982,-1.0996e+001 15.9982,-2.10004e+001l0 -6.69972e+001c0,-1.40003e+001 -7.00015e+000,-2.10004e+001 -1.99941e+001,-2.10004e+001l-1.99793e+000 0c-6.20098e+001,5.00222 -1.14e+002,7.99171 -1.56001e+002,7.99171 -9.69957e+001,0 -1.45005e+002,-6.30013e+001 -1.45005e+002,-1.86991e+002l0 -1.47003e+002c0,-1.24996e+002 48.0095,-1.87006e+002 145.005,-1.87006e+002 22.9984,0 49.001,1.00636 77.9932,3.00429l78.008 5.00222 1.99793 0c12.9939,0 19.9941,-7.00015e+000 19.9941,-2.10004e+001l0 -6.69972e+001z"/>
   <glyph unicode="Т" horiz-adv-x="579" d="M554.003 645.005c0,-1.20024e+001 -6.00858e+000,-1.8011e+001 -2.00089e+001,-1.8011e+001l-1.74989e+002 0 0 -6.07e+002c0,-5.99378e+000 -2.01273e+000,-9.98964e+000 -6.00858e+000,-1.40003e+001 -3.99586e+000,-3.99586e+000 -8.99808e+000,-5.99378e+000 -1.40003e+001,-5.99378e+000l-9.89936e+001 0c-5.00222e+000,0 -1.00044e+001,1.99793 -1.40003e+001,5.99378 -3.99586e+000,4.01066 -6.00858e+000,8.00651 -6.00858e+000,14.0003l0 607 -1.74989e+002 0c-1.30087e+001,0 -2.00089e+001,6.00858 -2.00089e+001,18.011l0 78.9996c0,5.00222 1.99793,9.98964 6.00858,14.0003 3.99586,2.98949 7.99171,5.00222 14.0003,5.00222l488.989 0c6.00858,0 10.0044,-2.01273e+000 14.0003,-5.00222e+000 4.01066,-4.01066e+000 6.00858,-8.99808e+000 6.00858,-1.40003e+001l0 -7.89996e+001z"/>
  </font>
  <font id="FontID1" horiz-adv-x="748" font-variant="normal" style="fill-rule:nonzero" font-weight="600">
	<font-face 
		font-family="Montserrat SemiBold">
		<font-face-src>
			<font-face-name name="Montserrat SemiBold"/>
		</font-face-src>
	</font-face>
   <missing-glyph><path d="M0 0z"/></missing-glyph>
   <glyph unicode="Е" horiz-adv-x="669" d="M622.998 109.001l0 -1.09001e+002 -5.24999e+002 0 0 699.999 510.999 0 0 -1.09001e+002 -3.81e+002 0 0 -1.81997e+002 338.005 0 0 -1.07002e+002 -3.38005e+002 0 0 -1.92999e+002 395.001 0z"/>
   <glyph unicode="К" horiz-adv-x="721" d="M355.997 295.003l-1.29999e+002 0 0 -2.95003e+002 -1.28e+002 0 0 699.999 128 0 0 -2.92997e+002 134.004 0 200.995 292.997 138.002 0 -2.39e+002 -3.38997e+002 248.003 -3.61002e+002 -1.47005e+002 0 -2.05001e+002 295.003z"/>
   <glyph unicode="П" horiz-adv-x="816" d="M717.998 699.999l0 -6.99999e+002 -1.28e+002 0 0 589.999 -3.63001e+002 0 0 -5.89999e+002 -1.28e+002 0 0 699.999 619 0z"/>
   <glyph unicode="Р" horiz-adv-x="718" d="M385.998 699.999c61.0011,0 113.999,-1.00026e+001 159,-3.00008e+001 45.0012,-1.99982e+001 79.0002,-4.89994e+001 103.004,-8.5997e+001 23.9964,-3.70047e+001 35.9981,-8.19988e+001 35.9981,-1.33004e+002 0,-5.09985e+001 -1.20017e+001,-9.50001e+001 -3.59981e+001,-1.31998e+002 -2.40035e+001,-3.79972e+001 -5.80025e+001,-6.69984e+001 -1.03004e+002,-8.69966e+001 -4.50012e+001,-2.00052e+001 -9.79988e+001,-3.00008e+001 -1.59e+002,-3.00008e+001l-1.58e+002 0 0 -2.02002e+002 -1.29999e+002 0 0 699.999 287.999 0zm-5.99732e+000 -3.87997e+002c57.0029,0 99.9979,11.9946 128.999,35.9981 29.0012,23.9964 44.0016,58.0025 44.0016,102.997 0,45.0012 -1.50004e+001,79.0002 -4.40016e+001,103.004 -2.90012e+001,23.9964 -7.19962e+001,35.9981 -1.28999e+002,35.9981l-1.52003e+002 0 0 -2.77996e+002 152.003 0z"/>
   <glyph unicode="С" horiz-adv-x="720" d="M419.997 -1.00026e+001c-7.09966e+001,0 -1.33997e+002,15.9999 -1.91e+002,47.0003 -5.69958e+001,31.0003 -1.01997e+002,73.0028 -1.33997e+002,128 -3.29994e+001,55.0038 -4.89994e+001,116.005 -4.89994e+001,185.002 0,68.9975 15.9999,129.999 48.9994,185.002 32.9994,54.9967 78.0006,97.9988 134.996,128.999 57.0029,31.0003 120.003,46.0007 191.007,46.0007 56.9958,0 109.993,-1.00026e+001 156.994,-3.00008e+001 47.0003,-1.99982e+001 87.0037,-4.89994e+001 120.003,-8.70037e+001l-8.39979e+001 -7.90002e+001c-5.10056e+001,55.0038 -1.12999e+002,82.0059 -1.87002e+002,82.0059 -4.79998e+001,0 -9.10019e+001,-1.00026e+001 -1.28999e+002,-3.10003e+001 -3.80043e+001,-2.10048e+001 -6.80051e+001,-5.10056e+001 -8.90028e+001,-8.80032e+001 -2.09977e+001,-3.69977e+001 -3.19999e+001,-7.99997e+001 -3.19999e+001,-1.27e+002 0,-4.70003e+001 11.0022,-9.00023e+001 31.9999,-1.27e+002 20.9977,-3.69977e+001 50.9985,-6.59989e+001 89.0028,-8.69966e+001 37.9972,-2.10048e+001 80.9993,-3.19999e+001 128.999,-3.19999e+001 74.0024,0 135.996,27.9946 187.002,82.9984l83.9979 -7.99997e+001c-3.29994e+001,-3.80043e+001 -7.30028e+001,-6.69984e+001 -1.20003e+002,-8.70037e+001 -4.79998e+001,-1.99982e+001 -1.00997e+002,-3.00008e+001 -1.58e+002,-3.00008e+001z"/>
   <glyph unicode="Т" horiz-adv-x="619" d="M605.999 589.999l-2.31996e+002 0 0 -5.89999e+002 -1.29006e+002 0 0 589.999 -2.30996e+002 0 0 110 591.998 0 0 -1.1e+002z"/>
   <glyph unicode="Э" horiz-adv-x="710" d="M305.998 710.002c68.0051,0 128.999,-1.50004e+001 184.003,-4.60007e+001 53.9972,-3.10003e+001 95.9997,-7.40024e+001 127,-1.28999e+002 31.0003,-5.50038e+001 46.0007,-1.16005e+002 46.0007,-1.85002e+002 0,-6.89975e+001 -1.50004e+001,-1.29999e+002 -4.60007e+001,-1.85002e+002 -3.10003e+001,-5.49967e+001 -7.30028e+001,-9.69992e+001 -1.27e+002,-1.28e+002 -5.50038e+001,-3.10003e+001 -1.15998e+002,-4.70003e+001 -1.84003e+002,-4.70003e+001 -5.89949e+001,0 -1.12999e+002,10.0026 -1.60999e+002,30.0008 -4.89994e+001,20.0052 -8.89957e+001,48.9994 -1.20996e+002,87.0037l81.9988 79.9997c50.9985,-5.50038e+001 115.998,-8.29984e+001 192.999,-8.29984e+001 60.0016,0 111,17.9991 152.995,54.9967 41.003,36.9977 67.0055,84.9975 76.0015,144.999l-3.12995e+002 0 0 103.004 310.996 0c-1.10022e+001,56.9958 -3.69977e+001,101.997 -7.80006e+001,136.996 -4.09959e+001,34.9985 -9.10019e+001,52.0051 -1.48997e+002,52.0051 -7.70011e+001,0 -1.42e+002,-2.80017e+001 -1.92999e+002,-8.30055e+001l-8.19988e+001 79.9997c31.9999,38.0043 71.9962,67.0055 120.996,87.0037 47.9998,19.9982 102.004,30.0008 160.999,30.0008z"/>
  </font>
  <font id="FontID0" horiz-adv-x="786" font-variant="normal" style="fill-rule:nonzero" font-weight="800">
	<font-face 
		font-family="Montserrat ExtraBold">
		<font-face-src>
			<font-face-name name="Montserrat ExtraBold"/>
		</font-face-src>
	</font-face>
   <missing-glyph><path d="M0 0z"/></missing-glyph>
   <glyph unicode="Б" horiz-adv-x="741" d="M75.0019 699.999l585.001 0 0 -1.53003e+002 -3.90003e+002 0 0 -1.12999e+002 180.997 0c85.0046,0 150.004,-1.79991e+001 195.005,-5.39972e+001 45.0012,-3.59981e+001 67.998,-8.80032e+001 67.998,-1.55002e+002 0,-7.09966e+001 -2.5003e+001,-1.26e+002 -7.60015e+001,-1.64997e+002 -5.09985e+001,-4.00034e+001 -1.21995e+002,-6.00016e+001 -2.12997e+002,-6.00016e+001l-3.5e+002 0 0 699.999zm336.998 -5.57999e+002c32.9994,0 59.002,6.99687 76.0015,19.9982 16.9995,13.0013 25.9955,31.9999 25.9955,57.0029 0,48.9994 -3.3999e+001,73.9953 -1.01997e+002,73.9953l-1.42e+002 0 0 -1.50996e+002 142 0z"/>
   <glyph unicode="В" horiz-adv-x="744" d="M585.001 366c40.9959,-1.30013e+001 72.9958,-3.3999e+001 95.0001,-6.20007e+001 20.9977,-2.80017e+001 31.9999,-6.30002e+001 31.9999,-1.03996e+002 0,-6.20007e+001 -2.40035e+001,-1.11e+002 -7.20033e+001,-1.46006e+002 -4.89994e+001,-3.59981e+001 -1.16997e+002,-5.39972e+001 -2.06e+002,-5.39972e+001l-3.58996e+002 0 0 699.999 339.997 0c83.9979,0 149.004,-1.59999e+001 195.998,-4.70003e+001 46.0007,-3.19999e+001 69.0046,-7.70011e+001 69.0046,-1.34996e+002 0,-3.40061e+001 -8.00352e+000,-6.39998e+001 -2.40035e+001,-9.00023e+001 -1.69995e+001,-2.60026e+001 -3.99963e+001,-4.70003e+001 -7.09966e+001,-6.20007e+001zm-3.15001e+002 53.9972l126 0c55.9963,0 83.9979,23.0039 83.9979,69.0046 0,46.0007 -2.80017e+001,68.9975 -8.39979e+001,68.9975l-1.26e+002 0 0 -1.38002e+002zm156.001 -2.77996e+002c56.9958,0 85.997,23.9964 85.997,73.0028 0,47.0003 -2.90012e+001,70.9966 -8.5997e+001,70.9966l-1.56001e+002 0 0 -1.43999e+002 156.001 0z"/>
   <glyph unicode="И" horiz-adv-x="820" d="M75.0019 699.999l194.998 0 0 -4.11001e+002 288.999 411.001 186.002 0 0 -6.99999e+002 -1.94998e+002 0 0 410.001 -2.87999e+002 -4.10001e+002 -1.87002e+002 0 0 699.999z"/>
   <glyph unicode="К" horiz-adv-x="749" d="M358.003 268.001l-9.00023e+001 0 0 -2.68001e+002 -1.97004e+002 0 0 699.999 197.004 0 0 -2.71999e+002 95.0001 0 166.996 271.999 207.999 0 -2.18994e+002 -3.37998e+002 221.001 -3.62001e+002 -2.23e+002 0 -1.59e+002 268.001z"/>
   <glyph unicode="Н" horiz-adv-x="815" d="M741.002 699.999l0 -6.99999e+002 -1.98004e+002 0 0 272.999 -2.7e+002 0 0 -2.72999e+002 -1.97997e+002 0 0 699.999 197.997 0 0 -2.62996e+002 270 0 0 262.996 198.004 0z"/>
   <glyph unicode="О" horiz-adv-x="839" d="M418.997 -1.40008e+001c-7.39953e+001,0 -1.39994e+002,15.9999 -1.98996e+002,47.0003 -5.9002e+001,31.0003 -1.06002e+002,75.0019 -1.39002e+002,129.999 -3.3999e+001,55.0038 -5.09985e+001,118.004 -5.09985e+001,187.002 0,68.9975 16.9995,131.998 50.9985,187.002 32.9994,54.9967 79.9997,98.9983 139.002,129.999 59.002,31.0003 125.001,47.0003 198.996,47.0003 74.0024,0 141.001,-1.59999e+001 200.003,-4.70003e+001 59.002,-3.10003e+001 105.003,-7.50019e+001 139.002,-1.29999e+002 32.9994,-5.50038e+001 49.9989,-1.18004e+002 49.9989,-1.87002e+002 0,-6.89975e+001 -1.69995e+001,-1.31998e+002 -4.99989e+001,-1.87002e+002 -3.3999e+001,-5.49967e+001 -7.99997e+001,-9.89983e+001 -1.39002e+002,-1.29999e+002 -5.9002e+001,-3.10003e+001 -1.26e+002,-4.70003e+001 -2.00003e+002,-4.70003e+001zm0 163.998c35.0056,0 67.0055,8.00352 95.9997,25.003 29.0012,16.9995 51.0056,40.0034 68.0051,70.9966 16.9995,30.0008 24.9959,65.0064 24.9959,104.003 0,39.0038 -7.99643e+000,74.0024 -2.49959e+001,105.003 -1.69995e+001,30.0008 -3.90038e+001,52.9976 -6.80051e+001,69.9971 -2.89941e+001,16.9995 -6.0994e+001,25.003 -9.59997e+001,25.003 -3.49985e+001,0 -6.69984e+001,-8.00352e+000 -9.59997e+001,-2.5003e+001 -2.89941e+001,-1.69995e+001 -5.09985e+001,-3.99963e+001 -6.7998e+001,-6.99971e+001 -1.69995e+001,-3.10003e+001 -2.5003e+001,-6.59989e+001 -2.5003e+001,-1.05003e+002 0,-3.89968e+001 8.00352,-7.40024e+001 25.003,-1.04003e+002 16.9995,-3.09932e+001 39.0038,-5.39972e+001 67.998,-7.09966e+001 29.0012,-1.69995e+001 61.0011,-2.5003e+001 95.9997,-2.5003e+001z"/>
   <glyph unicode="Р" horiz-adv-x="730" d="M395.001 699.999c63.0002,0 117.997,-1.00026e+001 164.997,-3.10003e+001 47.0003,-2.09977e+001 83.0055,-5.09985e+001 108.001,-9.00023e+001 25.003,-3.89968e+001 37.9972,-8.49975e+001 37.9972,-1.37995e+002 0,-5.30047e+001 -1.29942e+001,-9.79988e+001 -3.79972e+001,-1.37003e+002 -2.49959e+001,-3.89968e+001 -6.10011e+001,-6.7998e+001 -1.08001e+002,-8.89957e+001 -4.70003e+001,-2.10048e+001 -1.01997e+002,-3.19999e+001 -1.64997e+002,-3.19999e+001l-1.22002e+002 0 0 -1.83003e+002 -1.97997e+002 0 0 699.999 319.999 0zm-1.20017e+001 -3.61002e+002c41.003,0 71.0037,9.00307 92.0014,27.0021 20.9977,16.9995 31.0003,42.0025 31.0003,75.0019 0,32.9994 -1.00026e+001,57.9954 -3.10003e+001,76.0015 -2.09977e+001,17.9991 -5.09985e+001,26.995 -9.20014e+001,26.995l-1.1e+002 0 0 -2.05001e+002 110 0z"/>
   <glyph unicode="С" horiz-adv-x="730" d="M415.999 -1.40008e+001c-7.29958e+001,0 -1.39002e+002,15.9999 -1.96997e+002,47.0003 -5.9002e+001,31.0003 -1.05003e+002,74.0024 -1.38002e+002,128.999 -3.29994e+001,55.0038 -4.99989e+001,118.004 -4.99989e+001,188.001 0,69.9971 16.9995,132.997 49.9989,188.001 32.9994,54.9967 79.0002,98.9983 138.002,129.999 57.9954,31.0003 124.001,46.0007 196.997,46.0007 63.9998,0 122.002,-1.10022e+001 173.001,-3.3999e+001 50.9985,-2.30039e+001 94.0006,-5.50038e+001 128,-9.79988e+001l-1.26e+002 -1.14006e+002c-4.50012e+001,55.0038 -9.99979e+001,82.0059 -1.64997e+002,82.0059 -3.80043e+001,0 -7.20033e+001,-8.00352e+000 -1.01005e+002,-2.5003e+001 -2.99937e+001,-1.69995e+001 -5.29976e+001,-3.99963e+001 -6.89975e+001,-6.99971e+001 -1.69995e+001,-3.10003e+001 -2.49959e+001,-6.59989e+001 -2.49959e+001,-1.05003e+002 0,-3.89968e+001 7.99643,-7.40024e+001 24.9959,-1.04003e+002 15.9999,-3.09932e+001 39.0038,-5.39972e+001 68.9975,-7.09966e+001 29.0012,-1.69995e+001 63.0002,-2.5003e+001 101.005,-2.5003e+001 64.9993,0 119.996,27.0021 164.997,82.0059l126 -1.14006e+002c-3.3999e+001,-4.2995e+001 -7.70011e+001,-7.49949e+001 -1.28e+002,-9.79988e+001 -5.09985e+001,-2.29968e+001 -1.09001e+002,-3.3999e+001 -1.73001e+002,-3.3999e+001z"/>
  </font>
  <style type="text/css">
   <![CDATA[
    @font-face { font-family:"Neo Sans Cyr Medium";font-variant:normal;font-style:normal;font-weight:normal;src:url("#FontID2") format(svg)}
    @font-face { font-family:"Montserrat SemiBold";font-variant:normal;font-weight:600;src:url("#FontID1") format(svg)}
    @font-face { font-family:"Montserrat ExtraBold";font-variant:normal;font-weight:800;src:url("#FontID0") format(svg)}
    .fil1 {fill:#3D3D3D}
    .fil0 {fill:#FF9000}
    .fnt2 {font-weight:normal;font-size:675.18px;font-family:'Neo Sans Cyr Medium'}
    .fnt1 {font-weight:600;font-size:1409.55px;font-family:'Montserrat SemiBold'}
    .fnt0 {font-weight:800;font-size:1409.55px;font-family:'Montserrat ExtraBold'}
   ]]>
  </style>
 </defs>
 <g id="Слой_x0020_1">
  <metadata id="CorelCorpID_0Corel-Layer"/>
  <g id="_105553384143104">
   <rect class="fil0" x="-0" y="-0" width="18576.92" height="4034.02"/>
   <g>
    <text x="412.57" y="1930.04"  class="fil1 fnt0">НОВОСИБИРСК</text>
    <text x="412.57" y="3096.31"  class="fil1 fnt1">ЭКСПЕРТ</text>
    <rect class="fil1" x="12987.47" y="705.92" width="288.68" height="2622.17"/>
    <text x="13651.93" y="1832.93"  class="fil1 fnt2">АВТОМОБИЛИ</text>
    <text x="13651.93" y="2702.85"  class="fil1 fnt2">С ПРОБЕГОМ</text>
   </g>
  </g>
 </g>
</svg>
